<?xml version="1.0" ?><svg cb-classname="ControlMacro" cb-create-time="03/27/2014" cb-export-tracking="disabled" cb-filename="Z:/OVATION/ControlMacros/CV_VALVE.svg" cb-function-id="0000" cb-key="433215255112" cb-macro-crc="24129" cb-modify-id="4" cb-ortho-mode="enabled" cb-path="Z:/OVATION/ControlMacros" cb-revision="A" cb-sheet-title="CV_VLV" cb-snap-grid="10" height="3522" id="1" width="5450" xmlns="http://www.w3.org/2000/svg">
<style cb-classname="EntityStyle" id="2" type="text/css">
	.algorithm { fill: white; stroke: black; stroke-width: 3 }
	.algorithm-function { fill: black; stroke: none }
	.algorithm-functionline { fill: none; stroke: black; stroke-linecap: round; stroke-width: 3 }
	.algorithm-name { fill: black; stroke: none }
	.algorithm-nameline { fill: none; stroke: black; stroke-linecap: round; stroke-width: 3 }
	.algorithm-sequence { fill: black; stroke: none; visibility: hidden }
	.algorithm-sequenceline { fill: none; stroke: black; stroke-linecap: round; stroke-width: 3; visibility: hidden }
	.algorithmline { fill: none; stroke: black; stroke-linecap: round; stroke-width: 3 }
	.annotation { fill: black; stroke: none }
	.annotationline { fill: none; stroke: black; stroke-linecap: round; stroke-width: 3 }
	.frame { fill: black; stroke: none }
	.frameline { fill: none; stroke: black; stroke-linecap: round; stroke-width: 3 }
	.signal { fill: black; stroke: none }
	.signalline { fill: none; stroke: black; stroke-linecap: round; stroke-width: 3 }
	text.algorithm { fill: black; font-family: Arial; font-size: 22; stroke: none }
	text.algorithm-function { fill: black; font-family: Arial; font-size: 22; stroke: none }
	text.algorithm-name { fill: black; font-family: Arial; font-size: 22; stroke: none }
	text.algorithm-sequence { fill: black; font-family: Arial; font-size: 22; stroke: none; visibility: hidden }
	text.annotation { fill: black; font-family: Arial; font-size: 22; stroke: none }
	text.frame { fill: black; font-family: Arial; font-size: 18; stroke: none }
	text.signal { fill: black; font-family: Arial; font-size: 12; stroke: none }
</style>
<g cb-classname="NamedObject" cb-objectname="Comments" id="3"/>
<g cb-classname="AlgorithmContainer" cb-objectname="Algorithms" id="4">
<g cb-alg-nYXP="NO" cb-alg-vArU="AO" cb-alg-ys7A="AO" cb-alg-zYXa="$65$cb-alg-tout$" cb-algorithm-id="002" cb-classname="ExternalPointInterface" cb-function-name="INPUT" cb-modify-id="1" id="8x">
<ellipse cb-classname="GraphicEllipseEntity" class="algorithm" cx="1710" cy="880" id="8b" rx="40" ry="40"/>
<rect cb-classname="GraphicRectangleEntity" class="algorithm" height="30" id="8g" width="80" x="1670" y="810"/>
<line cb-classname="GraphicLineEntity" class="algorithm" id="8o" x1="1710" x2="1710" y1="840" y2="810"/>
<g cb-classname="PointStatusIndicator" cb-indicator-type="Highway" cb-source="Cq-jNj-vyd" id="8y">
<line cb-classname="GraphicLineEntity" class="algorithmline" id="8G" x1="1710" x2="1670" y1="840" y2="880"/>
<line cb-classname="GraphicLineEntity" class="algorithmline" id="9K" x1="1670" x2="1710" y1="880" y2="920"/>
<line cb-classname="GraphicLineEntity" class="algorithmline" id="9Q" x1="1710" x2="1750" y1="920" y2="880"/>
<line cb-classname="GraphicLineEntity" class="algorithmline" id="9R" x1="1750" x2="1710" y1="880" y2="840"/>
</g>
<g cb-classname="PointStatusIndicator" cb-indicator-type="hardware" cb-source="rF-Qhw-b8X" id="9H">
<line cb-classname="GraphicLineEntity" class="algorithmline" id="9x" x1="1670" x2="1670" y1="840" y2="920"/>
<line cb-classname="GraphicLineEntity" class="algorithmline" id="9b" x1="1670" x2="1750" y1="920" y2="920"/>
<line cb-classname="GraphicLineEntity" class="algorithmline" id="9g" x1="1750" x2="1750" y1="920" y2="840"/>
</g>
<g cb-classname="PointStatusIndicator" cb-indicator-type="alarm" cb-source="rX-Lmp-Ly2" id="9o">
<text baseline-shift="-50%" cb-classname="GraphicTextEntity" class="algorithm" fill="#000000" font-family="Arial" font-size="20" id="9y" text-anchor="middle" x="1690" y="821">
A
</text>
</g>
<g cb-classname="PointStatusIndicator" cb-indicator-type="ingraphic" cb-source="FK-jdT-5et" id="9G">
<text baseline-shift="-50%" cb-classname="GraphicTextEntity" class="algorithm" fill="#000000" font-family="Arial" font-size="20" id="1Kd" text-anchor="middle" x="1730" y="819">
G
</text>
</g>
<g cb-classname="DynamicText" cb-labeled="false" cb-pin-name="KHj" cb-source="Cq-jNj-vyd" class="algorithm" id="1K7" text-anchor="middle">
<text cb-classname="GraphicTextEntity" class="algorithm" fill="black" font-family="Arial" font-size="20" font-style="normal" font-weight="normal" id="1Kw" text-anchor="middle" text-decoration="normal" x="1710" y="800"/>
</g>
<g baseline-shift="-100%" cb-anchor-x="1723" cb-anchor-y="933" cb-classname="PointReferences" cb-max-width="240" cb-originator="true" cb-source="Jl-knc-OMZ" class="signal" id="1KP" text-anchor="start">
<text baseline-shift="-100%" cb-classname="GraphicTextEntity" class="algorithm" id="1KI" text-anchor="start" x="1723" y="933">
REF: Not Defined
</text>
<text baseline-shift="-100%" cb-classname="GraphicTextEntity" class="algorithm" id="1Ke" text-anchor="start" x="1723" y="969">
(CB-ALG-OUT)
</text>
</g>
<g baseline-shift="0%" cb-anchor-x="1710" cb-anchor-y="770" cb-classname="PointDescription" cb-content="extended" cb-labeled="false" cb-max-width="240" cb-source="rF-Qhw-b8X" class="algorithm" id="1KL" text-anchor="middle">
<text baseline-shift="0%" cb-classname="GraphicTextEntity" class="algorithm" id="1KA" text-anchor="middle" x="1710" y="700">
DESC: Name Not
</text>
<text baseline-shift="0%" cb-classname="GraphicTextEntity" class="algorithm" id="1Kx" text-anchor="middle" x="1710" y="736">
Defined
</text>
<text baseline-shift="0%" cb-classname="GraphicTextEntity" class="algorithm" id="1KZ" text-anchor="middle" x="1710" y="772">
(cb-alg-out)
</text>
</g>
<g cb-classname="ControlPin" cb-pin-name="rX-Lmp-Ly2" id="1Qd">
<line cb-classname="GraphicLineEntity" class="signalline" id="1Q7" x1="1710" x2="1710" y1="920" y2="940"/>
<g cb-classname="SignalSegment" id="1x7">
<g cb-classname="SignalConnection" cb-graphic-line="$144$" cb-input-pin="$cJ$" id="1xe"/>
<line cb-classname="GraphicLineEntity" class="signalline" id="1xI" stroke="green" stroke-dasharray="5,4" x1="1710" x2="1710" y1="940" y2="1260"/>
</g>
</g>
</g>
<g cb-alg-bpC0="0.000000" cb-alg-diUT="20" cb-alg-iI7="$84$cb-alg-out$" cb-alg-rTRx="1" cb-alg-tNU7="2.5" cb-alg-tNc5="NORMAL" cb-alg-tNz8="$112$cb-alg-tout$" cb-alg-tSC0="100.000000" cb-algorithm-id="001" cb-classname="ControlAlgorithm" cb-function-name="RATELIMIT" cb-macro-alg="C651" cb-macro-btsc="BOTTOM" cb-macro-diag="C651:DIAG" cb-macro-fout="D653" cb-macro-in1="AO" cb-macro-out="AI" cb-macro-ralm="RATE" cb-macro-tout="A652" cb-macro-tpsc="TOP" cb-macro-trat="TRACK" cb-macro-trin="AI" cb-macro-trop="C651:TROP" cb-modify-id="1" id="6b">
<rect cb-classname="GraphicRectangleEntity" class="algorithm" height="60" id="6g" width="100" x="1660" y="1280"/>
<line cb-classname="GraphicLineEntity" class="algorithmline" id="6o" x1="1720" x2="1750" y1="1295" y2="1310"/>
<line cb-classname="GraphicLineEntity" class="algorithmline" id="6y" x1="1750" x2="1720" y1="1310" y2="1325"/>
<text baseline-shift="-50%" cb-classname="GraphicTextEntity" class="algorithm" font-size="33" id="6G" text-anchor="middle" x="1690" y="1305">
V
</text>
<line cb-classname="GraphicLineEntity" class="algorithmline" id="7K" x1="1730" x2="1730" y1="1290" y2="1330"/>
<g cb-classname="ControlPin" cb-pin-name="rX-Lmp-fGE" id="7Q">
<line cb-classname="GraphicLineEntity" class="signalline" id="7R" x1="1710" x2="1710" y1="1260" y2="1280"/>
<polygon cb-classname="GraphicPolygonEntity" class="signal" id="7H" points="1710,1280 1714,1269 1706,1269"/>
<g cb-classname="DynamicText" cb-source="AF-0fG-h6bm" class="signal" id="7x">
<text baseline-shift="5%" cb-classname="GraphicTextEntity" class="signal" fill="black" font-style="normal" font-weight="normal" id="7b" text-decoration="normal" transform="translate(1706,1259)rotate(-90)"/>
</g>
</g>
<g cb-classname="ControlPin" cb-pin-name="Th-QWU-MFG" id="7g">
<line cb-classname="GraphicLineEntity" class="signalline" id="7o" x1="1710" x2="1710" y1="1340" y2="1360"/>
<g cb-classname="DynamicText" cb-source="cL-5TN-t6ph" class="signal" id="7y" text-anchor="end">
<text baseline-shift="5%" cb-classname="GraphicTextEntity" class="signal" fill="black" font-style="normal" font-weight="normal" id="7G" text-anchor="end" text-decoration="normal" transform="translate(1706,1347)rotate(-90)"/>
</g>
<g cb-classname="SignalSegment" id="1xL">
<line cb-classname="GraphicLineEntity" class="signalline" id="2o7" stroke="green" stroke-dasharray="5,4" x1="1710" x2="1710" y1="1360" y2="1440"/>
<g cb-classname="SignalSegment" id="2ow">
<g cb-classname="SignalConnection" cb-graphic-line="$275$" cb-input-pin="$6YG$" id="2oL"/>
<line cb-classname="GraphicLineEntity" class="signalline" id="2oe" x1="1710" x2="1880" y1="1440" y2="1440"/>
<ellipse cb-classname="GraphicEllipseEntity" class="signal" cx="1710" cy="1440" id="2oA" rx="5" ry="5" stroke="black"/>
<line cb-classname="GraphicLineEntity" class="signalline" id="3gP" stroke="green" stroke-dasharray="5,4" x1="1710" x2="1710" y1="1440" y2="1580"/>
<g cb-classname="SignalSegment" id="3gI">
<line cb-classname="GraphicLineEntity" class="signalline" id="1xZ" stroke="green" stroke-dasharray="5,4" x1="1710" x2="1710" y1="1580" y2="1730"/>
<g cb-classname="SignalConnection" cb-graphic-line="$149$" cb-input-pin="$kGV$" id="1bd"/>
<g cb-classname="SignalConnection" cb-graphic-line="$367$" cb-input-pin="$yg2$" id="3gx"/>
<line cb-classname="GraphicLineEntity" class="signalline" id="3gA" x1="1710" x2="1880" y1="1580" y2="1580"/>
<ellipse cb-classname="GraphicEllipseEntity" class="signal" cx="1710" cy="1580" id="3gZ" rx="5" ry="5" stroke="black"/>
</g>
</g>
</g>
</g>
<g cb-classname="ControlPin" cb-pin-name="rF-Qhw-R02C" id="8K">
<line cb-classname="GraphicLineEntity" class="signalline" id="8Q" x1="1760" x2="1790" y1="1300" y2="1300"/>
<g cb-classname="DynamicText" cb-source="Xw-UXa-DtI6" class="signal" id="8R">
<text baseline-shift="5%" cb-classname="GraphicTextEntity" class="signal" fill="black" font-style="normal" font-weight="normal" id="8H" text-decoration="normal" x="1782" y="1291"/>
</g>
</g>
<g cb-classname="ControlMacroParameterInterface" cb-param-desc="Track Ramp Rate" cb-param-name="TRACK" cb-source="FK-jdT-2Y6K" id="1b7"/>
<g cb-classname="ControlMacroParameterInterface" cb-param-desc="Rate of change Limit in second" cb-param-name="RATE" cb-source="AF-tzu-Y6TY" id="1bw"/>
<g cb-classname="ControlMacroParameterInterface" cb-param-desc="Top of Scale" cb-param-name="TOP" cb-source="Cq-jNj-tRNA" id="1bP"/>
<g cb-classname="ControlMacroParameterInterface" cb-param-desc="Bottom of Scale" cb-param-name="BOTTOM" cb-source="Th-QWU-nd2I" id="1bI"/>
</g>
<g cb-alg-ELQW="AI" cb-alg-Xa="$65$cb-alg-out$" cb-alg-fU4T="AI" cb-algorithm-id="003" cb-classname="ExternalPointInterface" cb-function-name="OUTPUT" cb-modify-id="1" id="1Qw">
<ellipse cb-classname="GraphicEllipseEntity" class="algorithm" cx="1710" cy="1790" id="1QP" rx="40" ry="40"/>
<rect cb-classname="GraphicRectangleEntity" class="algorithm" height="30" id="1QI" rx="0" width="80" x="1670" y="1830"/>
<line cb-classname="GraphicLineEntity" class="algorithm" id="1Qe" x1="1710" x2="1710" y1="1830" y2="1860"/>
<g cb-classname="PointStatusIndicator" cb-indicator-type="hardware" cb-source="Jl-knc-XD" id="1QL">
<line cb-classname="GraphicLineEntity" class="algorithmline" id="1QA" x1="1670" x2="1670" y1="1830" y2="1750"/>
<line cb-classname="GraphicLineEntity" class="algorithmline" id="1Qx" x1="1670" x2="1750" y1="1750" y2="1750"/>
<line cb-classname="GraphicLineEntity" class="algorithmline" id="1QZ" x1="1750" x2="1750" y1="1750" y2="1830"/>
</g>
<g cb-classname="PointStatusIndicator" cb-indicator-type="Highway" cb-source="0t-5gg-LD" id="1Rd">
<line cb-classname="GraphicLineEntity" class="algorithmline" id="1R7" x1="1670" x2="1710" y1="1790" y2="1750"/>
<line cb-classname="GraphicLineEntity" class="algorithmline" id="1Rw" x1="1710" x2="1750" y1="1750" y2="1790"/>
<line cb-classname="GraphicLineEntity" class="algorithmline" id="1RP" x1="1750" x2="1710" y1="1790" y2="1830"/>
<line cb-classname="GraphicLineEntity" class="algorithmline" id="1RI" x1="1710" x2="1670" y1="1830" y2="1790"/>
</g>
<g cb-classname="PointStatusIndicator" cb-indicator-type="alarm" cb-source="FK-jdT-sh" id="1Re">
<text cb-classname="GraphicTextEntity" class="algorithm" fill="#000000" font-family="Arial" font-size="20" id="1RL" x="1683" y="1854">
A
</text>
</g>
<g cb-classname="PointStatusIndicator" cb-indicator-type="ingraphic" cb-source="Cq-jNj-uq" id="1RA">
<text cb-classname="GraphicTextEntity" class="algorithm" fill="#000000" font-family="Arial" font-size="20" id="1Rx" x="1720" y="1855">
G
</text>
</g>
<g baseline-shift="-100%" cb-anchor-x="1710" cb-anchor-y="1910" cb-classname="PointDescription" cb-content="extended" cb-labeled="false" cb-max-width="240" cb-source="Jl-knc-XD" class="algorithm" id="1RZ" text-anchor="middle">
<text baseline-shift="-100%" cb-classname="GraphicTextEntity" class="algorithm" id="1Hd" text-anchor="middle" x="1710" y="1910">
DESC: Name Not
</text>
<text baseline-shift="-100%" cb-classname="GraphicTextEntity" class="algorithm" id="1H7" text-anchor="middle" x="1710" y="1946">
Defined (cb-alg-in)
</text>
</g>
<g cb-classname="DynamicText" cb-labeled="false" cb-pin-name="bn" cb-source="0t-5gg-LD" class="algorithm" id="1HP" text-anchor="middle">
<text baseline-shift="-50%" cb-classname="GraphicTextEntity" class="algorithm" fill="black" font-family="Arial" font-size="20" font-style="normal" font-weight="normal" id="1HI" text-anchor="middle" text-decoration="normal" x="1710" y="1880"/>
</g>
<g baseline-shift="0%" cb-anchor-x="1730" cb-anchor-y="1730" cb-classname="PointReferences" cb-max-width="240" cb-originator="false" cb-source="x3-6T9-fv" class="signal" id="1He" text-anchor="start">
<text baseline-shift="0%" cb-classname="GraphicTextEntity" class="algorithm" id="1HL" text-anchor="start" x="1730" y="1695">
REF: Not Defined
</text>
<text baseline-shift="0%" cb-classname="GraphicTextEntity" class="algorithm" id="1HA" text-anchor="start" x="1730" y="1731">
(CB-ALG-IN)
</text>
</g>
<g cb-classname="ControlPin" cb-pin-name="FK-jdT-sh" id="1Hx">
<line cb-classname="GraphicLineEntity" class="signalline" id="1HZ" x1="1710" x2="1710" y1="1730" y2="1750"/>
<polygon cb-classname="GraphicPolygonEntity" class="signal" id="1xd" points="1710,1750 1714,1739 1706,1739"/>
</g>
</g>
<g cb-alg-ELah="0.0" cb-alg-ELw0="95" cb-alg-H2S="$65$cb-alg-out$" cb-alg-YLj8="63" cb-algorithm-id="006" cb-classname="ControlAlgorithm" cb-function-name="HIGHMON" cb-macro-alg="C2561" cb-macro-diag="C2561:DIAG" cb-macro-hidb="C2561:HIDB" cb-macro-hisp="OPLIM" cb-macro-out="D2" cb-modify-id="4" id="2bL">
<rect cb-classname="GraphicRectangleEntity" class="algorithm" height="40" id="2bA" width="80" x="1900" y="1420"/>
<line cb-classname="GraphicLineEntity" class="algorithmline" id="2bx" x1="1948" x2="1928" y1="1420" y2="1460"/>
<line cb-classname="GraphicLineEntity" class="algorithmline" id="2bZ" x1="1952" x2="1932" y1="1420" y2="1460"/>
<text baseline-shift="-50%" cb-classname="GraphicTextEntity" class="algorithm" id="2gd" text-anchor="middle" x="1916" y="1439">
H
</text>
<g cb-classname="ControlPin" cb-pin-name="Fv-d6D-XaZ" id="2g7">
<line cb-classname="GraphicLineEntity" class="signalline" id="2gw" x1="1880" x2="1900" y1="1440" y2="1440"/>
<polygon cb-classname="GraphicPolygonEntity" class="signal" id="2gP" points="1900,1440 1889,1436 1889,1444"/>
<g cb-classname="DynamicText" cb-source="Xw-UXa-DtI6" class="signal" id="2gI" text-anchor="end">
<text baseline-shift="5%" cb-classname="GraphicTextEntity" class="signal" fill="black" font-style="normal" font-weight="normal" id="2ge" text-anchor="end" text-decoration="normal" x="1900" y="1432"/>
</g>
</g>
<g cb-classname="ControlPin" cb-pin-name="rX-Lmp-Ly2" id="2gL">
<line cb-classname="GraphicLineEntity" class="signalline" id="2gA" x1="1980" x2="2000" y1="1440" y2="1440"/>
<g cb-classname="DynamicText" cb-source="FK-3fv-Z1pL" class="signal" id="2gx">
<text baseline-shift="5%" cb-classname="GraphicTextEntity" class="signal" fill="black" font-style="normal" font-weight="normal" id="2gZ" text-decoration="normal" x="1995" y="1432"/>
</g>
<g cb-classname="SignalSegment" id="3KA">
<g cb-classname="SignalConnection" cb-graphic-line="$310$" cb-input-pin="$51b$" id="3Q7"/>
<line cb-classname="GraphicLineEntity" class="signalline" id="3Qd" stroke="#1e12bf" stroke-dasharray="5,4" x1="2000" x2="2510" y1="1440" y2="1440"/>
</g>
</g>
<g cb-classname="ControlMacroParameterInterface" cb-param-desc="Open lim sw position" cb-param-name="OPLIM" cb-source="Cq-jNj-4cNv" id="2od"/>
<g cb-classname="GraphicShape" id="3Qw">
<g cb-classname="DynamicText" cb-labeled="true" cb-source="Fv-d6D-VH43" id="3QP">
<text cb-classname="GraphicTextEntity" class="algorithm" id="3QI" text-anchor="start" x="1900" y="1410"/>
</g>
</g>
</g>
<g cb-alg-Bv="$256$cb-alg-out$" cb-alg-FORF="OPEN" cb-alg-N5uJ="D2" cb-algorithm-id="007" cb-classname="ExternalPointInterface" cb-function-name="OUTPUT" cb-modify-id="4" id="2ox">
<ellipse cb-classname="GraphicEllipseEntity" class="algorithm" cx="2570" cy="1440" id="2oZ" rx="40" ry="40"/>
<rect cb-classname="GraphicRectangleEntity" class="algorithm" height="80" id="2yd" width="30" x="2610" y="1400"/>
<line cb-classname="GraphicLineEntity" class="algorithm" id="2y7" x1="2610" x2="2640" y1="1440" y2="1440"/>
<g cb-classname="PointStatusIndicator" cb-indicator-type="highway" cb-source="AF-tzu-jy" id="2yw">
<line cb-classname="GraphicLineEntity" class="algorithmline" id="2yP" x1="2530" x2="2570" y1="1440" y2="1400"/>
<line cb-classname="GraphicLineEntity" class="algorithmline" id="2yI" x1="2570" x2="2610" y1="1400" y2="1440"/>
<line cb-classname="GraphicLineEntity" class="algorithmline" id="2ye" x1="2610" x2="2570" y1="1440" y2="1480"/>
<line cb-classname="GraphicLineEntity" class="algorithmline" id="2yL" x1="2570" x2="2530" y1="1480" y2="1440"/>
</g>
<g cb-classname="PointStatusIndicator" cb-indicator-type="hardware" cb-source="Fv-d6D-Xa" id="2yA">
<line cb-classname="GraphicLineEntity" class="algorithmline" id="2yx" x1="2610" x2="2530" y1="1400" y2="1400"/>
<line cb-classname="GraphicLineEntity" class="algorithmline" id="2yZ" x1="2530" x2="2530" y1="1400" y2="1480"/>
<line cb-classname="GraphicLineEntity" class="algorithmline" id="2Gd" x1="2530" x2="2610" y1="1480" y2="1480"/>
</g>
<g cb-classname="PointStatusIndicator" cb-indicator-type="alarm" cb-source="x3-6T9-fv" id="2G7">
<text cb-classname="GraphicTextEntity" class="algorithm" fill="#000000" font-family="Arial" font-size="20" id="2Gw" x="2617" y="1429">
A
</text>
</g>
<g cb-classname="PointStatusIndicator" cb-indicator-type="ingraphic" cb-source="qH-le8-KZ" id="2GP">
<text cb-classname="GraphicTextEntity" class="algorithm" fill="#000000" font-family="Arial" font-size="20" id="2GI" x="2615" y="1470">
G
</text>
</g>
<g cb-classname="DynamicText" cb-labeled="false" cb-pin-name="xk" cb-source="AF-tzu-jy" class="algorithm" id="2Ge" text-anchor="end">
<text baseline-shift="0%" cb-classname="GraphicTextEntity" class="algorithm" fill="black" font-family="Arial" font-size="20" font-style="normal" font-weight="normal" id="2GL" text-anchor="end" text-decoration="normal" x="2507" y="1419"/>
</g>
<g baseline-shift="-100%" cb-anchor-x="2508" cb-anchor-y="1456" cb-classname="PointReferences" cb-max-width="240" cb-originator="false" cb-source="Th-QWU-cC" class="signal" id="2GA" text-anchor="end">
<text baseline-shift="-100%" cb-classname="GraphicTextEntity" class="algorithm" id="2Gx" text-anchor="end" x="2508" y="1456">
REF: Not Defined
</text>
<text baseline-shift="-100%" cb-classname="GraphicTextEntity" class="algorithm" id="2GZ" text-anchor="end" x="2508" y="1492">
(CB-ALG-IN)
</text>
</g>
<g baseline-shift="-50%" cb-anchor-x="2661" cb-anchor-y="1438" cb-classname="PointDescription" cb-content="extended" cb-labeled="false" cb-max-width="240" cb-source="Fv-d6D-Xa" class="algorithm" id="3Kd" text-anchor="start">
<text baseline-shift="-50%" cb-classname="GraphicTextEntity" class="algorithm" id="3K7" text-anchor="start" x="2661" y="1421">
DESC: Name Not
</text>
<text baseline-shift="-50%" cb-classname="GraphicTextEntity" class="algorithm" id="3Kw" text-anchor="start" x="2661" y="1457">
Defined (cb-alg-in)
</text>
</g>
<g cb-classname="ControlPin" cb-pin-name="x3-6T9-fv" id="3KI">
<line cb-classname="GraphicLineEntity" class="signalline" id="3Ke" x1="2510" x2="2530" y1="1440" y2="1440"/>
<polygon cb-classname="GraphicPolygonEntity" class="signal" id="3KL" points="2530,1440 2519,1434 2519,1445"/>
</g>
</g>
<g cb-alg-ZTQD="60" cb-alg-rbE="$65$cb-alg-out$" cb-alg-wzF3="0.000000" cb-alg-wzlV="5" cb-algorithm-id="008" cb-classname="ControlAlgorithm" cb-function-name="LOWMON" cb-macro-alg="C3151" cb-macro-diag="C3151:DIAG" cb-macro-lodb="C3151:LODB" cb-macro-losp="CLLIM" cb-macro-out="D3" cb-modify-id="4" id="3Qe">
<rect cb-classname="GraphicRectangleEntity" class="algorithm" height="40" id="3QL" width="80" x="1900" y="1560"/>
<line cb-classname="GraphicLineEntity" class="algorithmline" id="3QA" x1="1948" x2="1928" y1="1560" y2="1600"/>
<line cb-classname="GraphicLineEntity" class="algorithmline" id="3Qx" x1="1952" x2="1932" y1="1560" y2="1600"/>
<text baseline-shift="-50%" cb-classname="GraphicTextEntity" class="algorithm" id="3QZ" text-anchor="middle" x="1965" y="1579">
L
</text>
<g cb-classname="ControlPin" cb-pin-name="FK-jdT-shD" id="3Rd">
<line cb-classname="GraphicLineEntity" class="signalline" id="3R7" x1="1880" x2="1900" y1="1580" y2="1580"/>
<polygon cb-classname="GraphicPolygonEntity" class="signal" id="3Rw" points="1900,1580 1889,1576 1889,1584"/>
<g cb-classname="DynamicText" cb-source="Th-ish-qIsQ" class="signal" id="3RP" text-anchor="end">
<text baseline-shift="5%" cb-classname="GraphicTextEntity" class="signal" fill="black" font-style="normal" font-weight="normal" id="3RI" text-anchor="end" text-decoration="normal" x="1897" y="1572"/>
</g>
</g>
<g cb-classname="ControlPin" cb-pin-name="cL-43Z-Sn8" id="3Re">
<line cb-classname="GraphicLineEntity" class="signalline" id="3RL" x1="1980" x2="2000" y1="1580" y2="1580"/>
<g cb-classname="DynamicText" cb-source="rF-iZt-alVS" class="signal" id="3RA">
<text baseline-shift="5%" cb-classname="GraphicTextEntity" class="signal" fill="black" font-style="normal" font-weight="normal" id="3Rx" text-decoration="normal" x="1995" y="1572"/>
</g>
<g cb-classname="SignalSegment" id="3bx">
<g cb-classname="SignalConnection" cb-graphic-line="$361$" cb-input-pin="$nhS$" id="3gw"/>
<line cb-classname="GraphicLineEntity" class="signalline" id="3g7" stroke="#1e12bf" stroke-dasharray="5,4" x1="2000" x2="2510" y1="1580" y2="1580"/>
</g>
</g>
<g cb-classname="GraphicShape" id="3od">
<g cb-classname="DynamicText" cb-labeled="true" cb-source="qH-le8-N5Xf" id="3o7">
<text cb-classname="GraphicTextEntity" class="algorithm" id="3ow" text-anchor="start" x="1900" y="1550"/>
</g>
</g>
<g cb-classname="ControlMacroParameterInterface" cb-param-desc="Close lim sw position" cb-param-name="CLLIM" cb-source="AF-tzu-nvHQ" id="3oP"/>
</g>
<g cb-alg-Pu1q="CLOSE" cb-alg-TN="$315$cb-alg-out$" cb-alg-bQms="D3" cb-algorithm-id="009" cb-classname="ExternalPointInterface" cb-function-name="OUTPUT" cb-modify-id="4" id="3RZ">
<ellipse cb-classname="GraphicEllipseEntity" class="algorithm" cx="2570" cy="1580" id="3Hd" rx="40" ry="40"/>
<rect cb-classname="GraphicRectangleEntity" class="algorithm" height="80" id="3H7" width="30" x="2610" y="1540"/>
<line cb-classname="GraphicLineEntity" class="algorithm" id="3Hw" x1="2610" x2="2640" y1="1580" y2="1580"/>
<g cb-classname="PointStatusIndicator" cb-indicator-type="highway" cb-source="FK-jdT-sh" id="3HP">
<line cb-classname="GraphicLineEntity" class="algorithmline" id="3HI" x1="2530" x2="2570" y1="1580" y2="1540"/>
<line cb-classname="GraphicLineEntity" class="algorithmline" id="3He" x1="2570" x2="2610" y1="1540" y2="1580"/>
<line cb-classname="GraphicLineEntity" class="algorithmline" id="3HL" x1="2610" x2="2570" y1="1580" y2="1620"/>
<line cb-classname="GraphicLineEntity" class="algorithmline" id="3HA" x1="2570" x2="2530" y1="1620" y2="1580"/>
</g>
<g cb-classname="PointStatusIndicator" cb-indicator-type="hardware" cb-source="cL-43Z-DE" id="3Hx">
<line cb-classname="GraphicLineEntity" class="algorithmline" id="3HZ" x1="2610" x2="2530" y1="1540" y2="1540"/>
<line cb-classname="GraphicLineEntity" class="algorithmline" id="3xd" x1="2530" x2="2530" y1="1540" y2="1620"/>
<line cb-classname="GraphicLineEntity" class="algorithmline" id="3x7" x1="2530" x2="2610" y1="1620" y2="1620"/>
</g>
<g cb-classname="PointStatusIndicator" cb-indicator-type="alarm" cb-source="Xw-AjP-LM" id="3xw">
<text cb-classname="GraphicTextEntity" class="algorithm" fill="#000000" font-family="Arial" font-size="20" id="3xP" x="2617" y="1569">
A
</text>
</g>
<g cb-classname="PointStatusIndicator" cb-indicator-type="ingraphic" cb-source="rX-Lmp-fG" id="3xI">
<text cb-classname="GraphicTextEntity" class="algorithm" fill="#000000" font-family="Arial" font-size="20" id="3xe" x="2615" y="1610">
G
</text>
</g>
<g cb-classname="DynamicText" cb-labeled="false" cb-pin-name="N1" cb-source="FK-jdT-sh" class="algorithm" id="3xL" text-anchor="end">
<text baseline-shift="0%" cb-classname="GraphicTextEntity" class="algorithm" fill="black" font-family="Arial" font-size="20" font-style="normal" font-weight="normal" id="3xA" text-anchor="end" text-decoration="normal" x="2507" y="1559"/>
</g>
<g baseline-shift="-100%" cb-anchor-x="2508" cb-anchor-y="1596" cb-classname="PointReferences" cb-max-width="240" cb-originator="false" cb-source="Cq-jNj-uq" class="signal" id="3xx" text-anchor="end">
<text baseline-shift="-100%" cb-classname="GraphicTextEntity" class="algorithm" id="3xZ" text-anchor="end" x="2508" y="1596">
REF: Not Defined
</text>
<text baseline-shift="-100%" cb-classname="GraphicTextEntity" class="algorithm" id="3bd" text-anchor="end" x="2508" y="1632">
(CB-ALG-IN)
</text>
</g>
<g baseline-shift="-50%" cb-anchor-x="2661" cb-anchor-y="1578" cb-classname="PointDescription" cb-content="extended" cb-labeled="false" cb-max-width="240" cb-source="cL-43Z-DE" class="algorithm" id="3b7" text-anchor="start">
<text baseline-shift="-50%" cb-classname="GraphicTextEntity" class="algorithm" id="3bw" text-anchor="start" x="2661" y="1561">
DESC: Name Not
</text>
<text baseline-shift="-50%" cb-classname="GraphicTextEntity" class="algorithm" id="3bP" text-anchor="start" x="2661" y="1597">
Defined (cb-alg-in)
</text>
</g>
<g cb-classname="ControlPin" cb-pin-name="Xw-AjP-LM" id="3be">
<line cb-classname="GraphicLineEntity" class="signalline" id="3bL" x1="2510" x2="2530" y1="1580" y2="1580"/>
<polygon cb-classname="GraphicPolygonEntity" class="signal" id="3bA" points="2530,1580 2519,1574 2519,1585"/>
</g>
</g>
<g cb-alg-1fQj="69" cb-alg-qjN3="0" cb-algorithm-id="004" cb-classname="ControlAlgorithm" cb-function-name="DVALGEN" cb-macro-alg="C1551" cb-macro-diag="C1551:DIAG" cb-macro-out="D1" cb-macro-valu="C1551:VALU" cb-modify-id="2" id="1be">
<rect cb-classname="GraphicRectangleEntity" class="algorithm" height="60" id="1bL" width="100" x="1930" y="1170"/>
<text baseline-shift="-50%" cb-classname="GraphicTextEntity" class="algorithm" font-size="18" id="1bA" text-anchor="middle" x="1980" y="1187">
DVAL
</text>
<text baseline-shift="-50%" cb-classname="GraphicTextEntity" class="algorithm" font-size="18" id="1bx" text-anchor="middle" x="1980" y="1213">
GEN
</text>
<g cb-classname="ControlPin" cb-pin-name="0t-5gg-02C" id="1bZ">
<line cb-classname="GraphicLineEntity" class="signalline" id="1gd" x1="2030" x2="2050" y1="1200" y2="1200"/>
<g cb-classname="DynamicText" cb-source="x3-IH2-MjUR" class="signal" id="1g7">
<text baseline-shift="5%" cb-classname="GraphicTextEntity" class="signal" fill="black" font-style="normal" font-weight="normal" id="1gw" text-decoration="normal" x="2044" y="1190"/>
</g>
<g cb-classname="SignalSegment" id="1Gw">
<g cb-classname="SignalConnection" cb-graphic-line="$195$" cb-input-pin="$7Ll$" id="1GL"/>
<line cb-classname="GraphicLineEntity" class="signalline" id="1Ge" stroke="#1e12bf" stroke-dasharray="5,4" x1="2050" x2="2510" y1="1200" y2="1200"/>
</g>
</g>
</g>
<g cb-alg-DE="$155$cb-alg-out$" cb-alg-iJiC="READY" cb-alg-t6ph="D1" cb-algorithm-id="005" cb-classname="ExternalPointInterface" cb-function-name="OUTPUT" cb-modify-id="2" id="1gP">
<ellipse cb-classname="GraphicEllipseEntity" class="algorithm" cx="2570" cy="1200" id="1gI" rx="40" ry="40"/>
<rect cb-classname="GraphicRectangleEntity" class="algorithm" height="80" id="1ge" width="30" x="2610" y="1160"/>
<line cb-classname="GraphicLineEntity" class="algorithm" id="1gL" x1="2610" x2="2640" y1="1200" y2="1200"/>
<g cb-classname="PointStatusIndicator" cb-indicator-type="highway" cb-source="Th-QWU-cC" id="1gA">
<line cb-classname="GraphicLineEntity" class="algorithmline" id="1gx" x1="2530" x2="2570" y1="1200" y2="1160"/>
<line cb-classname="GraphicLineEntity" class="algorithmline" id="1gZ" x1="2570" x2="2610" y1="1160" y2="1200"/>
<line cb-classname="GraphicLineEntity" class="algorithmline" id="1od" x1="2610" x2="2570" y1="1200" y2="1240"/>
<line cb-classname="GraphicLineEntity" class="algorithmline" id="1o7" x1="2570" x2="2530" y1="1240" y2="1200"/>
</g>
<g cb-classname="PointStatusIndicator" cb-indicator-type="hardware" cb-source="0t-5gg-LD" id="1ow">
<line cb-classname="GraphicLineEntity" class="algorithmline" id="1oP" x1="2610" x2="2530" y1="1160" y2="1160"/>
<line cb-classname="GraphicLineEntity" class="algorithmline" id="1oI" x1="2530" x2="2530" y1="1160" y2="1240"/>
<line cb-classname="GraphicLineEntity" class="algorithmline" id="1oe" x1="2530" x2="2610" y1="1240" y2="1240"/>
</g>
<g cb-classname="PointStatusIndicator" cb-indicator-type="alarm" cb-source="qH-le8-KZ" id="1oL">
<text cb-classname="GraphicTextEntity" class="algorithm" fill="#000000" font-family="Arial" font-size="20" id="1oA" x="2617" y="1189">
A
</text>
</g>
<g cb-classname="PointStatusIndicator" cb-indicator-type="ingraphic" cb-source="AF-tzu-jy" id="1ox">
<text cb-classname="GraphicTextEntity" class="algorithm" fill="#000000" font-family="Arial" font-size="20" id="1oZ" x="2615" y="1230">
G
</text>
</g>
<g cb-classname="DynamicText" cb-labeled="false" cb-pin-name="gy" cb-source="Th-QWU-cC" class="algorithm" id="1yd" text-anchor="end">
<text baseline-shift="0%" cb-classname="GraphicTextEntity" class="algorithm" fill="black" font-family="Arial" font-size="20" font-style="normal" font-weight="normal" id="1y7" text-anchor="end" text-decoration="normal" x="2507" y="1179"/>
</g>
<g baseline-shift="-100%" cb-anchor-x="2508" cb-anchor-y="1216" cb-classname="PointReferences" cb-max-width="240" cb-originator="false" cb-source="cL-43Z-DE" class="signal" id="1yw" text-anchor="end">
<text baseline-shift="-100%" cb-classname="GraphicTextEntity" class="algorithm" id="1yP" text-anchor="end" x="2508" y="1216">
REF: Not Defined
</text>
<text baseline-shift="-100%" cb-classname="GraphicTextEntity" class="algorithm" id="1yI" text-anchor="end" x="2508" y="1252">
(CB-ALG-IN)
</text>
</g>
<g baseline-shift="-50%" cb-anchor-x="2661" cb-anchor-y="1198" cb-classname="PointDescription" cb-content="extended" cb-labeled="false" cb-max-width="240" cb-source="0t-5gg-LD" class="algorithm" id="1ye" text-anchor="start">
<text baseline-shift="-50%" cb-classname="GraphicTextEntity" class="algorithm" id="1yL" text-anchor="start" x="2661" y="1181">
DESC: Name Not
</text>
<text baseline-shift="-50%" cb-classname="GraphicTextEntity" class="algorithm" id="1yA" text-anchor="start" x="2661" y="1217">
Defined (cb-alg-in)
</text>
</g>
<g cb-classname="ControlPin" cb-pin-name="qH-le8-KZ" id="1yZ">
<line cb-classname="GraphicLineEntity" class="signalline" id="1Gd" x1="2510" x2="2530" y1="1200" y2="1200"/>
<polygon cb-classname="GraphicPolygonEntity" class="signal" id="1G7" points="2530,1200 2519,1194 2519,1205"/>
</g>
</g>
</g>
<g cb-classname="IncludeDocument" cb-modify-time="03/12/2018 11:07:58" cb-objectname="frame" id="5">
<text cb-classname="GraphicTextEntity" class="frame" font-size="50" id="7yA" x="3660" y="3146">
Project Title &lt;Edit in FRAME.SVG&gt;
</text>
<g baseline-shift="-50%" cb-classname="DynamicText" cb-source="FK-asLi-jA" class="frame" id="7yx">
<text cb-classname="GraphicTextEntity" class="frame" fill="black" font-family="arial" font-size="25" font-style="normal" font-weight="normal" id="7yZ" text-decoration="normal" x="4715" y="3325">

</text>
</g>
<g baseline-shift="-50%" cb-classname="DynamicText" cb-source="Cq-uY5I-cf" class="frame" id="7Gd" text-anchor="middle">
<text cb-classname="GraphicTextEntity" class="frame" fill="black" font-family="arial" font-size="48" font-style="normal" font-weight="normal" id="7G7" text-anchor="middle" text-decoration="normal" x="4900" y="3320">

</text>
</g>
<g baseline-shift="-50%" cb-classname="DynamicText" cb-source="Jl-21d0-4U" class="frame" id="7Gw" text-anchor="middle">
<text cb-classname="GraphicTextEntity" class="frame" fill="black" font-family="arial" font-size="48" font-style="normal" font-weight="normal" id="7GP" text-anchor="middle" text-decoration="normal" x="5067" y="3324">

</text>
</g>
<g cb-classname="DynamicText" cb-source="Fv-DXOsM-GLCz6" class="frame" id="7GI">
<text cb-classname="GraphicTextEntity" class="frame" fill="black" font-family="arial" font-size="48" font-style="normal" font-weight="normal" id="7Ge" text-decoration="normal" x="3660" y="3224">
CV_VLV
</text>
</g>
<g baseline-shift="-50%" cb-classname="DynamicText" cb-source="0t-15JUG-MdUAwl" class="frame" id="7GL" text-anchor="middle">
<text cb-classname="GraphicTextEntity" class="frame" fill="black" font-family="arial" font-size="48" font-style="normal" font-weight="normal" id="7GA" text-anchor="middle" text-decoration="normal" x="5270" y="3324">

</text>
</g>
<g baseline-shift="0%" cb-classname="DynamicText" cb-source="x3-PUYLmfJZ" class="frame" id="7Gx" text-anchor="middle">
<text cb-classname="GraphicTextEntity" class="frame" fill="black" font-family="arial" font-size="36" font-style="normal" font-weight="normal" id="7GZ" text-anchor="middle" text-decoration="normal" x="5270" y="3150">
A
</text>
</g>
<g baseline-shift="0%" cb-classname="DynamicText" cb-source="qH-1WqfxsKy-d40T" class="frame" id="8Kd" text-anchor="middle">
<text cb-classname="GraphicTextEntity" class="frame" fill="black" font-family="arial" font-size="20" font-style="normal" font-weight="normal" id="8K7" text-anchor="middle" text-decoration="normal" x="5270" y="3230">

</text>
</g>
<g baseline-shift="-50%" cb-classname="DynamicText" cb-source="AF-SvushYLU" class="frame" id="8Kw" text-anchor="end">
<text cb-classname="GraphicTextEntity" class="frame" fill="black" font-family="arial" font-size="26" font-style="normal" font-weight="normal" id="8KP" text-anchor="end" text-decoration="normal" x="4500" y="3420">

</text>
</g>
<g baseline-shift="-50%" cb-classname="DynamicText" cb-source="Th-YRAuLLaF" class="frame" id="8KI" text-anchor="end">
<text cb-classname="GraphicTextEntity" class="frame" fill="black" font-family="arial" font-size="26" font-style="normal" font-weight="normal" id="8Ke" text-anchor="end" text-decoration="normal" x="5353" y="3420">

</text>
</g>
<g cb-classname="GraphicShape" cb-tag="BORDER" id="8KL">
<line cb-classname="GraphicLineEntity" class="frameline" id="8KA" x1="40" x2="40" y1="40" y2="3460"/>
<line cb-classname="GraphicLineEntity" class="frameline" id="8Kx" x1="40" x2="5380" y1="3460" y2="3460"/>
<line cb-classname="GraphicLineEntity" class="frameline" id="8KZ" x1="5380" x2="5380" y1="3460" y2="40"/>
<line cb-classname="GraphicLineEntity" class="frameline" id="8Qd" x1="5380" x2="40" y1="40" y2="40"/>
<line cb-classname="GraphicLineEntity" class="frame" id="8Q7" x1="5430" x2="5440" y1="3510" y2="3510"/>
</g>
<g cb-classname="GraphicShape" cb-tag="TITLE BOX" id="8Qw">
<line cb-classname="GraphicLineEntity" class="frameline" id="8QP" x1="2340" x2="2340" y1="3080" y2="3460"/>
<line cb-classname="GraphicLineEntity" class="frameline" id="8QI" x1="2340" x2="5380" y1="3080" y2="3080"/>
<line cb-classname="GraphicLineEntity" class="frameline" id="8Qe" x1="3650" x2="3650" y1="3460" y2="3080"/>
<line cb-classname="GraphicLineEntity" class="frameline" id="8QL" x1="3650" x2="5380" y1="3240" y2="3240"/>
<line cb-classname="GraphicLineEntity" class="frameline" id="8QA" x1="3650" x2="5380" y1="3390" y2="3390"/>
<line cb-classname="GraphicLineEntity" class="frameline" id="8Qx" x1="3650" x2="5380" y1="3160" y2="3160"/>
<line cb-classname="GraphicLineEntity" class="frameline" id="8QZ" x1="3650" x2="4520" y1="3320" y2="3320"/>
<line cb-classname="GraphicLineEntity" class="frameline" id="8Rd" x1="4520" x2="5380" y1="3290" y2="3290"/>
<line cb-classname="GraphicLineEntity" class="frameline" id="8R7" x1="4520" x2="5380" y1="3240" y2="3240"/>
<line cb-classname="GraphicLineEntity" class="frameline" id="8Rw" x1="4520" x2="4520" y1="3240" y2="3460"/>
<line cb-classname="GraphicLineEntity" class="frameline" id="8RP" x1="4810" x2="4810" y1="3240" y2="3390"/>
<line cb-classname="GraphicLineEntity" class="frameline" id="8RI" x1="4990" x2="4990" y1="3240" y2="3390"/>
<line cb-classname="GraphicLineEntity" class="frameline" id="8Re" x1="5150" x2="5150" y1="3080" y2="3390"/>
</g>
<g cb-classname="GraphicShape" cb-tag="TEXT LABELS" id="8RL">
<text baseline-shift="-50%" cb-classname="GraphicTextEntity" class="frame" font-size="25" id="8RA" text-anchor="middle" x="4890" y="3252">
Drop
</text>
<text baseline-shift="-50%" cb-classname="GraphicTextEntity" class="frame" font-size="25" id="8Rx" text-anchor="middle" x="5075" y="3252">
Task
</text>
<text baseline-shift="-50%" cb-classname="GraphicTextEntity" class="frame" font-size="25" id="8RZ" text-anchor="middle" x="5265" y="3252">
Sheet
</text>
<text cb-classname="GraphicTextEntity" class="frame" font-size="25" id="8Hd" x="5152" y="3107">
Rev.
</text>
<text cb-classname="GraphicTextEntity" class="frame" font-size="25" id="8H7" x="3653" y="3418">
Engineer
</text>
<text cb-classname="GraphicTextEntity" class="frame" font-size="25" id="8Hw" x="4528" y="3419">
Approved
</text>
<text cb-classname="GraphicTextEntity" class="frame" font-size="25" id="8HP" x="5152" y="3187">
Date
</text>
<text baseline-shift="-50%" cb-classname="GraphicTextEntity" class="frame" font-size="25" id="8HI" text-anchor="middle" x="4660" y="3252">
Drawing Number
</text>
<text baseline-shift="-50%" cb-classname="GraphicTextEntity" class="frame" font-size="25" id="8He" text-anchor="middle" x="4680" y="3325">
CTL
</text>
</g>
<text baseline-shift="-50%" cb-classname="GraphicTextEntity" class="frame" font-size="48" id="8HL" text-anchor="middle" x="3000" y="3100">
EMERSON PROCESS MANAGEMENT
</text>
<g baseline-shift="-100%" cb-anchor-x="2360" cb-anchor-y="3140" cb-classname="GroupText" cb-max-width="1260" fill="black" id="8HA">
<text baseline-shift="-100%" cb-classname="GraphicTextEntity" class="frame" fill="black" font-family="arial" font-size="22" font-weight="normal" id="8Hx" text-anchor="start" text-decoration="normal" x="2360" y="3140">
THIS DOCUMENT CONTAINS INFORMATION PROPRIETARY TO EMERSON PROCESS
</text>
<text baseline-shift="-100%" cb-classname="GraphicTextEntity" class="frame" fill="black" font-family="arial" font-size="22" font-weight="normal" id="8HZ" text-anchor="start" text-decoration="normal" x="2360" y="3176">
MANAGEMENT POWER &amp; WATER SOLUTIONS, INC. IT IS SUBMITTED IN CONFIDENCE AND
</text>
<text baseline-shift="-100%" cb-classname="GraphicTextEntity" class="frame" fill="black" font-family="arial" font-size="22" font-weight="normal" id="8xd" text-anchor="start" text-decoration="normal" x="2360" y="3212">
TRUST, IS TO BE USED BY YOU SOLELY FOR THE PURPOSES FOR WHICH IT IS
</text>
<text baseline-shift="-100%" cb-classname="GraphicTextEntity" class="frame" fill="black" font-family="arial" font-size="22" font-weight="normal" id="8x7" text-anchor="start" text-decoration="normal" x="2360" y="3248">
FURNISHED AND IS TO BE RETURNED UPON REQUEST. THIS DOCUMENT AND ANY
</text>
<text baseline-shift="-100%" cb-classname="GraphicTextEntity" class="frame" fill="black" font-family="arial" font-size="22" font-weight="normal" id="8xw" text-anchor="start" text-decoration="normal" x="2360" y="3284">
OTHER INFORMATION PROVIDED TO YOU IS NOT TO BE REPRODUCED, TRANSMITTED,
</text>
<text baseline-shift="-100%" cb-classname="GraphicTextEntity" class="frame" fill="black" font-family="arial" font-size="22" font-weight="normal" id="8xP" text-anchor="start" text-decoration="normal" x="2360" y="3320">
DISCLOSED, OR USED OTHERWISE IN WHOLE OR IN PART WITHOUT THE PRIOR
</text>
<text baseline-shift="-100%" cb-classname="GraphicTextEntity" class="frame" fill="black" font-family="arial" font-size="22" font-weight="normal" id="8xI" text-anchor="start" text-decoration="normal" x="2360" y="3356">
WRITTEN AUTHORIZATION OF EMERSON PROCESS MANAGEMENT POWER &amp; WATER
</text>
<text baseline-shift="-100%" cb-classname="GraphicTextEntity" class="frame" fill="black" font-family="arial" font-size="22" font-weight="normal" id="8xe" text-anchor="start" text-decoration="normal" x="2360" y="3392">
SOLUTIONS,INC.
</text>
</g>
</g>
</svg>