<?xml version="1.0" ?><svg cb-classname="ControlMacro" cb-create-time="12/06/2018" cb-engineer="R.Kragnys" cb-export-tracking="disabled" cb-filename="Z:\OVATION\ControlMacros\NRO-BALRATE.svg" cb-function-id="0000" cb-key="234244332152" cb-macro-crc="47637" cb-modify-id="2" cb-path="Z:/OVATION/ControlMacros" cb-revision="A" cb-sheet-title="ENERO - Balancing rate" cb-snap-grid="10" height="3522" id="1" width="5450" xmlns="http://www.w3.org/2000/svg">
<style cb-classname="EntityStyle" id="2" type="text/css">
	.algorithm { fill: white; stroke: black; stroke-width: 3 }
	.algorithm-function { fill: black; stroke: none }
	.algorithm-functionline { fill: none; stroke: black; stroke-linecap: round; stroke-width: 3 }
	.algorithm-name { fill: black; stroke: none }
	.algorithm-nameline { fill: none; stroke: black; stroke-linecap: round; stroke-width: 3 }
	.algorithm-sequence { fill: black; stroke: none; visibility: hidden }
	.algorithm-sequenceline { fill: none; stroke: black; stroke-linecap: round; stroke-width: 3; visibility: hidden }
	.algorithmline { fill: none; stroke: black; stroke-linecap: round; stroke-width: 3 }
	.annotation { fill: black; stroke: none }
	.annotationline { fill: none; stroke: black; stroke-linecap: round; stroke-width: 3 }
	.description { fill: black; stroke: none }
	.descriptionline { fill: none; stroke: black; stroke-linecap: round; stroke-width: 3 }
	.frame { fill: black; stroke: none }
	.frameline { fill: none; stroke: black; stroke-linecap: round; stroke-width: 3 }
	.signal { fill: black; stroke: none }
	.signalline { fill: none; stroke: black; stroke-linecap: round; stroke-width: 3 }
	text.algorithm { fill: black; font-family: Arial; font-size: 22; stroke: none }
	text.algorithm-function { fill: black; font-family: Arial; font-size: 22; stroke: none }
	text.algorithm-name { fill: black; font-family: Arial; font-size: 22; stroke: none }
	text.algorithm-sequence { fill: black; font-family: Arial; font-size: 22; stroke: none; visibility: hidden }
	text.annotation { fill: black; font-family: Arial; font-size: 22; stroke: none }
	text.description { fill: black; font-family: Arial; font-size: 28; stroke: none }
	text.frame { fill: black; font-family: Arial; font-size: 18; stroke: none }
	text.signal { fill: black; font-family: Arial; font-size: 12; stroke: none }
</style>
<g cb-classname="NamedObject" cb-objectname="Comments" id="3"/>
<g cb-classname="AlgorithmContainer" cb-objectname="Algorithms" id="4">
<g cb-alg-Bfmh="LIM-IN" cb-alg-CK07="NO" cb-alg-I13z="LIMIT % INPUT" cb-algorithm-id="006" cb-classname="ExternalPointInterface" cb-function-name="INPUT" cb-modify-id="1" id="31p">
<ellipse cb-classname="GraphicEllipseEntity" class="algorithm" cx="3000" cy="390" id="31A" rx="40" ry="40"/>
<g cb-classname="DynamicText" cb-labeled="false" cb-pin-name="F5D" cb-source="M1-gia-sN1o" class="algorithm" id="31K" text-anchor="middle">
<text baseline-shift="0%" cb-classname="GraphicTextEntity" class="algorithm" fill="black" font-family="Arial" font-size="20" id="31I" text-anchor="middle" x="3000" y="310"/>
</g>
<g cb-classname="ControlPin" cb-pin-name="4h-ST3-9Aa" id="31X">
<line cb-classname="GraphicLineEntity" class="signalline" id="31s" x1="3000" x2="3000" y1="430" y2="450"/>
<g cb-classname="SignalSegment" id="31S">
<g cb-classname="SignalConnection" cb-graphic-line="$338$" cb-input-pin="$xqW$" id="31Q"/>
<line cb-classname="GraphicLineEntity" class="signalline" id="31Z" x1="3000" x2="3000" y1="450" y2="510"/>
</g>
</g>
<g cb-classname="DynamicText" cb-labeled="false" cb-source="DU-SzB-ByPL" id="31w">
<text baseline-shift="-50%" cb-classname="GraphicTextEntity" class="algorithm" id="3jp" text-anchor="middle" x="3000" y="390"/>
</g>
</g>
<g cb-alg-HNyA="69" cb-alg-LGej="1" cb-algorithm-id="043" cb-classname="ControlAlgorithm" cb-function-name="DVALGEN" cb-macro-alg="C3581" cb-macro-diag="C3581:DIAG" cb-macro-out="D3582" cb-macro-valu="C3581:VALU" cb-modify-id="1" id="3bZ">
<rect cb-classname="GraphicRectangleEntity" class="algorithm" height="60" id="3bw" width="100" x="2150" y="1940"/>
<text baseline-shift="-50%" cb-classname="GraphicTextEntity" class="algorithm" font-size="18" id="3ip" text-anchor="middle" x="2200" y="1957">
DVAL
</text>
<text baseline-shift="-50%" cb-classname="GraphicTextEntity" class="algorithm" font-size="18" id="3iA" text-anchor="middle" x="2200" y="1983">
GEN
</text>
<g cb-classname="ControlPin" cb-pin-name="0V-rq6-cbw" id="3iK">
<line cb-classname="GraphicLineEntity" class="signalline" id="3iI" x1="2250" x2="2270" y1="1970" y2="1970"/>
<g cb-classname="DynamicText" cb-source="cJ-6jB-SGdz" class="signal" id="3iX">
<text baseline-shift="5%" cb-classname="GraphicTextEntity" class="signal" fill="black" font-style="normal" font-weight="normal" id="3is" text-decoration="normal" x="2264" y="1960"/>
</g>
<g cb-classname="SignalSegment" id="3iS">
<g cb-classname="SignalConnection" cb-graphic-line="$368$" cb-input-pin="$TZl$" id="3iQ"/>
<line cb-classname="GraphicLineEntity" class="signalline" id="3iZ" stroke="#1e12bf" stroke-dasharray="5,4" x1="2270" x2="2340" y1="1970" y2="1970"/>
</g>
</g>
</g>
<g cb-alg-Bfmh="BALRT" cb-alg-CK07="NO" cb-alg-I13z="BALANCING RATE [%/SCAN]" cb-algorithm-id="001" cb-classname="ExternalPointInterface" cb-function-name="INPUT" cb-modify-id="1" id="6QI">
<ellipse cb-classname="GraphicEllipseEntity" class="algorithm" cx="3350" cy="700" fill="none" id="6QX" rx="40" ry="40" stroke-dasharray="solid line"/>
<g cb-classname="DynamicText" cb-labeled="false" cb-pin-name="Zu" cb-source="M1-gia-sN1o" class="algorithm" id="6Qs" text-anchor="end">
<text baseline-shift="-100%" cb-classname="GraphicTextEntity" class="algorithm" fill="black" font-family="Arial" font-size="20" font-style="normal" font-weight="normal" id="6QS" text-anchor="start" text-decoration="normal" x="3403" y="672"/>
</g>
<g cb-classname="ControlPin" cb-pin-name="4h-ST3-9Aa" id="6QQ">
<line cb-classname="GraphicLineEntity" class="signalline" id="6QZ" x1="3310" x2="3290" y1="700" y2="700"/>
<g cb-classname="SignalSegment" id="6VA">
<line cb-classname="GraphicLineEntity" class="signalline" id="6VS" x1="3290" x2="3110" y1="700" y2="700"/>
<g cb-classname="SignalSegment" id="6VQ">
<line cb-classname="GraphicLineEntity" class="signalline" id="6VZ" x1="3110" x2="3110" y1="700" y2="850"/>
<g cb-classname="SignalSegment" id="6Vw">
<line cb-classname="GraphicLineEntity" class="signalline" id="6Fp" x1="3110" x2="3070" y1="850" y2="850"/>
<g cb-classname="SignalConnection" cb-graphic-line="$620$" cb-input-pin="$35f$" id="6FA"/>
<line cb-classname="GraphicLineEntity" class="signalline" id="7Op" x1="3110" x2="3350" y1="850" y2="850"/>
<g cb-classname="SignalSegment" id="7OA">
<line cb-classname="GraphicLineEntity" class="signalline" id="7OK" x1="3350" x2="3350" y1="850" y2="880"/>
<g cb-classname="SignalConnection" cb-graphic-line="$792$" cb-input-pin="$2Qs$" id="7OI"/>
</g>
<ellipse cb-classname="GraphicEllipseEntity" class="signal" cx="3110" cy="850" id="7OX" rx="5" ry="5" stroke="black"/>
</g>
<line cb-classname="GraphicLineEntity" class="signalline" id="6VX" x1="3110" x2="3070" y1="700" y2="700"/>
<g cb-classname="SignalConnection" cb-graphic-line="$614$" cb-input-pin="$ubb$" id="6Vs"/>
<ellipse cb-classname="GraphicEllipseEntity" class="signal" cx="3110" cy="700" id="6FK" rx="5" ry="5" stroke="black"/>
</g>
</g>
</g>
<g cb-classname="DynamicText" cb-labeled="false" cb-source="0V-rq6-poKG" id="6Qw">
<text baseline-shift="-50%" cb-classname="GraphicTextEntity" class="algorithm" id="6Vp" text-anchor="middle" x="3360" y="630"/>
</g>
</g>
<g cb-alg-IVy0="NO BALANCE VALUE" cb-alg-bJVB="NO" cb-alg-zS21="NBALV" cb-algorithm-id="002" cb-classname="ExternalPointInterface" cb-function-name="INPUT" cb-modify-id="1" id="6jp">
<ellipse cb-classname="GraphicEllipseEntity" class="algorithm" cx="3350" cy="1150" fill="none" id="6jA" rx="40" ry="40" stroke-dasharray="solid line"/>
<g cb-classname="DynamicText" cb-labeled="false" cb-pin-name="o2" cb-source="Uv-GeA-BnWe" class="algorithm" id="6jK" text-anchor="end">
<text baseline-shift="-100%" cb-classname="GraphicTextEntity" class="algorithm" fill="black" font-family="Arial" font-size="20" font-style="normal" font-weight="normal" id="6jI" text-anchor="start" text-decoration="normal" x="3413" y="1132"/>
</g>
<g cb-classname="ControlPin" cb-pin-name="M1-gia-uhi" id="6jX">
<line cb-classname="GraphicLineEntity" class="signalline" id="6js" x1="3310" x2="3290" y1="1150" y2="1150"/>
<g cb-classname="SignalSegment" id="6jZ">
<g cb-classname="SignalConnection" cb-graphic-line="$651$" cb-input-pin="$mTq$" id="6bK"/>
<line cb-classname="GraphicLineEntity" class="signalline" id="6bA" x1="3290" x2="3060" y1="1150" y2="1150"/>
</g>
</g>
<g cb-classname="DynamicText" cb-labeled="false" cb-source="4h-ST3-AROF" id="6jS">
<text baseline-shift="-50%" cb-classname="GraphicTextEntity" class="algorithm" id="6jQ" text-anchor="middle" x="3360" y="1080"/>
</g>
</g>
<g cb-alg-3YeM="BALANCE CONDITIONS ACTIVE" cb-alg-FMRN="BALSET" cb-alg-nmYP="NO" cb-algorithm-id="004" cb-classname="ExternalPointInterface" cb-function-name="INPUT" cb-modify-id="1" id="6iQ">
<ellipse cb-classname="GraphicEllipseEntity" class="algorithm" cx="2190" cy="1080" id="6iZ" rx="40" ry="40"/>
<g cb-classname="DynamicText" cb-labeled="false" cb-pin-name="DWH" cb-source="02-ybJ-XZmd" class="algorithm" id="6iw" text-anchor="start">
<text baseline-shift="-50%" cb-classname="GraphicTextEntity" class="algorithm" fill="black" font-family="lucida console" font-size="22" font-style="normal" font-weight="normal" id="62p" text-anchor="end" text-decoration="normal" x="2130" y="1070"/>
</g>
<g cb-classname="ControlPin" cb-pin-name="zW-u3B-Vqh" id="62A">
<line cb-classname="GraphicLineEntity" class="signalline" id="62K" x1="2230" x2="2250" y1="1080" y2="1080"/>
<g cb-classname="SignalSegment" id="62s">
<line cb-classname="GraphicLineEntity" class="signalline" id="62S" stroke="#1e12bf" stroke-dasharray="5,4" x1="2250" x2="2930" y1="1080" y2="1080"/>
<g cb-classname="SignalSegment" id="62Q">
<line cb-classname="GraphicLineEntity" class="signalline" id="62Z" stroke="#1e12bf" stroke-dasharray="5,4" x1="2930" x2="2960" y1="1080" y2="1110"/>
<g cb-classname="SignalConnection" cb-graphic-line="$678$" cb-input-pin="$Itd$" id="62w"/>
</g>
</g>
</g>
<g cb-classname="DynamicText" cb-labeled="false" cb-source="ls-lxx-HCU0" id="62I">
<text baseline-shift="-50%" cb-classname="GraphicTextEntity" class="algorithm" font-family="lucida console" font-size="22" id="62X" text-anchor="middle" x="2190" y="1010"/>
</g>
</g>
<g cb-alg-3YeM="TRACKING PERMISSION" cb-alg-FMRN="TRKPER" cb-alg-nmYP="NO" cb-algorithm-id="005" cb-classname="ExternalPointInterface" cb-function-name="INPUT" cb-modify-id="1" id="6Ep">
<ellipse cb-classname="GraphicEllipseEntity" class="algorithm" cx="2210" cy="2220" id="6EA" rx="40" ry="40"/>
<g cb-classname="DynamicText" cb-labeled="false" cb-pin-name="DWH" cb-source="02-ybJ-XZmd" class="algorithm" id="6EK" text-anchor="start">
<text baseline-shift="-50%" cb-classname="GraphicTextEntity" class="algorithm" fill="black" font-family="lucida console" font-size="22" font-style="normal" font-weight="normal" id="6EI" text-anchor="end" text-decoration="normal" x="2150" y="2220"/>
</g>
<g cb-classname="ControlPin" cb-pin-name="zW-u3B-Vqh" id="6EX">
<line cb-classname="GraphicLineEntity" class="signalline" id="6Es" x1="2250" x2="2270" y1="2220" y2="2220"/>
<g cb-classname="SignalSegment" id="6EZ">
<line cb-classname="GraphicLineEntity" class="signalline" id="6Ew" stroke="#1e12bf" stroke-dasharray="5,4" x1="2270" x2="2660" y1="2220" y2="2220"/>
<g cb-classname="SignalSegment" id="6Op">
<line cb-classname="GraphicLineEntity" class="signalline" id="6OA" stroke="#1e12bf" stroke-dasharray="5,4" x1="2660" x2="2660" y1="2220" y2="2010"/>
<g cb-classname="SignalSegment" id="6OK">
<line cb-classname="GraphicLineEntity" class="signalline" id="6OI" stroke="#1e12bf" stroke-dasharray="5,4" x1="2660" x2="2760" y1="2010" y2="2010"/>
<g cb-classname="SignalConnection" cb-graphic-line="$693$" cb-input-pin="$7s3$" id="6OX"/>
</g>
</g>
</g>
</g>
<g cb-classname="DynamicText" cb-labeled="false" cb-source="ls-lxx-HCU0" id="6ES">
<text baseline-shift="-50%" cb-classname="GraphicTextEntity" class="algorithm" font-family="lucida console" font-size="22" id="6EQ" text-anchor="middle" x="2210" y="2160"/>
</g>
</g>
<g cb-alg-PUQJ="TRK" cb-alg-c5Nn="NO" cb-alg-kNc4="TRACKING VALUE" cb-algorithm-id="007" cb-classname="ExternalPointInterface" cb-function-name="INPUT" cb-modify-id="1" id="6Os">
<ellipse cb-classname="GraphicEllipseEntity" class="algorithm" cx="2210" cy="1750" id="6OS" rx="40" ry="40"/>
<g cb-classname="DynamicText" cb-labeled="false" cb-pin-name="wKO" cb-source="zW-u3B-4s2P" class="algorithm" id="6OQ" text-anchor="start">
<text baseline-shift="-50%" cb-classname="GraphicTextEntity" class="algorithm" fill="black" font-family="lucida console" font-size="22" font-style="normal" font-weight="normal" id="6OZ" text-anchor="end" text-decoration="normal" x="2150" y="1750"/>
</g>
<g cb-classname="ControlPin" cb-pin-name="ls-lxx-I8L" id="6Ow">
<line cb-classname="GraphicLineEntity" class="signalline" id="7Qp" x1="2250" x2="2270" y1="1750" y2="1750"/>
<g cb-classname="SignalSegment" id="7QI">
<line cb-classname="GraphicLineEntity" class="signalline" id="7QX" x1="2270" x2="2310" y1="1750" y2="1750"/>
<g cb-classname="SignalSegment" id="7Qs">
<line cb-classname="GraphicLineEntity" class="signalline" id="7QS" x1="2310" x2="2310" y1="1750" y2="1930"/>
<g cb-classname="SignalSegment" id="7QQ">
<line cb-classname="GraphicLineEntity" class="signalline" id="7QZ" x1="2310" x2="2340" y1="1930" y2="1930"/>
<g cb-classname="SignalConnection" cb-graphic-line="$708$" cb-input-pin="$OVV$" id="7Qw"/>
</g>
<line cb-classname="GraphicLineEntity" class="signalline" id="7Vp" x1="2310" x2="2870" y1="1750" y2="1750"/>
<g cb-classname="SignalSegment" id="7VA">
<line cb-classname="GraphicLineEntity" class="signalline" id="7VK" x1="2870" x2="2870" y1="1750" y2="1890"/>
<g cb-classname="SignalSegment" id="7VI">
<line cb-classname="GraphicLineEntity" class="signalline" id="7VX" x1="2870" x2="2940" y1="1890" y2="1890"/>
<g cb-classname="SignalConnection" cb-graphic-line="$714$" cb-input-pin="$bZU$" id="7Vs"/>
</g>
</g>
<ellipse cb-classname="GraphicEllipseEntity" class="signal" cx="2310" cy="1750" id="7VS" rx="5" ry="5" stroke="black"/>
</g>
</g>
</g>
<g cb-classname="DynamicText" cb-labeled="false" cb-source="cG-yOV-M6B8" id="7QA">
<text baseline-shift="-50%" cb-classname="GraphicTextEntity" class="algorithm" font-family="lucida console" font-size="22" id="7QK" text-anchor="middle" x="2210" y="1750"/>
</g>
</g>
<g cb-alg-IYU7="86" cb-alg-VPs="$695$cb-alg-out$" cb-alg-WY61="26" cb-alg-WY6G="16" cb-alg-YP2n="$358$cb-alg-out$" cb-alg-ygU9="3W" cb-algorithm-id="044" cb-classname="ControlAlgorithm" cb-function-name="PNTSTATUS" cb-macro-alg="C3691" cb-macro-bita="C3691:BITA" cb-macro-bitb="C3691:BITB" cb-macro-diag="C3691:DIAG" cb-macro-in1="TRK" cb-macro-outa="D3692" cb-macro-stat="C3691:STAT" cb-modify-id="1" id="3iw">
<rect cb-classname="GraphicRectangleEntity" class="algorithm" height="60" id="32p" width="100" x="2360" y="1920"/>
<text baseline-shift="-50%" cb-classname="GraphicTextEntity" class="algorithm" font-size="18" id="32A" text-anchor="middle" x="2410" y="1936">
PNT
</text>
<text baseline-shift="-50%" cb-classname="GraphicTextEntity" class="algorithm" font-size="18" id="32K" text-anchor="middle" x="2410" y="1962">
STAT
</text>
<g cb-classname="ControlPin" cb-pin-name="4h-ST3-xHF" id="32I">
<line cb-classname="GraphicLineEntity" class="signalline" id="32X" x1="2340" x2="2360" y1="1930" y2="1930"/>
<polygon cb-classname="GraphicPolygonEntity" class="signal" id="32s" points="2360,1930 2349,1926 2349,1934"/>
<g cb-classname="DynamicText" cb-source="cG-LxH-M6B8" class="signal" id="32S" text-anchor="end">
<text baseline-shift="5%" cb-classname="GraphicTextEntity" class="signal" fill="black" font-style="normal" font-weight="normal" id="32Q" text-anchor="end" text-decoration="normal" x="2357" y="1921"/>
</g>
</g>
<g cb-classname="ControlPin" cb-pin-name="DU-SzB-hvhi" id="32Z">
<line cb-classname="GraphicLineEntity" class="signalline" id="32w" x1="2340" x2="2360" y1="1970" y2="1970"/>
<polygon cb-classname="GraphicPolygonEntity" class="signal" id="3Ep" points="2360,1970 2349,1966 2349,1974"/>
<g cb-classname="DynamicText" cb-source="iW-CNv-CSIZ" class="signal" id="3EA" text-anchor="end">
<text baseline-shift="5%" cb-classname="GraphicTextEntity" class="signal" fill="black" font-style="normal" font-weight="normal" id="3EK" text-anchor="end" text-decoration="normal" x="2340" y="1962"/>
</g>
</g>
<g cb-classname="ControlPin" cb-pin-name="02-ybJ-MciM" id="3EI">
<line cb-classname="GraphicLineEntity" class="signalline" id="3EX" x1="2460" x2="2480" y1="1930" y2="1930"/>
<g cb-classname="DynamicText" cb-source="zW-KdR-8MDW" class="signal" id="3Es">
<text baseline-shift="5%" cb-classname="GraphicTextEntity" class="signal" fill="black" font-style="normal" font-weight="normal" id="3ES" text-decoration="normal" x="2471" y="1922"/>
</g>
<g cb-classname="SignalSegment" id="3EQ">
<line cb-classname="GraphicLineEntity" class="signalline" id="3EZ" stroke="#1e12bf" stroke-dasharray="5,4" x1="2480" x2="2760" y1="1930" y2="1930"/>
<g cb-classname="SignalConnection" cb-graphic-line="$388$" cb-input-pin="$xz1$" id="3Ew"/>
</g>
</g>
<g cb-classname="ControlPin" cb-pin-name="cJ-xRb-TSUh" id="3Op">
<line cb-classname="GraphicLineEntity" class="signalline" id="3OA" x1="2460" x2="2480" y1="1970" y2="1970"/>
<g cb-classname="DynamicText" cb-source="B5-QYS-vgxj" class="signal" id="3OK">
<text baseline-shift="5%" cb-classname="GraphicTextEntity" class="signal" fill="black" font-style="normal" font-weight="normal" id="3OI" text-decoration="normal" x="2471" y="1962"/>
</g>
</g>
<g cb-classname="GraphicShape" id="3OX">
<g cb-classname="DynamicText" cb-labeled="true" cb-source="Uv-GeA-Vaiy" id="3Os">
<text cb-classname="GraphicTextEntity" class="algorithm" id="3OS" text-anchor="start" x="2360" y="2010"/>
</g>
<g cb-classname="DynamicText" cb-labeled="true" cb-source="M1-gia-o3ir" id="3OQ">
<text cb-classname="GraphicTextEntity" class="algorithm" id="3OZ" text-anchor="start" x="2360" y="2040"/>
</g>
</g>
</g>
<g cb-alg-NRF="$369$cb-alg-outa$" cb-alg-NRO="$680$cb-alg-out$" cb-algorithm-id="047" cb-classname="FastBooleanAlgorithm" cb-function-name="AND" cb-macro-in2="TRKPER" cb-macro-out="D3991" cb-modify-id="1" id="3Ow">
<rect cb-classname="GraphicRectangleEntity" class="algorithm" height="60" id="4Qp" width="80" x="2780" y="1940"/>
<text baseline-shift="-50%" cb-classname="GraphicTextEntity" class="algorithm" id="4QA" text-anchor="middle" x="2820" y="1969">
AND
</text>
<line cb-classname="GraphicLineEntity" class="algorithmline" id="4QK" x1="2780" x2="2780" y1="1910" y2="2030"/>
<g cb-classname="ControlPin" cb-pin-name="cJ-xRb-0Bm" id="4QI">
<line cb-classname="GraphicLineEntity" class="signalline" id="4QX" x1="2760" x2="2780" y1="1930" y2="1930"/>
<polygon cb-classname="GraphicPolygonEntity" class="signal" id="4Qs" points="2780,1930 2769,1926 2769,1934"/>
<g cb-classname="DynamicText" cb-source="Hf-r0B-RuUn" class="signal" id="4QS" text-anchor="end">
<text baseline-shift="5%" cb-classname="GraphicTextEntity" class="signal" fill="black" font-style="normal" font-weight="normal" id="4QQ" text-anchor="end" text-decoration="normal" x="2773" y="1922"/>
</g>
</g>
<g cb-classname="ControlPin" cb-pin-name="Uv-GeA-Y9i" id="4QZ">
<line cb-classname="GraphicLineEntity" class="signalline" id="4Qw" x1="2860" x2="2880" y1="1970" y2="1970"/>
<g cb-classname="DynamicText" cb-source="M1-cd9-5yJu" class="signal" id="4Vp">
<text baseline-shift="5%" cb-classname="GraphicTextEntity" class="signal" fill="black" font-style="normal" font-weight="normal" id="4VA" text-decoration="normal" x="2872" y="1962"/>
</g>
<g cb-classname="SignalSegment" id="4VK">
<line cb-classname="GraphicLineEntity" class="signalline" id="4VI" stroke="#1e12bf" stroke-dasharray="5,4" x1="2880" x2="2920" y1="1970" y2="1970"/>
<g cb-classname="SignalSegment" id="4VX">
<line cb-classname="GraphicLineEntity" class="signalline" id="4Vs" stroke="#1e12bf" stroke-dasharray="5,4" x1="2920" x2="2960" y1="1970" y2="1930"/>
<g cb-classname="SignalConnection" cb-graphic-line="$415$" cb-input-pin="$bZ2$" id="4VS"/>
</g>
</g>
</g>
<g cb-classname="ControlPin" cb-pin-name="DU-SzB-NvZ" id="4VQ">
<line cb-classname="GraphicLineEntity" class="signalline" id="4VZ" x1="2760" x2="2780" y1="2010" y2="2010"/>
<polygon cb-classname="GraphicPolygonEntity" class="signal" id="4Vw" points="2780,2010 2769,2006 2769,2014"/>
<g cb-classname="DynamicText" cb-source="iW-CNv-CSIZ" class="signal" id="4Fp" text-anchor="end">
<text baseline-shift="5%" cb-classname="GraphicTextEntity" class="signal" fill="black" font-style="normal" font-weight="normal" id="4FA" text-anchor="end" text-decoration="normal" x="2770" y="2000"/>
</g>
</g>
<g cb-classname="ControlPin" cb-pin-name="02-ybJ-a51" id="4FK">
<line cb-classname="GraphicLineEntity" class="signalline" id="4FI" x1="2760" x2="2780" y1="1970" y2="1970"/>
<polygon cb-classname="GraphicPolygonEntity" class="signal" id="4FX" points="2780,1970 2769,1966 2769,1974"/>
<g cb-classname="DynamicText" cb-source="4h-za5-AROF" class="signal" id="4Fs" text-anchor="end">
<text baseline-shift="5%" cb-classname="GraphicTextEntity" class="signal" fill="black" font-style="normal" font-weight="normal" id="4FS" text-anchor="end" text-decoration="normal" x="2770" y="1960"/>
</g>
</g>
</g>
<g cb-alg-7dl3="84" cb-alg-d9A="$330$cb-alg-out$" cb-alg-d9A3="1" cb-alg-d9Ao="0.000000" cb-alg-d9W3="1.000000" cb-alg-d9Wo="0.000000" cb-alg-d9s="$544$cb-alg-out$" cb-alg-d9s3="-1" cb-alg-d9so="0.000000" cb-alg-d9x3="1.000000" cb-alg-d9xo="0.000000" cb-alg-nVTU="ON" cb-alg-nZli="2.500000" cb-alg-nz8H="1E+09" cb-alg-sn8H="-1E+09" cb-algorithm-id="00F" cb-classname="ControlAlgorithm" cb-function-name="SUM" cb-macro-alg="C4271" cb-macro-btsc="C4271:BTSC" cb-macro-diag="C4271:DIAG" cb-macro-in1b="C4271:IN1B" cb-macro-in1g="C4271:IN1G" cb-macro-in2="LIM-IN" cb-macro-in2b="C4271:IN2B" cb-macro-in2g="C4271:IN2G" cb-macro-in3b="C4271:IN3B" cb-macro-in3g="C4271:IN3G" cb-macro-in4b="C4271:IN4B" cb-macro-in4g="C4271:IN4G" cb-macro-out="A4273" cb-macro-tblk="C4271:TBLK" cb-macro-tout="A4272" cb-macro-tpsc="C4271:TPSC" cb-macro-trat="C4271:TRAT" cb-modify-id="1" id="4FQ">
<rect cb-classname="GraphicRectangleEntity" class="algorithm" height="60" id="4FZ" width="100" x="2950" y="530"/>
<line cb-classname="GraphicLineEntity" class="algorithmline" id="4Fw" x1="3015" x2="2985" y1="540" y2="540"/>
<line cb-classname="GraphicLineEntity" class="algorithmline" id="41p" x1="2985" x2="3015" y1="580" y2="580"/>
<line cb-classname="GraphicLineEntity" class="algorithmline" id="41A" x1="3015" x2="3015" y1="540" y2="545"/>
<line cb-classname="GraphicLineEntity" class="algorithmline" id="41K" x1="3015" x2="3015" y1="580" y2="575"/>
<line cb-classname="GraphicLineEntity" class="algorithmline" id="41I" x1="2985" x2="3000" y1="540" y2="560"/>
<line cb-classname="GraphicLineEntity" class="algorithmline" id="41X" x1="3000" x2="2985" y1="560" y2="580"/>
<g cb-classname="ControlPin" cb-pin-name="02-ybJ-a5X" id="41s">
<line cb-classname="GraphicLineEntity" class="signalline" id="41S" x1="2930" x2="2950" y1="560" y2="560"/>
<polygon cb-classname="GraphicPolygonEntity" class="signal" id="41Q" points="2950,560 2939,554 2939,565"/>
<g cb-classname="DynamicText" cb-source="4h-za5-AROF" id="41Z">
<text cb-classname="GraphicTextEntity" class="signal" id="41w" text-anchor="end" x="2935" y="557"/>
</g>
</g>
<g cb-classname="ControlPin" cb-pin-name="0V-rq6-cbw" id="4jp">
<line cb-classname="GraphicLineEntity" class="signalline" id="4jA" x1="3000" x2="3000" y1="590" y2="610"/>
<g cb-classname="DynamicText" cb-source="cJ-6jB-SGdz" class="signal" id="4jK" text-anchor="end">
<text baseline-shift="5%" cb-classname="GraphicTextEntity" class="signal" fill="black" font-style="normal" font-weight="normal" id="4jI" text-anchor="end" text-decoration="normal" transform="translate(2996,590)rotate(-90)"/>
</g>
<g cb-classname="SignalSegment" id="4jX">
<line cb-classname="GraphicLineEntity" class="signalline" id="4js" x1="3000" x2="3000" y1="610" y2="650"/>
<g cb-classname="SignalConnection" cb-graphic-line="$445$" cb-input-pin="$unv$" id="4jS"/>
</g>
</g>
<g cb-classname="ControlPin" cb-pin-name="Uv-GeA-dRb" id="4jQ">
<line cb-classname="GraphicLineEntity" class="signalline" id="4jZ" x1="3000" x2="3000" y1="510" y2="530"/>
<polygon cb-classname="GraphicPolygonEntity" class="signal" id="4jw" points="3000,530 3005,519 2994,519"/>
<g cb-classname="DynamicText" cb-source="zW-KdR-8MDW" id="4bp">
<text cb-classname="GraphicTextEntity" class="signal" id="4bA" text-anchor="start" transform="translate(2997,515)rotate(-90)"/>
</g>
</g>
</g>
<g cb-alg-BbST="WORSE" cb-alg-TdSB="80" cb-alg-dCD="$603$cb-alg-out$" cb-alg-dCDB="1.000000" cb-alg-dCDG="0" cb-alg-dCTB="1.000000" cb-alg-dCTG="0.000000" cb-alg-dCW="$427$cb-alg-out$" cb-alg-dCWB="1.000000" cb-alg-dCWG="0.000000" cb-alg-dCXB="1.000000" cb-alg-dCXG="0.000000" cb-alg-hn1N="-1E+09" cb-alg-vK1N="1E+09" cb-alg-vNSZ="2.500000" cb-algorithm-id="03F" cb-classname="ControlAlgorithm" cb-function-name="LOSELECT" cb-macro-alg="C4521" cb-macro-btsc="C4521:BTSC" cb-macro-diag="C4521:DIAG" cb-macro-in1b="C4521:IN1B" cb-macro-in1g="C4521:IN1G" cb-macro-in2="BALRT" cb-macro-in2b="C4521:IN2B" cb-macro-in2g="C4521:IN2G" cb-macro-in3b="C4521:IN3B" cb-macro-in3g="C4521:IN3G" cb-macro-in4b="C4521:IN4B" cb-macro-in4g="C4521:IN4G" cb-macro-out="A4526" cb-macro-qual="C4521:QUAL" cb-macro-tpsc="C4521:TPSC" cb-macro-trat="C4521:TRAT" cb-macro-trk1="A4522" cb-macro-trk2="A4523" cb-macro-trk3="A4524" cb-macro-trk4="A4525" cb-modify-id="1" id="4bK">
<rect cb-classname="GraphicRectangleEntity" class="algorithm" height="60" id="4bI" width="100" x="2950" y="670"/>
<line cb-classname="GraphicLineEntity" class="algorithmline" id="4bX" x1="3020" x2="2980" y1="680" y2="700"/>
<line cb-classname="GraphicLineEntity" class="algorithmline" id="4bs" x1="2980" x2="3020" y1="700" y2="720"/>
<g cb-classname="ControlPin" cb-pin-name="DU-SzB-NvL" id="4bS">
<line cb-classname="GraphicLineEntity" class="signalline" id="4bQ" x1="3000" x2="3000" y1="650" y2="670"/>
<polygon cb-classname="GraphicPolygonEntity" class="signal" id="4bZ" points="3000,670 3005,659 2994,659"/>
<g cb-classname="DynamicText" cb-source="iW-CNv-CSIZ" id="4bw">
<text cb-classname="GraphicTextEntity" class="signal" id="4ip" text-anchor="start" transform="translate(2997,655)rotate(-90)"/>
</g>
</g>
<g cb-classname="ControlPin" cb-pin-name="02-ybJ-Mci" id="4iA">
<line cb-classname="GraphicLineEntity" class="signalline" id="4iK" x1="3000" x2="3000" y1="730" y2="750"/>
<g cb-classname="DynamicText" cb-source="zW-KdR-8MDW" id="4iI">
<text cb-classname="GraphicTextEntity" class="signal" id="4iX" text-anchor="end" transform="translate(2997,744)rotate(-90)"/>
</g>
<g cb-classname="SignalSegment" id="4is">
<line cb-classname="GraphicLineEntity" class="signalline" id="4iS" x1="3000" x2="3000" y1="750" y2="800"/>
<g cb-classname="SignalConnection" cb-graphic-line="$466$" cb-input-pin="$xKW$" id="4iQ"/>
</g>
</g>
<g cb-classname="ControlPin" cb-pin-name="cJ-xRb-0B2" id="4iZ">
<line cb-classname="GraphicLineEntity" class="signalline" id="4iw" x1="3070" x2="3050" y1="700" y2="700"/>
<polygon cb-classname="GraphicPolygonEntity" class="signal" id="42p" points="3050,700 3060,705 3060,694"/>
<g cb-classname="DynamicText" cb-source="Hf-r0B-RuUn" id="42A">
<text cb-classname="GraphicTextEntity" class="signal" id="42K" text-anchor="start" x="3064" y="697"/>
</g>
</g>
</g>
<g cb-alg-HzUn="WORSE" cb-alg-IYU7="83" cb-alg-LKU9="2.500000" cb-alg-Lr3z="1E+09" cb-alg-VPE="$603$cb-alg-out$" cb-alg-VPE1="0" cb-alg-VPE7="-1" cb-alg-VPh1="0.000000" cb-alg-VPh7="1.000000" cb-alg-VPn1="0.000000" cb-alg-VPn7="1.000000" cb-alg-VPs="$452$cb-alg-out$" cb-alg-VPs1="0.000000" cb-alg-VPs7="1.000000" cb-alg-Wg3z="-1E+09" cb-algorithm-id="040" cb-classname="ControlAlgorithm" cb-function-name="HISELECT" cb-macro-alg="C4731" cb-macro-btsc="C4731:BTSC" cb-macro-diag="C4731:DIAG" cb-macro-in1b="C4731:IN1B" cb-macro-in1g="C4731:IN1G" cb-macro-in2="BALRT" cb-macro-in2b="C4731:IN2B" cb-macro-in2g="C4731:IN2G" cb-macro-in3b="C4731:IN3B" cb-macro-in3g="C4731:IN3G" cb-macro-in4b="C4731:IN4B" cb-macro-in4g="C4731:IN4G" cb-macro-out="A4736" cb-macro-qual="C4731:QUAL" cb-macro-tpsc="C4731:TPSC" cb-macro-trat="C4731:TRAT" cb-macro-trk1="A4732" cb-macro-trk2="A4733" cb-macro-trk3="A4734" cb-macro-trk4="A4735" cb-modify-id="1" id="42I">
<rect cb-classname="GraphicRectangleEntity" class="algorithm" height="60" id="42X" width="100" x="2950" y="820"/>
<line cb-classname="GraphicLineEntity" class="algorithmline" id="42s" x1="2980" x2="3020" y1="830" y2="850"/>
<line cb-classname="GraphicLineEntity" class="algorithmline" id="42S" x1="3020" x2="2980" y1="850" y2="870"/>
<g cb-classname="ControlPin" cb-pin-name="4h-ST3-xHF" id="42Q">
<line cb-classname="GraphicLineEntity" class="signalline" id="42Z" x1="3000" x2="3000" y1="800" y2="820"/>
<polygon cb-classname="GraphicPolygonEntity" class="signal" id="42w" points="3000,820 3005,809 2994,809"/>
<g cb-classname="DynamicText" cb-source="cG-LxH-M6B8" id="4Ep">
<text cb-classname="GraphicTextEntity" class="signal" id="4EA" text-anchor="start" transform="translate(2997,805)rotate(-90)"/>
</g>
</g>
<g cb-classname="ControlPin" cb-pin-name="DU-SzB-xIv" id="4EK">
<line cb-classname="GraphicLineEntity" class="signalline" id="4EI" x1="3000" x2="3000" y1="880" y2="900"/>
<g cb-classname="DynamicText" cb-source="Hf-r0B-RuUn" id="4EX">
<text cb-classname="GraphicTextEntity" class="signal" id="4Es" text-anchor="end" transform="translate(2997,894)rotate(-90)"/>
</g>
<g cb-classname="SignalSegment" id="4ES">
<line cb-classname="GraphicLineEntity" class="signalline" id="7bX" x1="3000" x2="3000" y1="900" y2="930"/>
<g cb-classname="SignalSegment" id="7bs">
<line cb-classname="GraphicLineEntity" class="signalline" id="4EQ" x1="3000" x2="3000" y1="930" y2="950"/>
<g cb-classname="SignalConnection" cb-graphic-line="$487$" cb-input-pin="$Cmi$" id="4EZ"/>
<g cb-classname="SignalConnection" cb-graphic-line="$758$" cb-input-pin="$Hne$" id="7bw"/>
<line cb-classname="GraphicLineEntity" class="signalline" id="7bZ" x1="3000" x2="3100" y1="930" y2="930"/>
<ellipse cb-classname="GraphicEllipseEntity" class="signal" cx="3000" cy="930" id="7ip" rx="5" ry="5" stroke="black"/>
</g>
</g>
</g>
<g cb-classname="ControlPin" cb-pin-name="zW-u3B-3An" id="4Ew">
<line cb-classname="GraphicLineEntity" class="signalline" id="4Op" x1="3070" x2="3050" y1="850" y2="850"/>
<polygon cb-classname="GraphicPolygonEntity" class="signal" id="4OA" points="3050,850 3060,855 3060,844"/>
<g cb-classname="DynamicText" cb-source="0V-63A-poKG" id="4OK">
<text cb-classname="GraphicTextEntity" class="signal" id="4OI" text-anchor="start" x="3064" y="847"/>
</g>
</g>
</g>
<g cb-alg-lFg="$473$cb-alg-out$" cb-algorithm-id="009" cb-classname="ControlAlgorithm" cb-function-name="ABSVALUE" cb-macro-out="A7311" cb-modify-id="2" id="71A">
<rect cb-classname="GraphicRectangleEntity" class="algorithm" height="60" id="71K" width="100" x="3120" y="900"/>
<text baseline-shift="-50%" cb-classname="GraphicTextEntity" class="algorithm" id="71I" text-anchor="middle" x="3170" y="929">
ABS
</text>
<g cb-classname="ControlPin" cb-pin-name="Hf-f77-dCW" id="7jX">
<line cb-classname="GraphicLineEntity" class="signalline" id="7js" x1="3100" x2="3120" y1="930" y2="930"/>
<polygon cb-classname="GraphicPolygonEntity" class="signal" id="7jS" points="3120,930 3109,924 3109,935"/>
<g cb-classname="DynamicText" cb-source="02-odC-RrEs" id="7jQ">
<text cb-classname="GraphicTextEntity" class="signal" id="7jZ" text-anchor="end" x="3105" y="927"/>
</g>
</g>
<g cb-classname="ControlPin" cb-pin-name="4h-ST3-9Aa" id="7bp">
<line cb-classname="GraphicLineEntity" class="signalline" id="7bA" x1="3220" x2="3240" y1="930" y2="930"/>
<g cb-classname="DynamicText" cb-source="0V-63A-poKG" id="7bK">
<text cb-classname="GraphicTextEntity" class="signal" id="7bI" text-anchor="start" x="3234" y="927"/>
</g>
<g cb-classname="SignalSegment" id="7EQ">
<line cb-classname="GraphicLineEntity" class="signalline" id="7EZ" x1="3240" x2="3280" y1="930" y2="930"/>
<g cb-classname="SignalConnection" cb-graphic-line="$788$" cb-input-pin="$75D$" id="7Ew"/>
</g>
</g>
</g>
<g cb-alg-lFg="$603$cb-alg-out$" cb-alg-lFt="$731$cb-alg-out$" cb-algorithm-id="008" cb-classname="LadderSpecialFunction" cb-function-name="COMPARE" cb-macro-in1="BALRT" cb-macro-out="BAL" cb-macro-outg="D7701" cb-macro-outl="D7702" cb-modify-id="2" id="72p">
<rect cb-classname="GraphicRectangleEntity" class="annotation" fill="white" height="60" id="72A" width="70" x="3310" y="900"/>
<text baseline-shift="0%" cb-classname="GraphicTextEntity" class="annotation" fill="#000000" font-family="MS Shell Dlg 2" font-size="48" id="72K" x="3320" y="950">
=
</text>
<g cb-classname="ControlPin" cb-pin-name="02-ybJ-a5X" id="72I">
<line cb-classname="GraphicLineEntity" class="signalline" id="72X" x1="3350" x2="3350" y1="880" y2="900"/>
<polygon cb-classname="GraphicPolygonEntity" class="signal" id="72s" points="3350,900 3355,889 3344,889"/>
<g cb-classname="DynamicText" cb-source="4h-za5-AROF" id="72S">
<text cb-classname="GraphicTextEntity" class="signal" id="72Q" text-anchor="start" transform="translate(3347,885)rotate(-90)"/>
</g>
</g>
<g cb-classname="ControlPin" cb-pin-name="0V-rq6-cbw" id="72Z">
<line cb-classname="GraphicLineEntity" class="signalline" id="72w" x1="3380" x2="3400" y1="930" y2="930"/>
<g cb-classname="DynamicText" cb-source="cJ-6jB-SGdz" id="7Ep">
<text cb-classname="GraphicTextEntity" class="signal" id="7EA" text-anchor="start" x="3394" y="927"/>
</g>
<g cb-classname="SignalSegment" id="8QX">
<g cb-classname="SignalConnection" cb-graphic-line="$807$" cb-input-pin="$1ke$" id="8QZ"/>
<line cb-classname="GraphicLineEntity" class="signalline" id="8QQ" stroke="#1e12bf" stroke-dasharray="5,4" x1="3400" x2="3720" y1="930" y2="930"/>
</g>
</g>
<g cb-classname="ControlPin" cb-pin-name="B5-MuP-NRO" id="7EK">
<line cb-classname="GraphicLineEntity" class="signalline" id="7EI" x1="3280" x2="3310" y1="930" y2="930"/>
<polygon cb-classname="GraphicPolygonEntity" class="signal" id="7EX" points="3310,930 3299,924 3299,935"/>
<g cb-classname="DynamicText" cb-source="Uv-lNR-9lPN" id="7Es">
<text cb-classname="GraphicTextEntity" class="signal" id="7ES" text-anchor="end" x="3295" y="927"/>
</g>
</g>
</g>
<g cb-alg-8xEY="BAL" cb-alg-VDsU="BALANCING ACTIVE" cb-alg-yz="$770$cb-alg-out$" cb-algorithm-id="00A" cb-classname="ExternalPointInterface" cb-function-name="OUTPUT" cb-modify-id="2" id="7Os">
<ellipse cb-classname="GraphicEllipseEntity" class="algorithm" cx="3780" cy="930" id="7OS" rx="40" ry="40"/>
<g cb-classname="DynamicText" cb-labeled="false" cb-pin-name="14" cb-source="iW-Unn-7j8H" class="algorithm" id="7OQ" text-anchor="end">
<text baseline-shift="-50%" cb-classname="GraphicTextEntity" class="algorithm" fill="black" font-family="Arial" font-size="20" font-style="normal" font-weight="normal" id="7OZ" text-anchor="start" text-decoration="normal" x="3837" y="927"/>
</g>
<g cb-classname="ControlPin" cb-pin-name="02-ybJ-a5" id="7Ow">
<line cb-classname="GraphicLineEntity" class="signalline" id="8Qp" x1="3720" x2="3740" y1="930" y2="930"/>
<polygon cb-classname="GraphicPolygonEntity" class="signal" id="8QA" points="3740,930 3729,924 3729,935"/>
</g>
<g cb-classname="DynamicText" cb-labeled="false" cb-source="4h-ST3-AROF" id="8QK">
<text baseline-shift="-50%" cb-classname="GraphicTextEntity" class="algorithm" id="8QI" text-anchor="middle" x="3780" y="930"/>
</g>
</g>
<g cb-alg-br1H="-1E+09" cb-alg-dgWj="84" cb-alg-iMA="$544$cb-alg-out$" cb-alg-iMA5="0.000000" cb-alg-iMAj="1" cb-alg-iMI5="0.000000" cb-alg-iMIj="1.000000" cb-alg-iMK="$473$cb-alg-out$" cb-alg-iMK5="0.000000" cb-alg-iMKj="1" cb-alg-iMX5="0.000000" cb-alg-iMXj="1.000000" cb-alg-t9Wu="2.500000" cb-alg-tJjc="ON" cb-alg-tX1H="1E+09" cb-algorithm-id="01C" cb-classname="ControlAlgorithm" cb-function-name="SUM" cb-macro-alg="C4941" cb-macro-btsc="C4941:BTSC" cb-macro-diag="C4941:DIAG" cb-macro-in1b="C4941:IN1B" cb-macro-in1g="C4941:IN1G" cb-macro-in2b="C4941:IN2B" cb-macro-in2g="C4941:IN2G" cb-macro-in3b="C4941:IN3B" cb-macro-in3g="C4941:IN3G" cb-macro-in4b="C4941:IN4B" cb-macro-in4g="C4941:IN4G" cb-macro-out="A4943" cb-macro-tblk="C4941:TBLK" cb-macro-tout="A4942" cb-macro-tpsc="C4941:TPSC" cb-macro-trat="C4941:TRAT" cb-modify-id="1" id="4OX">
<rect cb-classname="GraphicRectangleEntity" class="algorithm" height="60" id="4Os" width="100" x="2950" y="970"/>
<line cb-classname="GraphicLineEntity" class="algorithmline" id="4OS" x1="3015" x2="2985" y1="980" y2="980"/>
<line cb-classname="GraphicLineEntity" class="algorithmline" id="4OQ" x1="2985" x2="3015" y1="1020" y2="1020"/>
<line cb-classname="GraphicLineEntity" class="algorithmline" id="4OZ" x1="3015" x2="3015" y1="980" y2="985"/>
<line cb-classname="GraphicLineEntity" class="algorithmline" id="4Ow" x1="3015" x2="3015" y1="1020" y2="1015"/>
<line cb-classname="GraphicLineEntity" class="algorithmline" id="5Qp" x1="2985" x2="3000" y1="980" y2="1000"/>
<line cb-classname="GraphicLineEntity" class="algorithmline" id="5QA" x1="3000" x2="2985" y1="1000" y2="1020"/>
<g cb-classname="ControlPin" cb-pin-name="zW-u3B-3Aa" id="5QK">
<line cb-classname="GraphicLineEntity" class="signalline" id="5QI" x1="2930" x2="2950" y1="1000" y2="1000"/>
<polygon cb-classname="GraphicPolygonEntity" class="signal" id="5QX" points="2950,1000 2939,994 2939,1005"/>
<g cb-classname="DynamicText" cb-source="0V-63A-poKG" id="5Qs">
<text cb-classname="GraphicTextEntity" class="signal" id="5QS" text-anchor="end" x="2935" y="997"/>
</g>
</g>
<g cb-classname="ControlPin" cb-pin-name="cJ-xRb-TSU" id="5QQ">
<line cb-classname="GraphicLineEntity" class="signalline" id="5QZ" x1="3000" x2="3000" y1="1030" y2="1050"/>
<g cb-classname="DynamicText" cb-source="B5-QYS-vgxj" class="signal" id="5Qw" text-anchor="end">
<text baseline-shift="5%" cb-classname="GraphicTextEntity" class="signal" fill="black" font-style="normal" font-weight="normal" id="5Vp" text-anchor="end" text-decoration="normal" transform="translate(2996,1030)rotate(-90)"/>
</g>
<g cb-classname="SignalSegment" id="61s">
<g cb-classname="SignalConnection" cb-graphic-line="$638$" cb-input-pin="$m9u$" id="61w"/>
<line cb-classname="GraphicLineEntity" class="signalline" id="61Z" x1="3000" x2="3000" y1="1050" y2="1090"/>
</g>
</g>
<g cb-classname="ControlPin" cb-pin-name="M1-gia-28w" id="5VX">
<line cb-classname="GraphicLineEntity" class="signalline" id="5Vs" x1="3000" x2="3000" y1="950" y2="970"/>
<polygon cb-classname="GraphicPolygonEntity" class="signal" id="5VS" points="3000,970 3005,959 2994,959"/>
<g cb-classname="DynamicText" cb-source="ls-q28-HCU0" id="5VQ">
<text cb-classname="GraphicTextEntity" class="signal" id="5VZ" text-anchor="start" transform="translate(2997,955)rotate(-90)"/>
</g>
</g>
</g>
<g cb-alg-1TZ2="OFF" cb-alg-2nW="$494$cb-alg-out$" cb-alg-2nW7="0.000000" cb-alg-2nWx="1" cb-alg-9M="$640$cb-alg-out$" cb-alg-9M_7="0.000000" cb-alg-9M_x="1" cb-alg-Barx="42" cb-alg-CTrx="$667$cb-alg-out$" cb-alg-VZWe="-100" cb-alg-YXT="OFF" cb-alg-YZfc="ON" cb-alg-nqWe="100.000000" cb-alg-nwf0="2.500000" cb-alg-nwfX="2.500000" cb-algorithm-id="011" cb-classname="ControlAlgorithm" cb-function-name="TRANSFER" cb-macro-alg="C5191" cb-macro-btsc="C5191:BTSC" cb-macro-diag="C5191:DIAG" cb-macro-flag="BALSET" cb-macro-no="NBALV" cb-macro-no_b="C5191:NO_B" cb-macro-no_g="C5191:NO_G" cb-macro-odf="C5191:ODF" cb-macro-otrk="C5191:OTRK" cb-macro-out="A5194" cb-macro-slew="C5191:SLEW" cb-macro-tpsc="C5191:TPSC" cb-macro-trkn="A5193" cb-macro-trky="A5192" cb-macro-trr1="C5191:TRR1" cb-macro-trr2="C5191:TRR2" cb-macro-yesb="C5191:YESB" cb-macro-yesg="C5191:YESG" cb-modify-id="1" id="5Vw">
<polygon cb-classname="GraphicPolygonEntity" class="algorithm" id="5Fp" points="3000,1110 2960,1150 3000,1190 3040,1150"/>
<text baseline-shift="-50%" cb-classname="GraphicTextEntity" class="algorithm" font-size="33" id="5FA" text-anchor="middle" x="3000" y="1142">
T
</text>
<g cb-classname="ControlPin" cb-pin-name="B5-MuP-tjn" id="5FK">
<line cb-classname="GraphicLineEntity" class="signalline" id="5FI" x1="3000" x2="3000" y1="1190" y2="1210"/>
<g cb-classname="DynamicText" cb-source="iW-CNv-CSIZ" class="signal" id="5FX" text-anchor="end">
<text baseline-shift="5%" cb-classname="GraphicTextEntity" class="signal" fill="black" font-style="normal" font-weight="normal" id="5Fs" text-anchor="end" text-decoration="normal" transform="translate(2991,1203)rotate(-90)"/>
</g>
<g cb-classname="SignalSegment" id="5FS">
<g cb-classname="SignalConnection" cb-graphic-line="$528$" cb-input-pin="$Cb7$" id="5FQ"/>
<line cb-classname="GraphicLineEntity" class="signalline" id="5FZ" x1="3000" x2="3000" y1="1210" y2="1290"/>
</g>
</g>
<g cb-classname="ControlPin" cb-pin-name="4h-ST3-F8Cp" id="5Fw">
<line cb-classname="GraphicLineEntity" class="signalline" id="51p" x1="2960" x2="2980" y1="1110" y2="1130"/>
<polygon cb-classname="GraphicPolygonEntity" class="signal" id="51A" points="2980,1130 2975,1119 2969,1125"/>
<g cb-classname="DynamicText" cb-source="cG-LxH-M6B8" class="signal" id="51K" text-anchor="end">
<text baseline-shift="5%" cb-classname="GraphicTextEntity" class="signal" fill="black" font-style="normal" font-weight="normal" id="51I" text-anchor="end" text-decoration="normal" transform="translate(2965,1102)rotate(45)"/>
</g>
</g>
<g cb-classname="ControlPin" cb-pin-name="cJ-xRb-4h3" id="6FX">
<line cb-classname="GraphicLineEntity" class="signalline" id="6Fs" x1="3000" x2="3000" y1="1090" y2="1110"/>
<polygon cb-classname="GraphicPolygonEntity" class="signal" id="6FS" points="3000,1110 3005,1099 2994,1099"/>
<g cb-classname="DynamicText" cb-source="Hf-r0B-RuUn" id="6FQ">
<text cb-classname="GraphicTextEntity" class="signal" id="6FZ" text-anchor="start" transform="translate(2997,1095)rotate(-90)"/>
</g>
</g>
<g cb-classname="ControlPin" cb-pin-name="02-ybJ-Ru" id="61p">
<line cb-classname="GraphicLineEntity" class="signalline" id="61A" x1="3060" x2="3040" y1="1150" y2="1150"/>
<polygon cb-classname="GraphicPolygonEntity" class="signal" id="61K" points="3040,1150 3050,1155 3050,1144"/>
<g cb-classname="DynamicText" cb-source="4h-za5-AROF" id="61I">
<text cb-classname="GraphicTextEntity" class="signal" id="61X" text-anchor="start" x="3054" y="1147"/>
</g>
</g>
</g>
<g cb-alg-7dl3="76" cb-alg-JSa5="1.000000" cb-alg-KZMY="OFF" cb-alg-d9s="$519$cb-alg-out$" cb-alg-nVTU="ON" cb-alg-nZa5="$573$cb-alg-trkn$" cb-alg-nZli="2.500000" cb-alg-nz8H="100.000000" cb-alg-sdlW="0.000000" cb-alg-sn8H="-100" cb-algorithm-id="015" cb-classname="ControlAlgorithm" cb-function-name="GAINBIAS" cb-macro-alg="C5441" cb-macro-bias="C5441:BIAS" cb-macro-btsc="C5441:BTSC" cb-macro-diag="C5441:DIAG" cb-macro-gain="C5441:GAIN" cb-macro-out="A5443" cb-macro-proq="C5441:PROQ" cb-macro-tblk="C5441:TBLK" cb-macro-tout="A5442" cb-macro-tpsc="C5441:TPSC" cb-macro-trat="C5441:TRAT" cb-modify-id="1" id="5jX">
<rect cb-classname="GraphicRectangleEntity" class="algorithm" height="60" id="5js" width="100" x="2950" y="1310"/>
<text baseline-shift="-50%" cb-classname="GraphicTextEntity" class="algorithm" font-size="33" id="5jS" text-anchor="middle" x="3000" y="1335">
K
</text>
<g cb-classname="ControlPin" cb-pin-name="DU-SzB-NvL" id="5jQ">
<line cb-classname="GraphicLineEntity" class="signalline" id="5jZ" x1="3000" x2="3000" y1="1290" y2="1310"/>
<polygon cb-classname="GraphicPolygonEntity" class="signal" id="5jw" points="3000,1310 3004,1299 2996,1299"/>
<g cb-classname="DynamicText" cb-source="iW-CNv-CSIZ" class="signal" id="5bp">
<text baseline-shift="5%" cb-classname="GraphicTextEntity" class="signal" fill="black" font-style="normal" font-weight="normal" id="5bA" text-decoration="normal" transform="translate(2990,1290)rotate(-90)"/>
</g>
</g>
<g cb-classname="ControlPin" cb-pin-name="02-ybJ-Mci" id="5bK">
<line cb-classname="GraphicLineEntity" class="signalline" id="5bI" x1="3000" x2="3000" y1="1370" y2="1390"/>
<g cb-classname="DynamicText" cb-source="zW-KdR-8MDW" class="signal" id="5bX" text-anchor="end">
<text baseline-shift="5%" cb-classname="GraphicTextEntity" class="signal" fill="black" font-style="normal" font-weight="normal" id="5bs" text-anchor="end" text-decoration="normal" transform="translate(2992,1382)rotate(-90)"/>
</g>
<g cb-classname="SignalSegment" id="5bS">
<line cb-classname="GraphicLineEntity" class="signalline" id="5bQ" stroke="green" stroke-dasharray="5,4" x1="3000" x2="3000" y1="1390" y2="1440"/>
<g cb-classname="SignalSegment" id="5bZ">
<line cb-classname="GraphicLineEntity" class="signalline" id="5bw" x1="3000" x2="2840" y1="1440" y2="1440"/>
<g cb-classname="SignalSegment" id="5ip">
<line cb-classname="GraphicLineEntity" class="signalline" id="5iA" x1="2840" x2="2840" y1="1440" y2="1000"/>
<g cb-classname="SignalSegment" id="5iK">
<line cb-classname="GraphicLineEntity" class="signalline" id="5iI" x1="2840" x2="2930" y1="1000" y2="1000"/>
<g cb-classname="SignalConnection" cb-graphic-line="$563$" cb-input-pin="$noa$" id="5iX"/>
<ellipse cb-classname="GraphicEllipseEntity" class="signal" cx="2840" cy="1000" id="5is" rx="5" ry="5" stroke="black"/>
<g cb-classname="SignalSegment" id="5iS">
<g cb-classname="SignalConnection" cb-graphic-line="$568$" cb-input-pin="$bVI$" id="5iQ"/>
<line cb-classname="GraphicLineEntity" class="signalline" id="5iZ" x1="2840" x2="2930" y1="560" y2="560"/>
</g>
<line cb-classname="GraphicLineEntity" class="signalline" id="5iw" x1="2840" x2="2840" y1="1000" y2="560"/>
</g>
</g>
<g cb-classname="SignalConnection" cb-graphic-line="$571$" cb-input-pin="$7fz$" id="52p"/>
<line cb-classname="GraphicLineEntity" class="signalline" id="52A" stroke="green" stroke-dasharray="5,4" x1="3000" x2="3000" y1="1440" y2="1830"/>
<ellipse cb-classname="GraphicEllipseEntity" class="signal" cx="3000" cy="1440" id="52K" rx="5" ry="5" stroke="black"/>
</g>
</g>
</g>
</g>
<g cb-alg-3yxG="42" cb-alg-6rw="$695$cb-alg-out$" cb-alg-6rwG="1.000000" cb-alg-6rwf="0.000000" cb-alg-Juwi="-999999999" cb-alg-MY="$544$cb-alg-out$" cb-alg-MY_G="1.000000" cb-alg-MY_f="0.000000" cb-alg-SVG="ON" cb-alg-SuNK="ON" cb-alg-ljxG="$399$cb-alg-out$" cb-alg-rGwi="999999999" cb-alg-rON9="2.500000" cb-alg-rONY="2.500000" cb-alg-zjD7="OFF" cb-algorithm-id="041" cb-classname="ControlAlgorithm" cb-function-name="TRANSFER" cb-macro-alg="C5731" cb-macro-btsc="C5731:BTSC" cb-macro-diag="C5731:DIAG" cb-macro-no_b="C5731:NO_B" cb-macro-no_g="C5731:NO_G" cb-macro-odf="C5731:ODF" cb-macro-otrk="C5731:OTRK" cb-macro-out="OUT" cb-macro-slew="C5731:SLEW" cb-macro-tpsc="C5731:TPSC" cb-macro-trkn="A5733" cb-macro-trky="A5732" cb-macro-trr1="C5731:TRR1" cb-macro-trr2="C5731:TRR2" cb-macro-yes="TRK" cb-macro-yesb="C5731:YESB" cb-macro-yesg="C5731:YESG" cb-modify-id="1" id="52I">
<polygon cb-classname="GraphicPolygonEntity" class="algorithm" id="52X" points="3000,1850 2960,1890 3000,1930 3040,1890"/>
<text baseline-shift="-50%" cb-classname="GraphicTextEntity" class="algorithm" font-size="33" id="52s" text-anchor="middle" x="3000" y="1882">
T
</text>
<g cb-classname="ControlPin" cb-pin-name="iW-Unn-EiZ" id="52S">
<line cb-classname="GraphicLineEntity" class="signalline" id="52Q" x1="3000" x2="3000" y1="1930" y2="1950"/>
<g cb-classname="DynamicText" cb-source="02-odC-RrEs" class="signal" id="52Z" text-anchor="end">
<text baseline-shift="5%" cb-classname="GraphicTextEntity" class="signal" fill="black" font-style="normal" font-weight="normal" id="52w" text-anchor="end" text-decoration="normal" transform="translate(2991,1943)rotate(-90)"/>
</g>
<g cb-classname="SignalSegment" id="6iK">
<g cb-classname="SignalConnection" cb-graphic-line="$665$" cb-input-pin="$lxH$" id="6iS"/>
<line cb-classname="GraphicLineEntity" class="signalline" id="6is" x1="3000" x2="3000" y1="1950" y2="2290"/>
</g>
</g>
<g cb-classname="ControlPin" cb-pin-name="zW-u3B-6ORH" id="5Ep">
<line cb-classname="GraphicLineEntity" class="signalline" id="5EA" x1="2960" x2="2980" y1="1930" y2="1910"/>
<polygon cb-classname="GraphicPolygonEntity" class="signal" id="5EK" points="2980,1910 2968,1914 2975,1921"/>
<g cb-classname="DynamicText" cb-source="0V-63A-poKG" id="5EI">
<text cb-classname="GraphicTextEntity" class="signal" id="5EX" text-anchor="end" transform="translate(2967,1918)rotate(-45)"/>
</g>
</g>
<g cb-classname="ControlPin" cb-pin-name="cJ-xRb-4h3" id="5Es">
<line cb-classname="GraphicLineEntity" class="signalline" id="5ES" x1="2940" x2="2960" y1="1890" y2="1890"/>
<polygon cb-classname="GraphicPolygonEntity" class="signal" id="5EQ" points="2960,1890 2949,1886 2949,1894"/>
<g cb-classname="DynamicText" cb-source="Hf-r0B-RuUn" class="signal" id="5EZ" text-anchor="end">
<text baseline-shift="5%" cb-classname="GraphicTextEntity" class="signal" fill="black" font-style="normal" font-weight="normal" id="5Ew" text-anchor="end" text-decoration="normal" x="2944" y="1877"/>
</g>
</g>
<g cb-classname="ControlPin" cb-pin-name="Uv-GeA-9M" id="5Op">
<line cb-classname="GraphicLineEntity" class="signalline" id="5OA" x1="3000" x2="3000" y1="1830" y2="1850"/>
<polygon cb-classname="GraphicPolygonEntity" class="signal" id="5OK" points="3000,1850 3004,1839 2996,1839"/>
<g cb-classname="DynamicText" cb-source="zW-KdR-8MDW" class="signal" id="5OI">
<text baseline-shift="5%" cb-classname="GraphicTextEntity" class="signal" fill="black" font-style="normal" font-weight="normal" id="5OX" text-decoration="normal" transform="translate(2991,1831)rotate(-90)"/>
</g>
</g>
</g>
<g cb-alg-IVy0="OUTPUT" cb-alg-lF="$573$cb-alg-out$" cb-alg-zS21="OUT" cb-algorithm-id="003" cb-classname="ExternalPointInterface" cb-function-name="OUTPUT" cb-modify-id="1" id="6bI">
<ellipse cb-classname="GraphicEllipseEntity" class="algorithm" cx="3000" cy="2350" id="6bX" rx="40" ry="40"/>
<g cb-classname="DynamicText" cb-labeled="false" cb-pin-name="o2" cb-source="Uv-GeA-BnWe" class="algorithm" id="6bs" text-anchor="middle">
<text baseline-shift="0%" cb-classname="GraphicTextEntity" class="algorithm" fill="black" font-family="Arial" font-size="20" font-style="normal" font-weight="normal" id="6bS" text-anchor="middle" text-decoration="normal" x="3000" y="2440"/>
</g>
<g cb-classname="ControlPin" cb-pin-name="M1-gia-28" id="6bQ">
<line cb-classname="GraphicLineEntity" class="signalline" id="6bZ" x1="3000" x2="3000" y1="2290" y2="2310"/>
<polygon cb-classname="GraphicPolygonEntity" class="signal" id="6bw" points="3000,2310 3004,2299 2996,2299"/>
</g>
<g cb-classname="DynamicText" cb-labeled="false" cb-source="ls-lxx-HCU0" id="6ip">
<text baseline-shift="-50%" cb-classname="GraphicTextEntity" class="algorithm" id="6iA" text-anchor="middle" x="3000" y="2350"/>
</g>
</g>
</g>
<g cb-classname="IncludeDocument" cb-modify-time="03/12/2018 11:07:58" cb-objectname="frame" id="5">
<text cb-classname="GraphicTextEntity" class="frame" font-size="50" id="8Qw" x="3660" y="3146">
Project Title &lt;Edit in FRAME.SVG&gt;
</text>
<g baseline-shift="-50%" cb-classname="DynamicText" cb-source="iW-HAtc-dX" class="frame" id="8Vp">
<text cb-classname="GraphicTextEntity" class="frame" fill="black" font-family="arial" font-size="25" font-style="normal" font-weight="normal" id="8VA" text-decoration="normal" x="4715" y="3325">

</text>
</g>
<g baseline-shift="-50%" cb-classname="DynamicText" cb-source="02-jaEz-24" class="frame" id="8VK" text-anchor="middle">
<text cb-classname="GraphicTextEntity" class="frame" fill="black" font-family="arial" font-size="48" font-style="normal" font-weight="normal" id="8VI" text-anchor="middle" text-decoration="normal" x="4900" y="3320">

</text>
</g>
<g baseline-shift="-50%" cb-classname="DynamicText" cb-source="zW-nS8U-x4" class="frame" id="8VX" text-anchor="middle">
<text cb-classname="GraphicTextEntity" class="frame" fill="black" font-family="arial" font-size="48" font-style="normal" font-weight="normal" id="8Vs" text-anchor="middle" text-decoration="normal" x="5067" y="3324">

</text>
</g>
<g cb-classname="DynamicText" cb-source="ls-8GNsh-LFoVh" class="frame" id="8VS">
<text cb-classname="GraphicTextEntity" class="frame" fill="black" font-family="arial" font-size="48" font-style="normal" font-weight="normal" id="8VQ" text-decoration="normal" x="3660" y="3224">
ENERO - Balancing rate
</text>
</g>
<g baseline-shift="-50%" cb-classname="DynamicText" cb-source="cG-myuWL-gxys9C" class="frame" id="8VZ" text-anchor="middle">
<text cb-classname="GraphicTextEntity" class="frame" fill="black" font-family="arial" font-size="48" font-style="normal" font-weight="normal" id="8Vw" text-anchor="middle" text-decoration="normal" x="5270" y="3324">

</text>
</g>
<g baseline-shift="0%" cb-classname="DynamicText" cb-source="DU-JYI0cNqC" class="frame" id="8Fp" text-anchor="middle">
<text cb-classname="GraphicTextEntity" class="frame" fill="black" font-family="arial" font-size="36" font-style="normal" font-weight="normal" id="8FA" text-anchor="middle" text-decoration="normal" x="5270" y="3150">
A
</text>
</g>
<g baseline-shift="0%" cb-classname="DynamicText" cb-source="Hf-KNUNmdYR-ixDW" class="frame" id="8FK" text-anchor="middle">
<text cb-classname="GraphicTextEntity" class="frame" fill="black" font-family="arial" font-size="20" font-style="normal" font-weight="normal" id="8FI" text-anchor="middle" text-decoration="normal" x="5270" y="3230">

</text>
</g>
<g baseline-shift="-50%" cb-classname="DynamicText" cb-source="Uv-hvAd9nZF" class="frame" id="8FX" text-anchor="end">
<text cb-classname="GraphicTextEntity" class="frame" fill="black" font-family="arial" font-size="26" font-style="normal" font-weight="normal" id="8Fs" text-anchor="end" text-decoration="normal" x="4500" y="3420">
R.Kragnys
</text>
</g>
<g baseline-shift="-50%" cb-classname="DynamicText" cb-source="M1-aLgaZ2sU" class="frame" id="8FS" text-anchor="end">
<text cb-classname="GraphicTextEntity" class="frame" fill="black" font-family="arial" font-size="26" font-style="normal" font-weight="normal" id="8FQ" text-anchor="end" text-decoration="normal" x="5353" y="3420">

</text>
</g>
<g cb-classname="GraphicShape" cb-tag="BORDER" id="8FZ">
<line cb-classname="GraphicLineEntity" class="frameline" id="8Fw" x1="40" x2="40" y1="40" y2="3460"/>
<line cb-classname="GraphicLineEntity" class="frameline" id="81p" x1="40" x2="5380" y1="3460" y2="3460"/>
<line cb-classname="GraphicLineEntity" class="frameline" id="81A" x1="5380" x2="5380" y1="3460" y2="40"/>
<line cb-classname="GraphicLineEntity" class="frameline" id="81K" x1="5380" x2="40" y1="40" y2="40"/>
<line cb-classname="GraphicLineEntity" class="frame" id="81I" x1="5430" x2="5440" y1="3510" y2="3510"/>
</g>
<g cb-classname="GraphicShape" cb-tag="TITLE BOX" id="81X">
<line cb-classname="GraphicLineEntity" class="frameline" id="81s" x1="2340" x2="2340" y1="3080" y2="3460"/>
<line cb-classname="GraphicLineEntity" class="frameline" id="81S" x1="2340" x2="5380" y1="3080" y2="3080"/>
<line cb-classname="GraphicLineEntity" class="frameline" id="81Q" x1="3650" x2="3650" y1="3460" y2="3080"/>
<line cb-classname="GraphicLineEntity" class="frameline" id="81Z" x1="3650" x2="5380" y1="3240" y2="3240"/>
<line cb-classname="GraphicLineEntity" class="frameline" id="81w" x1="3650" x2="5380" y1="3390" y2="3390"/>
<line cb-classname="GraphicLineEntity" class="frameline" id="8jp" x1="3650" x2="5380" y1="3160" y2="3160"/>
<line cb-classname="GraphicLineEntity" class="frameline" id="8jA" x1="3650" x2="4520" y1="3320" y2="3320"/>
<line cb-classname="GraphicLineEntity" class="frameline" id="8jK" x1="4520" x2="5380" y1="3290" y2="3290"/>
<line cb-classname="GraphicLineEntity" class="frameline" id="8jI" x1="4520" x2="5380" y1="3240" y2="3240"/>
<line cb-classname="GraphicLineEntity" class="frameline" id="8jX" x1="4520" x2="4520" y1="3240" y2="3460"/>
<line cb-classname="GraphicLineEntity" class="frameline" id="8js" x1="4810" x2="4810" y1="3240" y2="3390"/>
<line cb-classname="GraphicLineEntity" class="frameline" id="8jS" x1="4990" x2="4990" y1="3240" y2="3390"/>
<line cb-classname="GraphicLineEntity" class="frameline" id="8jQ" x1="5150" x2="5150" y1="3080" y2="3390"/>
</g>
<g cb-classname="GraphicShape" cb-tag="TEXT LABELS" id="8jZ">
<text baseline-shift="-50%" cb-classname="GraphicTextEntity" class="frame" font-size="25" id="8jw" text-anchor="middle" x="4890" y="3252">
Drop
</text>
<text baseline-shift="-50%" cb-classname="GraphicTextEntity" class="frame" font-size="25" id="8bp" text-anchor="middle" x="5075" y="3252">
Task
</text>
<text baseline-shift="-50%" cb-classname="GraphicTextEntity" class="frame" font-size="25" id="8bA" text-anchor="middle" x="5265" y="3252">
Sheet
</text>
<text cb-classname="GraphicTextEntity" class="frame" font-size="25" id="8bK" x="5152" y="3107">
Rev.
</text>
<text cb-classname="GraphicTextEntity" class="frame" font-size="25" id="8bI" x="3653" y="3418">
Engineer
</text>
<text cb-classname="GraphicTextEntity" class="frame" font-size="25" id="8bX" x="4528" y="3419">
Approved
</text>
<text cb-classname="GraphicTextEntity" class="frame" font-size="25" id="8bs" x="5152" y="3187">
Date
</text>
<text baseline-shift="-50%" cb-classname="GraphicTextEntity" class="frame" font-size="25" id="8bS" text-anchor="middle" x="4660" y="3252">
Drawing Number
</text>
<text baseline-shift="-50%" cb-classname="GraphicTextEntity" class="frame" font-size="25" id="8bQ" text-anchor="middle" x="4680" y="3325">
CTL
</text>
</g>
<text baseline-shift="-50%" cb-classname="GraphicTextEntity" class="frame" font-size="48" id="8bZ" text-anchor="middle" x="3000" y="3100">
EMERSON PROCESS MANAGEMENT
</text>
<g baseline-shift="-100%" cb-anchor-x="2360" cb-anchor-y="3140" cb-classname="GroupText" cb-max-width="1260" fill="black" id="8bw">
<text baseline-shift="-100%" cb-classname="GraphicTextEntity" class="frame" fill="black" font-family="arial" font-size="22" font-weight="normal" id="8ip" text-anchor="start" text-decoration="normal" x="2360" y="3140">
THIS DOCUMENT CONTAINS INFORMATION PROPRIETARY TO EMERSON PROCESS
</text>
<text baseline-shift="-100%" cb-classname="GraphicTextEntity" class="frame" fill="black" font-family="arial" font-size="22" font-weight="normal" id="8iA" text-anchor="start" text-decoration="normal" x="2360" y="3176">
MANAGEMENT POWER &amp; WATER SOLUTIONS, INC. IT IS SUBMITTED IN CONFIDENCE AND
</text>
<text baseline-shift="-100%" cb-classname="GraphicTextEntity" class="frame" fill="black" font-family="arial" font-size="22" font-weight="normal" id="8iK" text-anchor="start" text-decoration="normal" x="2360" y="3212">
TRUST, IS TO BE USED BY YOU SOLELY FOR THE PURPOSES FOR WHICH IT IS
</text>
<text baseline-shift="-100%" cb-classname="GraphicTextEntity" class="frame" fill="black" font-family="arial" font-size="22" font-weight="normal" id="8iI" text-anchor="start" text-decoration="normal" x="2360" y="3248">
FURNISHED AND IS TO BE RETURNED UPON REQUEST. THIS DOCUMENT AND ANY
</text>
<text baseline-shift="-100%" cb-classname="GraphicTextEntity" class="frame" fill="black" font-family="arial" font-size="22" font-weight="normal" id="8iX" text-anchor="start" text-decoration="normal" x="2360" y="3284">
OTHER INFORMATION PROVIDED TO YOU IS NOT TO BE REPRODUCED, TRANSMITTED,
</text>
<text baseline-shift="-100%" cb-classname="GraphicTextEntity" class="frame" fill="black" font-family="arial" font-size="22" font-weight="normal" id="8is" text-anchor="start" text-decoration="normal" x="2360" y="3320">
DISCLOSED, OR USED OTHERWISE IN WHOLE OR IN PART WITHOUT THE PRIOR
</text>
<text baseline-shift="-100%" cb-classname="GraphicTextEntity" class="frame" fill="black" font-family="arial" font-size="22" font-weight="normal" id="8iS" text-anchor="start" text-decoration="normal" x="2360" y="3356">
WRITTEN AUTHORIZATION OF EMERSON PROCESS MANAGEMENT POWER &amp; WATER
</text>
<text baseline-shift="-100%" cb-classname="GraphicTextEntity" class="frame" fill="black" font-family="arial" font-size="22" font-weight="normal" id="8iQ" text-anchor="start" text-decoration="normal" x="2360" y="3392">
SOLUTIONS,INC.
</text>
</g>
</g>
</svg>