<?xml version="1.0" ?><svg cb-classname="ControlMacro" cb-create-time="03/07/2018" cb-export-tracking="disabled" cb-filename="Z:\OVATION\ControlMacros\NRO-DEVSTAT.svg" cb-function-id="0000" cb-key="112342443321" cb-macro-crc="22265" cb-modify-id="2" cb-path="Z:/OVATION/ControlMacros" cb-revision="A" cb-sheet-title="ENERO: SM - Single device status checking" cb-snap-grid="10" height="3522" id="1" width="5450" xmlns="http://www.w3.org/2000/svg">
<style cb-classname="EntityStyle" id="2" type="text/css">
	.algorithm { fill: white; stroke: black; stroke-width: 3 }
	.algorithm-function { fill: black; stroke: none }
	.algorithm-functionline { fill: none; stroke: black; stroke-linecap: round; stroke-width: 3 }
	.algorithm-name { fill: black; stroke: none }
	.algorithm-nameline { fill: none; stroke: black; stroke-linecap: round; stroke-width: 3 }
	.algorithm-sequence { fill: black; stroke: none; visibility: hidden }
	.algorithm-sequenceline { fill: none; stroke: black; stroke-linecap: round; stroke-width: 3; visibility: hidden }
	.algorithmline { fill: none; stroke: black; stroke-linecap: round; stroke-width: 3 }
	.annotation { fill: black; stroke: none }
	.annotationline { fill: none; stroke: black; stroke-linecap: round; stroke-width: 3 }
	.frame { fill: black; stroke: none }
	.frameline { fill: none; stroke: black; stroke-linecap: round; stroke-width: 3 }
	.signal { fill: black; stroke: none }
	.signalline { fill: none; stroke: black; stroke-linecap: round; stroke-width: 3 }
	text.algorithm { fill: black; font-family: Arial; font-size: 22; stroke: none }
	text.algorithm-function { fill: black; font-family: Arial; font-size: 22; stroke: none }
	text.algorithm-name { fill: black; font-family: Arial; font-size: 22; stroke: none }
	text.algorithm-sequence { fill: black; font-family: Arial; font-size: 22; stroke: none; visibility: hidden }
	text.annotation { fill: black; font-family: Arial; font-size: 22; stroke: none }
	text.frame { fill: black; font-family: Arial; font-size: 18; stroke: none }
	text.signal { fill: black; font-family: Arial; font-size: 12; stroke: none }
</style>
<g cb-classname="NamedObject" cb-objectname="Comments" id="3"/>
<g cb-classname="AlgorithmContainer" cb-objectname="Algorithms" id="4">
<g cb-alg-dgGh="69" cb-alg-vXxq="1" cb-algorithm-id="004" cb-classname="ControlAlgorithm" cb-function-name="DVALGEN" cb-macro-alg="C651" cb-macro-diag="C651:DIAG" cb-macro-out="D652" cb-macro-valu="C651:VALU" cb-modify-id="1" id="6B">
<rect cb-classname="GraphicRectangleEntity" class="algorithm" height="60" id="6v" width="100" x="1090" y="1030"/>
<text baseline-shift="-50%" cb-classname="GraphicTextEntity" class="algorithm" font-size="18" id="6h" text-anchor="middle" x="1140" y="1047">
DVAL
</text>
<text baseline-shift="-50%" cb-classname="GraphicTextEntity" class="algorithm" font-size="18" id="6c" text-anchor="middle" x="1140" y="1073">
GEN
</text>
<g cb-classname="ControlPin" cb-pin-name="PH-tqX-o4H" id="6k">
<line cb-classname="GraphicLineEntity" class="signalline" id="7w" x1="1190" x2="1210" y1="1060" y2="1060"/>
<g cb-classname="DynamicText" cb-source="Tw-6lE-LZ5v" class="signal" id="7A">
<text baseline-shift="5%" cb-classname="GraphicTextEntity" class="signal" fill="black" font-style="normal" font-weight="normal" id="7I" text-decoration="normal" x="1204" y="1050"/>
</g>
<g cb-classname="SignalSegment" id="7W">
<g cb-classname="SignalSegment" id="7N">
<line cb-classname="GraphicLineEntity" class="signalline" id="7Bp" stroke="#1e12bf" stroke-dasharray="5,4" x1="1250" x2="1250" y1="1060" y2="1140"/>
<g cb-classname="SignalSegment" id="7Bu">
<line cb-classname="GraphicLineEntity" class="signalline" id="7B9" stroke="#1e12bf" stroke-dasharray="5,4" x1="1250" x2="1320" y1="1140" y2="1140"/>
<g cb-classname="SignalConnection" cb-graphic-line="$758$" cb-input-pin="$UDC$" id="7B3"/>
<g cb-classname="SignalSegment" id="8I">
<line cb-classname="GraphicLineEntity" class="signalline" id="8W" stroke="#1e12bf" stroke-dasharray="5,4" x1="1250" x2="1260" y1="1340" y2="1340"/>
<g cb-classname="SignalSegment" id="8N">
<ellipse cb-classname="GraphicEllipseEntity" class="signal" cx="1260" cy="1340" fill="#1e12bf" id="9A" rx="5" ry="5" stroke="#1e12bf" stroke-dasharray="5,4"/>
<line cb-classname="GraphicLineEntity" class="signalline" id="7vp" stroke="#1e12bf" stroke-dasharray="5,4" x1="1260" x2="1260" y1="1340" y2="1450"/>
<g cb-classname="SignalSegment" id="7vu">
<line cb-classname="GraphicLineEntity" class="signalline" id="7v9" stroke="#1e12bf" stroke-dasharray="5,4" x1="1260" x2="1330" y1="1450" y2="1450"/>
<g cb-classname="SignalConnection" cb-graphic-line="$768$" cb-input-pin="$aL8$" id="7v3"/>
<ellipse cb-classname="GraphicEllipseEntity" class="signal" cx="1260" cy="1450" fill="#1e12bf" id="7hI" rx="5" ry="5" stroke="#1e12bf" stroke-dasharray="5,4"/>
<line cb-classname="GraphicLineEntity" class="signalline" id="7hs" stroke="#1e12bf" stroke-dasharray="5,4" x1="1260" x2="1260" y1="1450" y2="1510"/>
<g cb-classname="SignalSegment" id="7hn">
<line cb-classname="GraphicLineEntity" class="signalline" id="7h8" stroke="#1e12bf" stroke-dasharray="5,4" x1="1260" x2="1330" y1="1510" y2="1510"/>
<g cb-classname="SignalConnection" cb-graphic-line="$773$" cb-input-pin="$CoK$" id="7h1"/>
</g>
</g>
<g cb-classname="SignalConnection" cb-graphic-line="$763$" cb-input-pin="$4Xv$" id="7v1"/>
<line cb-classname="GraphicLineEntity" class="signalline" id="7v8" stroke="#1e12bf" stroke-dasharray="5,4" x1="1260" x2="1320" y1="1340" y2="1340"/>
</g>
</g>
<line cb-classname="GraphicLineEntity" class="signalline" id="8A" stroke="#1e12bf" stroke-dasharray="5,4" x1="1250" x2="1250" y1="1140" y2="1340"/>
<ellipse cb-classname="GraphicEllipseEntity" class="signal" cx="1250" cy="1140" fill="#1e12bf" id="7vI" rx="5" ry="5" stroke="#1e12bf" stroke-dasharray="5,4"/>
</g>
</g>
<line cb-classname="GraphicLineEntity" class="signalline" id="9N" stroke="#1e12bf" stroke-dasharray="5,4" x1="1210" x2="1250" y1="1060" y2="1060"/>
</g>
</g>
</g>
<g cb-alg-CMKk="TRACKING INPUT" cb-alg-Ncyv="NO" cb-alg-RlbU="TIN" cb-algorithm-id="002" cb-classname="ExternalPointInterface" cb-function-name="INPUT" cb-modify-id="1" id="9B">
<ellipse cb-classname="GraphicEllipseEntity" class="algorithm" cx="1410" cy="680" id="9v" rx="40" ry="40"/>
<g cb-classname="DynamicText" cb-labeled="false" cb-pin-name="WRF" cb-source="Tw-FZG-XlUT" class="algorithm" id="9h" text-anchor="middle">
<text baseline-shift="0%" cb-classname="GraphicTextEntity" class="algorithm" fill="black" font-family="Arial" font-size="20" id="9c" text-anchor="middle" x="1410" y="600"/>
</g>
<g cb-classname="ControlPin" cb-pin-name="xu-atJ-94d" id="9k">
<line cb-classname="GraphicLineEntity" class="signalline" id="1wI" x1="1410" x2="1410" y1="720" y2="740"/>
<g cb-classname="SignalSegment" id="1ws">
<line cb-classname="GraphicLineEntity" class="signalline" id="1wn" x1="1410" x2="1410" y1="740" y2="810"/>
<g cb-classname="SignalSegment" id="1w8">
<line cb-classname="GraphicLineEntity" class="signalline" id="1w1" x1="1410" x2="1570" y1="810" y2="810"/>
<g cb-classname="SignalSegment" id="1wk">
<line cb-classname="GraphicLineEntity" class="signalline" id="1wp" x1="1570" x2="1570" y1="810" y2="1020"/>
<g cb-classname="SignalSegment" id="1wu">
<line cb-classname="GraphicLineEntity" class="signalline" id="1w9" x1="1570" x2="1570" y1="1020" y2="1220"/>
<g cb-classname="SignalSegment" id="1w3">
<line cb-classname="GraphicLineEntity" class="signalline" id="1AI" x1="1570" x2="1410" y1="1220" y2="1220"/>
<g cb-classname="SignalSegment" id="1As">
<line cb-classname="GraphicLineEntity" class="signalline" id="1An" x1="1410" x2="1410" y1="1220" y2="1270"/>
<g cb-classname="SignalConnection" cb-graphic-line="$112$" cb-input-pin="$E8r$" id="1A8"/>
</g>
</g>
<ellipse cb-classname="GraphicEllipseEntity" class="signal" cx="1570" cy="1020" id="1A1" rx="5" ry="5" stroke="black"/>
<g cb-classname="SignalSegment" id="1Ak">
<line cb-classname="GraphicLineEntity" class="signalline" id="1Ap" x1="1410" x2="1410" y1="1020" y2="1070"/>
<g cb-classname="SignalConnection" cb-graphic-line="$116$" cb-input-pin="$A9m$" id="1Au"/>
</g>
<line cb-classname="GraphicLineEntity" class="signalline" id="1A9" x1="1570" x2="1410" y1="1020" y2="1020"/>
</g>
</g>
<line cb-classname="GraphicLineEntity" class="signalline" id="1A3" x1="1410" x2="1410" y1="810" y2="870"/>
<g cb-classname="SignalConnection" cb-graphic-line="$119$" cb-input-pin="$W8R$" id="1II"/>
<ellipse cb-classname="GraphicEllipseEntity" class="signal" cx="1410" cy="810" id="1Is" rx="5" ry="5" stroke="black"/>
</g>
</g>
</g>
<g cb-classname="DynamicText" cb-labeled="false" cb-source="oN-i4p-5MpK" id="1In">
<text baseline-shift="-50%" cb-classname="GraphicTextEntity" class="algorithm" id="1I8" text-anchor="middle" x="1410" y="680"/>
</g>
</g>
<g cb-alg-CC4v="86" cb-alg-GA4r="3W" cb-alg-T1U="$95$cb-alg-out$" cb-alg-VCvt="20" cb-alg-VCvw="19" cb-alg-k1N0="$65$cb-alg-out$" cb-algorithm-id="005" cb-classname="ControlAlgorithm" cb-function-name="PNTSTATUS" cb-macro-alg="C1601" cb-macro-bita="C1601:BITA" cb-macro-bitb="C1601:BITB" cb-macro-diag="C1601:DIAG" cb-macro-in1="TIN" cb-macro-outa="D1602" cb-macro-outb="D1603" cb-macro-stat="C1601:STAT" cb-modify-id="1" id="1vI">
<rect cb-classname="GraphicRectangleEntity" class="algorithm" height="100" id="1vs" width="140" x="1340" y="1090"/>
<text baseline-shift="-50%" cb-classname="GraphicTextEntity" class="algorithm" fill="#000000" font-family="MS Shell Dlg" font-size="18" id="1vn" text-anchor="middle" x="1410" y="1140">
PNTSTAT
</text>
<g cb-classname="ControlPin" cb-pin-name="kP-eHV-ln34" id="1v8">
<line cb-classname="GraphicLineEntity" class="signalline" id="1v1" x1="1320" x2="1340" y1="1140" y2="1140"/>
<polygon cb-classname="GraphicPolygonEntity" class="signal" id="1vk" points="1340,1140 1329,1134 1329,1145"/>
<g cb-classname="DynamicText" cb-source="7D-DVn-rLmn" id="1vp">
<text cb-classname="GraphicTextEntity" class="signal" fill="black" font-style="normal" font-weight="normal" id="1vu" text-anchor="end" text-decoration="normal" x="1325" y="1137"/>
</g>
</g>
<g cb-classname="ControlPin" cb-pin-name="2s-wuu-JLNn" id="1v9">
<line cb-classname="GraphicLineEntity" class="signalline" id="1v3" x1="1480" x2="1500" y1="1120" y2="1120"/>
<g cb-classname="DynamicText" cb-source="J0-zCZ-nFNk" id="1hI">
<text cb-classname="GraphicTextEntity" class="signal" fill="black" font-style="normal" font-weight="normal" id="1hs" text-anchor="start" text-decoration="normal" x="1494" y="1117"/>
</g>
<g cb-classname="SignalSegment" id="1hn">
<line cb-classname="GraphicLineEntity" class="signalline" id="1h8" stroke="#1e12bf" stroke-dasharray="5,4" x1="1500" x2="1600" y1="1120" y2="1120"/>
<g cb-classname="SignalSegment" id="1h1">
<line cb-classname="GraphicLineEntity" class="signalline" id="1hk" stroke="#1e12bf" stroke-dasharray="5,4" x1="1600" x2="1600" y1="1120" y2="940"/>
<g cb-classname="SignalSegment" id="1hp">
<line cb-classname="GraphicLineEntity" class="signalline" id="1hu" stroke="#1e12bf" stroke-dasharray="5,4" x1="1600" x2="1720" y1="940" y2="940"/>
<g cb-classname="SignalConnection" cb-graphic-line="$177$" cb-input-pin="$EKX$" id="1h9"/>
</g>
</g>
</g>
</g>
<g cb-classname="ControlPin" cb-pin-name="7D-Mqm-yojT" id="1h3">
<line cb-classname="GraphicLineEntity" class="signalline" id="1cI" x1="1480" x2="1500" y1="1160" y2="1160"/>
<g cb-classname="DynamicText" cb-source="2s-MCr-1PD0" id="1cs">
<text cb-classname="GraphicTextEntity" class="signal" fill="black" font-style="normal" font-weight="normal" id="1cn" text-anchor="start" text-decoration="normal" x="1494" y="1157"/>
</g>
<g cb-classname="SignalSegment" id="1c8">
<g cb-classname="SignalConnection" cb-graphic-line="$185$" cb-input-pin="$AtW$" id="1c1"/>
<line cb-classname="GraphicLineEntity" class="signalline" id="1ck" stroke="#1e12bf" stroke-dasharray="5,4" x1="1500" x2="1720" y1="1160" y2="1160"/>
</g>
</g>
<g cb-classname="ControlPin" cb-pin-name="PH-tqX-i5d" id="1cp">
<line cb-classname="GraphicLineEntity" class="signalline" id="1cu" x1="1410" x2="1410" y1="1070" y2="1090"/>
<polygon cb-classname="GraphicPolygonEntity" class="signal" id="1c9" points="1410,1090 1415,1079 1404,1079"/>
<g cb-classname="DynamicText" cb-source="kP-1i5-2w8D" id="1c3">
<text cb-classname="GraphicTextEntity" class="signal" fill="black" font-style="normal" font-weight="normal" id="1kI" text-anchor="start" text-decoration="normal" transform="translate(1407,1075)rotate(-90)"/>
</g>
</g>
<g cb-classname="GraphicShape" id="1ks">
<g cb-classname="DynamicText" cb-labeled="true" cb-source="7D-Mqm-WajP" id="1kn">
<text cb-classname="GraphicTextEntity" class="algorithm" id="1k8" text-anchor="start" x="1420" y="1060"/>
</g>
<g cb-classname="DynamicText" cb-labeled="true" cb-source="2s-wuu-pWNP" id="1k1">
<text cb-classname="GraphicTextEntity" class="algorithm" id="1kk" text-anchor="start" x="1420" y="1080"/>
</g>
</g>
</g>
<g cb-alg-3crq="$65$cb-alg-out$" cb-alg-9gdx="86" cb-alg-HBdg="3W" cb-alg-Rgk5="16" cb-alg-RgkV="16" cb-alg-gcC="$95$cb-alg-out$" cb-algorithm-id="006" cb-classname="ControlAlgorithm" cb-function-name="PNTSTATUS" cb-macro-alg="C1961" cb-macro-bita="C1961:BITA" cb-macro-bitb="C1961:BITB" cb-macro-diag="C1961:DIAG" cb-macro-in1="TIN" cb-macro-outa="D1962" cb-macro-stat="C1961:STAT" cb-modify-id="1" id="1kp">
<rect cb-classname="GraphicRectangleEntity" class="algorithm" height="100" id="1ku" width="140" x="1340" y="1290"/>
<text baseline-shift="-50%" cb-classname="GraphicTextEntity" class="algorithm" fill="#000000" font-family="MS Shell Dlg" font-size="18" id="1k9" text-anchor="middle" x="1410" y="1340">
PNTSTAT
</text>
<g cb-classname="ControlPin" cb-pin-name="PH-tqX-k5sq" id="1k3">
<line cb-classname="GraphicLineEntity" class="signalline" id="2wI" x1="1320" x2="1340" y1="1340" y2="1340"/>
<polygon cb-classname="GraphicPolygonEntity" class="signal" id="2ws" points="1340,1340 1329,1334 1329,1345"/>
<g cb-classname="DynamicText" cb-source="kP-1i5-2w8D" id="2wn">
<text cb-classname="GraphicTextEntity" class="signal" fill="black" font-style="normal" font-weight="normal" id="2w8" text-anchor="end" text-decoration="normal" x="1325" y="1337"/>
</g>
</g>
<g cb-classname="ControlPin" cb-pin-name="Di-O4f-xQUf" id="2w1">
<line cb-classname="GraphicLineEntity" class="signalline" id="2wk" x1="1480" x2="1500" y1="1320" y2="1320"/>
<g cb-classname="DynamicText" cb-source="Pg-zfs-EfGw" id="2wp">
<text cb-classname="GraphicTextEntity" class="signal" fill="black" font-style="normal" font-weight="normal" id="2wu" text-anchor="start" text-decoration="normal" x="1494" y="1317"/>
</g>
<g cb-classname="SignalSegment" id="2w9">
<line cb-classname="GraphicLineEntity" class="signalline" id="2w3" stroke="#1e12bf" stroke-dasharray="5,4" x1="1500" x2="1660" y1="1320" y2="1320"/>
<g cb-classname="SignalSegment" id="2AI">
<line cb-classname="GraphicLineEntity" class="signalline" id="2As" stroke="#1e12bf" stroke-dasharray="5,4" x1="1660" x2="1660" y1="1320" y2="1140"/>
<g cb-classname="SignalSegment" id="2An">
<g cb-classname="SignalConnection" cb-graphic-line="$214$" cb-input-pin="$6sM$" id="2A8"/>
<line cb-classname="GraphicLineEntity" class="signalline" id="2A1" stroke="#1e12bf" stroke-dasharray="5,4" x1="1660" x2="1720" y1="1140" y2="1140"/>
<ellipse cb-classname="GraphicEllipseEntity" class="signal" cx="1660" cy="1140" fill="#1e12bf" id="2Ak" rx="5" ry="5" stroke="#1e12bf" stroke-dasharray="5,4"/>
<line cb-classname="GraphicLineEntity" class="signalline" id="2Ap" stroke="#1e12bf" stroke-dasharray="5,4" x1="1660" x2="1660" y1="1140" y2="960"/>
<g cb-classname="SignalSegment" id="2Au">
<g cb-classname="SignalConnection" cb-graphic-line="$219$" cb-input-pin="$5hx$" id="2A9"/>
<line cb-classname="GraphicLineEntity" class="signalline" id="2A3" stroke="#1e12bf" stroke-dasharray="5,4" x1="1660" x2="1720" y1="960" y2="960"/>
</g>
</g>
<g cb-classname="SignalConnection" cb-graphic-line="$221$" cb-input-pin="$A0B$" id="2II"/>
<line cb-classname="GraphicLineEntity" class="signalline" id="2Is" stroke="#1e12bf" stroke-dasharray="5,4" x1="1660" x2="1720" y1="1320" y2="1320"/>
<ellipse cb-classname="GraphicEllipseEntity" class="signal" cx="1660" cy="1320" fill="#1e12bf" id="2In" rx="5" ry="5" stroke="#1e12bf" stroke-dasharray="5,4"/>
<line cb-classname="GraphicLineEntity" class="signalline" id="2I8" stroke="#1e12bf" stroke-dasharray="5,4" x1="1660" x2="1660" y1="1320" y2="1360"/>
<g cb-classname="SignalSegment" id="2I1">
<line cb-classname="GraphicLineEntity" class="signalline" id="2Ik" stroke="#1e12bf" stroke-dasharray="5,4" x1="1660" x2="1720" y1="1360" y2="1360"/>
<g cb-classname="SignalConnection" cb-graphic-line="$225$" cb-input-pin="$6zy$" id="2Ip"/>
</g>
</g>
</g>
</g>
<g cb-classname="ControlPin" cb-pin-name="Tw-FZG-BPv3" id="2Iu">
<line cb-classname="GraphicLineEntity" class="signalline" id="2I9" x1="1480" x2="1500" y1="1360" y2="1360"/>
<g cb-classname="DynamicText" cb-source="xu-VPL-nY7i" id="2I3">
<text cb-classname="GraphicTextEntity" class="signal" fill="black" font-style="normal" font-weight="normal" id="2WI" text-anchor="start" text-decoration="normal" x="1494" y="1357"/>
</g>
</g>
<g cb-classname="ControlPin" cb-pin-name="7D-Mqm-BEO" id="2Ws">
<line cb-classname="GraphicLineEntity" class="signalline" id="2Wn" x1="1410" x2="1410" y1="1270" y2="1290"/>
<polygon cb-classname="GraphicPolygonEntity" class="signal" id="2W8" points="1410,1290 1415,1279 1404,1279"/>
<g cb-classname="DynamicText" cb-source="cR-XT1-FiMs" id="2W1">
<text cb-classname="GraphicTextEntity" class="signal" fill="black" font-style="normal" font-weight="normal" id="2Wk" text-anchor="start" text-decoration="normal" transform="translate(1407,1275)rotate(-90)"/>
</g>
</g>
<g cb-classname="GraphicShape" id="2Wp">
<g cb-classname="DynamicText" cb-labeled="true" cb-source="TV-40O-iifM" id="2Wu">
<text cb-classname="GraphicTextEntity" class="algorithm" id="2W9" text-anchor="start" x="1420" y="1260"/>
</g>
<g cb-classname="DynamicText" cb-labeled="true" cb-source="oN-i4p-gVKj" id="2W3">
<text cb-classname="GraphicTextEntity" class="algorithm" id="2NI" text-anchor="start" x="1420" y="1280"/>
</g>
</g>
</g>
<g cb-alg-14he="DIR" cb-alg-37cO="NO" cb-alg-yQ9x="1 FOR SUPPLY, 0 FOR DISCHARGE" cb-algorithm-id="043" cb-classname="ExternalPointInterface" cb-function-name="INPUT" cb-modify-id="1" id="3WI">
<ellipse cb-classname="GraphicEllipseEntity" class="algorithm" cx="900" cy="1480" id="3Ws" rx="40" ry="40"/>
<g cb-classname="DynamicText" cb-labeled="false" cb-pin-name="VSt" cb-source="kP-eHV-mKZe" class="algorithm" id="3Wn" text-anchor="start">
<text baseline-shift="-50%" cb-classname="GraphicTextEntity" class="algorithm" fill="black" font-family="lucida console" font-size="16" font-style="normal" font-weight="normal" id="3W8" text-anchor="end" text-decoration="normal" x="840" y="1480"/>
</g>
<g cb-classname="ControlPin" cb-pin-name="Di-O4f-xQU" id="3W1">
<line cb-classname="GraphicLineEntity" class="signalline" id="3Wk" x1="940" x2="960" y1="1480" y2="1480"/>
<g cb-classname="SignalSegment" id="3Wp">
<line cb-classname="GraphicLineEntity" class="signalline" id="6I1" stroke="#1e12bf" stroke-dasharray="5,4" x1="960" x2="1330" y1="1480" y2="1480"/>
<g cb-classname="SignalConnection" cb-graphic-line="$624$" cb-input-pin="$8cS$" id="6Ik"/>
</g>
</g>
<g cb-classname="DynamicText" cb-labeled="false" cb-source="J0-5u1-nFNk" id="3W3">
<text baseline-shift="-50%" cb-classname="GraphicTextEntity" class="algorithm" font-family="lucida console" font-size="22" id="3NI" text-anchor="middle" x="900" y="1480"/>
</g>
</g>
<g cb-alg-tRI="$65$cb-alg-out$" cb-alg-tRO="$65$cb-alg-out$" cb-alg-tRe="$330$cb-alg-out$" cb-algorithm-id="067" cb-classname="FastBooleanAlgorithm" cb-function-name="AND" cb-macro-in3="DIR" cb-modify-id="1" id="3Ns">
<rect cb-classname="GraphicRectangleEntity" class="algorithm" height="60" id="3Nn" width="60" x="1350" y="1450"/>
<line cb-classname="GraphicLineEntity" class="algorithm" id="3N8" x1="1350" x2="1350" y1="1440" y2="1520"/>
<text baseline-shift="-50%" cb-classname="GraphicTextEntity" class="algorithm" fill="#000000" font-family="MS Shell Dlg" id="3N1" text-anchor="middle" x="1380" y="1475">
AND
</text>
<g cb-classname="ControlPin" cb-pin-name="kP-eHV-VnA" id="3Nk">
<line cb-classname="GraphicLineEntity" class="signalline" id="3Np" x1="1330" x2="1350" y1="1450" y2="1450"/>
<polygon cb-classname="GraphicPolygonEntity" class="signal" id="3Nu" points="1350,1450 1339,1444 1339,1455"/>
<g cb-classname="DynamicText" cb-source="7D-DVn-rLmn" id="3N9">
<text cb-classname="GraphicTextEntity" class="signal" fill="black" font-style="normal" font-weight="normal" id="3N3" text-anchor="end" text-decoration="normal" x="1335" y="1447"/>
</g>
</g>
<g cb-classname="ControlPin" cb-pin-name="2s-wuu-JLN" id="3BI">
<line cb-classname="GraphicLineEntity" class="signalline" id="3Bs" x1="1410" x2="1430" y1="1480" y2="1480"/>
<g cb-classname="DynamicText" cb-source="J0-zCZ-nFNk" id="3Bn">
<text cb-classname="GraphicTextEntity" class="signal" fill="black" font-style="normal" font-weight="normal" id="3B8" text-anchor="start" text-decoration="normal" x="1424" y="1477"/>
</g>
<g cb-classname="SignalSegment" id="3B1">
<line cb-classname="GraphicLineEntity" class="signalline" id="3Bk" stroke="#1e12bf" stroke-dasharray="5,4" x1="1430" x2="1790" y1="1480" y2="1480"/>
<g cb-classname="SignalSegment" id="3Bp">
<line cb-classname="GraphicLineEntity" class="signalline" id="3Bu" stroke="#1e12bf" stroke-dasharray="5,4" x1="1790" x2="1790" y1="1480" y2="1430"/>
<g cb-classname="SignalSegment" id="3B9">
<line cb-classname="GraphicLineEntity" class="signalline" id="3B3" stroke="#1e12bf" stroke-dasharray="5,4" x1="1790" x2="1950" y1="1430" y2="1430"/>
<g cb-classname="SignalSegment" id="3vI">
<line cb-classname="GraphicLineEntity" class="signalline" id="3vs" stroke="#1e12bf" stroke-dasharray="5,4" x1="1950" x2="1950" y1="1430" y2="1300"/>
<g cb-classname="SignalSegment" id="3vn">
<line cb-classname="GraphicLineEntity" class="signalline" id="3v8" stroke="#1e12bf" stroke-dasharray="5,4" x1="1950" x2="2040" y1="1300" y2="1300"/>
<g cb-classname="SignalConnection" cb-graphic-line="$363$" cb-input-pin="$Bsc$" id="3v1"/>
<line cb-classname="GraphicLineEntity" class="signalline" id="3vk" stroke="#1e12bf" stroke-dasharray="5,4" x1="1950" x2="1950" y1="1300" y2="1000"/>
<g cb-classname="SignalSegment" id="3vp">
<line cb-classname="GraphicLineEntity" class="signalline" id="3vu" stroke="#1e12bf" stroke-dasharray="5,4" x1="1950" x2="2040" y1="1000" y2="1000"/>
<g cb-classname="SignalConnection" cb-graphic-line="$367$" cb-input-pin="$eC1$" id="3v9"/>
</g>
<ellipse cb-classname="GraphicEllipseEntity" class="signal" cx="1950" cy="1300" fill="#1e12bf" id="3v3" rx="5" ry="5" stroke="#1e12bf" stroke-dasharray="5,4"/>
</g>
</g>
</g>
<line cb-classname="GraphicLineEntity" class="signalline" id="3hI" stroke="#1e12bf" stroke-dasharray="5,4" x1="1790" x2="1820" y1="1480" y2="1480"/>
<g cb-classname="SignalConnection" cb-graphic-line="$370$" cb-input-pin="$5Nw$" id="3hs"/>
<ellipse cb-classname="GraphicEllipseEntity" class="signal" cx="1790" cy="1480" fill="#1e12bf" id="3hn" rx="5" ry="5" stroke="#1e12bf" stroke-dasharray="5,4"/>
</g>
</g>
</g>
<g cb-classname="ControlPin" cb-pin-name="Di-O4f-Cr0" id="3h8">
<line cb-classname="GraphicLineEntity" class="signalline" id="3h1" x1="1330" x2="1350" y1="1510" y2="1510"/>
<polygon cb-classname="GraphicPolygonEntity" class="signal" id="3hk" points="1350,1510 1339,1504 1339,1515"/>
<g cb-classname="DynamicText" cb-source="2s-MCr-1PD0" id="3hp">
<text cb-classname="GraphicTextEntity" class="signal" fill="black" font-style="normal" font-weight="normal" id="3hu" text-anchor="end" text-decoration="normal" x="1335" y="1507"/>
</g>
</g>
<g cb-classname="ControlPin" cb-pin-name="J0-5u1-HQK" id="3h9">
<line cb-classname="GraphicLineEntity" class="signalline" id="3h3" x1="1330" x2="1350" y1="1480" y2="1480"/>
<polygon cb-classname="GraphicPolygonEntity" class="signal" id="3cI" points="1350,1480 1339,1474 1339,1485"/>
<g cb-classname="DynamicText" cb-source="PH-BHQ-EOal" id="3cs">
<text cb-classname="GraphicTextEntity" class="signal" id="3cn" text-anchor="end" x="1335" y="1477"/>
</g>
</g>
</g>
<g cb-alg-gcC="$341$cb-alg-out$" cb-algorithm-id="042" cb-classname="FastBooleanAlgorithm" cb-function-name="NOT" cb-modify-id="1" id="4w1">
<rect cb-classname="GraphicRectangleEntity" class="algorithm" height="40" id="4wk" width="40" x="1840" y="1460"/>
<text baseline-shift="-50%" cb-classname="GraphicTextEntity" class="algorithm" font-size="28" id="4wp" text-anchor="middle" x="1859" y="1472">
N
</text>
<g cb-classname="ControlPin" cb-pin-name="PH-tqX-i5d" id="4wu">
<line cb-classname="GraphicLineEntity" class="signalline" id="4w9" x1="1820" x2="1840" y1="1480" y2="1480"/>
<polygon cb-classname="GraphicPolygonEntity" class="signal" id="4w3" points="1840,1480 1829,1476 1829,1484"/>
<g cb-classname="DynamicText" cb-source="kP-1i5-2w8D" class="signal" id="4AI" text-anchor="end">
<text baseline-shift="5%" cb-classname="GraphicTextEntity" class="signal" fill="black" font-style="normal" font-weight="normal" id="4As" text-anchor="end" text-decoration="normal" x="1835" y="1472"/>
</g>
</g>
<g cb-classname="ControlPin" cb-pin-name="Di-O4f-xQU" id="4An">
<line cb-classname="GraphicLineEntity" class="signalline" id="4A8" x1="1880" x2="1900" y1="1480" y2="1480"/>
<g cb-classname="DynamicText" cb-source="Pg-zfs-EfGw" class="signal" id="4A1">
<text baseline-shift="5%" cb-classname="GraphicTextEntity" class="signal" fill="black" font-style="normal" font-weight="normal" id="4Ak" text-decoration="normal" x="1892" y="1472"/>
</g>
<g cb-classname="SignalSegment" id="4Ap">
<line cb-classname="GraphicLineEntity" class="signalline" id="4Au" stroke="#1e12bf" stroke-dasharray="5,4" x1="1900" x2="2000" y1="1480" y2="1480"/>
<g cb-classname="SignalSegment" id="4A9">
<line cb-classname="GraphicLineEntity" class="signalline" id="4A3" stroke="#1e12bf" stroke-dasharray="5,4" x1="2000" x2="2000" y1="1480" y2="1200"/>
<g cb-classname="SignalSegment" id="4II">
<line cb-classname="GraphicLineEntity" class="signalline" id="4Is" stroke="#1e12bf" stroke-dasharray="5,4" x1="2000" x2="2040" y1="1200" y2="1200"/>
<g cb-classname="SignalConnection" cb-graphic-line="$421$" cb-input-pin="$pKT$" id="4In"/>
<line cb-classname="GraphicLineEntity" class="signalline" id="4I8" stroke="#1e12bf" stroke-dasharray="5,4" x1="2000" x2="2000" y1="1200" y2="1100"/>
<g cb-classname="SignalSegment" id="4I1">
<line cb-classname="GraphicLineEntity" class="signalline" id="4Ik" stroke="#1e12bf" stroke-dasharray="5,4" x1="2000" x2="2040" y1="1100" y2="1100"/>
<g cb-classname="SignalConnection" cb-graphic-line="$425$" cb-input-pin="$rL2$" id="4Ip"/>
</g>
<ellipse cb-classname="GraphicEllipseEntity" class="signal" cx="2000" cy="1200" fill="#1e12bf" id="4Iu" rx="5" ry="5" stroke="#1e12bf" stroke-dasharray="5,4"/>
</g>
</g>
</g>
</g>
</g>
<g cb-alg-5MpK="INHEN" cb-alg-e3Vm="NO" cb-alg-wyIC="INHIBIT ENABLE ON HIGH/LOW LIMIT" cb-algorithm-id="001" cb-classname="ExternalPointInterface" cb-function-name="INPUT" cb-modify-id="1" id="5Nk">
<ellipse cb-classname="GraphicEllipseEntity" class="algorithm" cx="900" cy="940" id="5Np" rx="40" ry="40"/>
<g cb-classname="DynamicText" cb-labeled="false" cb-pin-name="OAl" cb-source="J0-5u1-GdCP" class="algorithm" id="5Nu" text-anchor="start">
<text baseline-shift="-50%" cb-classname="GraphicTextEntity" class="algorithm" fill="black" font-family="lucida console" font-size="22" font-style="normal" font-weight="normal" id="5N9" text-anchor="end" text-decoration="normal" x="840" y="940"/>
</g>
<g cb-classname="ControlPin" cb-pin-name="TV-40O-Jtf" id="5N3">
<line cb-classname="GraphicLineEntity" class="signalline" id="5BI" x1="940" x2="960" y1="940" y2="940"/>
<g cb-classname="SignalSegment" id="5B8">
<g cb-classname="SignalConnection" cb-graphic-line="$556$" cb-input-pin="$rS4$" id="5Bu"/>
<line cb-classname="GraphicLineEntity" class="signalline" id="5Bp" stroke="#1e12bf" stroke-dasharray="5,4" x1="960" x2="1320" y1="940" y2="940"/>
</g>
</g>
<g cb-classname="DynamicText" cb-labeled="false" cb-source="oN-i4p-5MpK" id="5Bs">
<text baseline-shift="-50%" cb-classname="GraphicTextEntity" class="algorithm" font-family="lucida console" font-size="22" id="5Bn" text-anchor="middle" x="900" y="940"/>
</g>
</g>
<g cb-alg-9bFc="3W" cb-alg-UnuZ="$545$cb-alg-out$" cb-alg-XHFp="86" cb-alg-cnv="$95$cb-alg-out$" cb-alg-wHUe="18" cb-alg-wHUi="17" cb-algorithm-id="003" cb-classname="ControlAlgorithm" cb-function-name="PNTSTATUS" cb-macro-alg="C1241" cb-macro-bita="C1241:BITA" cb-macro-bitb="C1241:BITB" cb-macro-diag="C1241:DIAG" cb-macro-enbl="INHEN" cb-macro-in1="TIN" cb-macro-outa="D1242" cb-macro-outb="D1243" cb-macro-stat="C1241:STAT" cb-modify-id="1" id="1I1">
<rect cb-classname="GraphicRectangleEntity" class="algorithm" height="100" id="1Ik" width="140" x="1340" y="890"/>
<text baseline-shift="-50%" cb-classname="GraphicTextEntity" class="algorithm" fill="#000000" font-family="MS Shell Dlg" font-size="18" id="1Ip" text-anchor="middle" x="1410" y="940">
PNTSTAT
</text>
<g cb-classname="ControlPin" cb-pin-name="7D-Mqm-DEpu" id="1Iu">
<line cb-classname="GraphicLineEntity" class="signalline" id="1I9" x1="1320" x2="1340" y1="940" y2="940"/>
<polygon cb-classname="GraphicPolygonEntity" class="signal" id="1I3" points="1340,940 1329,934 1329,945"/>
<g cb-classname="DynamicText" cb-source="cR-XT1-FiMs" id="1WI">
<text cb-classname="GraphicTextEntity" class="signal" fill="black" font-style="normal" font-weight="normal" id="1Ws" text-anchor="end" text-decoration="normal" x="1325" y="937"/>
</g>
</g>
<g cb-classname="ControlPin" cb-pin-name="Zr-lYv-LHFO" id="1Wn">
<line cb-classname="GraphicLineEntity" class="signalline" id="1W8" x1="1480" x2="1500" y1="920" y2="920"/>
<g cb-classname="DynamicText" cb-source="PH-BHQ-EOal" id="1W1">
<text cb-classname="GraphicTextEntity" class="signal" fill="black" font-style="normal" font-weight="normal" id="1Wk" text-anchor="start" text-decoration="normal" x="1494" y="917"/>
</g>
<g cb-classname="SignalSegment" id="1Wp">
<line cb-classname="GraphicLineEntity" class="signalline" id="1Wu" stroke="#1e12bf" stroke-dasharray="5,4" x1="1500" x2="1720" y1="920" y2="920"/>
<g cb-classname="SignalConnection" cb-graphic-line="$137$" cb-input-pin="$52n$" id="1W9"/>
</g>
</g>
<g cb-classname="ControlPin" cb-pin-name="Di-O4f-xQUp" id="1W3">
<line cb-classname="GraphicLineEntity" class="signalline" id="1NI" x1="1480" x2="1500" y1="960" y2="960"/>
<g cb-classname="DynamicText" cb-source="Pg-zfs-EfGw" id="1Ns">
<text cb-classname="GraphicTextEntity" class="signal" fill="black" font-style="normal" font-weight="normal" id="1Nn" text-anchor="start" text-decoration="normal" x="1494" y="957"/>
</g>
<g cb-classname="SignalSegment" id="1N8">
<g cb-classname="SignalSegment" id="1N1">
<line cb-classname="GraphicLineEntity" class="signalline" id="1Nk" stroke="#1e12bf" stroke-dasharray="5,4" x1="1630" x2="1630" y1="960" y2="1120"/>
<g cb-classname="SignalSegment" id="1Np">
<line cb-classname="GraphicLineEntity" class="signalline" id="1Nu" stroke="#1e12bf" stroke-dasharray="5,4" x1="1630" x2="1720" y1="1120" y2="1120"/>
<g cb-classname="SignalConnection" cb-graphic-line="$147$" cb-input-pin="$seQ$" id="1N9"/>
</g>
</g>
<line cb-classname="GraphicLineEntity" class="signalline" id="1N3" stroke="#1e12bf" stroke-dasharray="5,4" x1="1500" x2="1630" y1="960" y2="960"/>
</g>
</g>
<g cb-classname="ControlPin" cb-pin-name="kP-eHV-VnA" id="1BI">
<line cb-classname="GraphicLineEntity" class="signalline" id="1Bs" x1="1410" x2="1410" y1="870" y2="890"/>
<polygon cb-classname="GraphicPolygonEntity" class="signal" id="1Bn" points="1410,890 1415,879 1404,879"/>
<g cb-classname="DynamicText" cb-source="7D-DVn-rLmn" id="1B8">
<text cb-classname="GraphicTextEntity" class="signal" fill="black" font-style="normal" font-weight="normal" id="1B1" text-anchor="start" text-decoration="normal" transform="translate(1407,875)rotate(-90)"/>
</g>
</g>
<g cb-classname="GraphicShape" id="1Bk">
<g cb-classname="DynamicText" cb-labeled="true" cb-source="cR-dqq-wHUe" id="1Bp">
<text cb-classname="GraphicTextEntity" class="algorithm" id="1Bu" text-anchor="start" x="1420" y="860"/>
</g>
<g cb-classname="DynamicText" cb-labeled="true" cb-source="Zr-lYv-ulFg" id="1B9">
<text cb-classname="GraphicTextEntity" class="algorithm" id="1B3" text-anchor="start" x="1420" y="880"/>
</g>
</g>
</g>
<g cb-alg-CMKk="DISABLE" cb-alg-Ncyv="NO" cb-alg-RlbU="DSBL" cb-algorithm-id="00A" cb-classname="ExternalPointInterface" cb-function-name="INPUT" cb-modify-id="2" id="6wn">
<ellipse cb-classname="GraphicEllipseEntity" class="algorithm" cx="900" cy="1720" id="6w8" rx="40" ry="40"/>
<g cb-classname="DynamicText" cb-labeled="false" cb-pin-name="WRF" cb-source="Tw-FZG-XlUT" class="algorithm" id="6w1" text-anchor="start">
<text baseline-shift="-50%" cb-classname="GraphicTextEntity" class="algorithm" fill="black" font-family="lucida console" font-size="22" font-style="normal" font-weight="normal" id="6wk" text-anchor="end" text-decoration="normal" x="840" y="1720"/>
</g>
<g cb-classname="ControlPin" cb-pin-name="xu-atJ-94d" id="6wp">
<line cb-classname="GraphicLineEntity" class="signalline" id="6wu" x1="940" x2="960" y1="1720" y2="1720"/>
<g cb-classname="SignalSegment" id="7hk">
<line cb-classname="GraphicLineEntity" class="signalline" id="7hp" stroke="#1e12bf" stroke-dasharray="5,4" x1="960" x2="1680" y1="1720" y2="1720"/>
<g cb-classname="SignalSegment" id="7hu">
<line cb-classname="GraphicLineEntity" class="signalline" id="7h9" stroke="#1e12bf" stroke-dasharray="5,4" x1="1680" x2="1680" y1="1720" y2="1340"/>
<g cb-classname="SignalSegment" id="7h3">
<line cb-classname="GraphicLineEntity" class="signalline" id="7cI" stroke="#1e12bf" stroke-dasharray="5,4" x1="1680" x2="1720" y1="1340" y2="1340"/>
<g cb-classname="SignalConnection" cb-graphic-line="$780$" cb-input-pin="$8AQ$" id="7cs"/>
<line cb-classname="GraphicLineEntity" class="signalline" id="7cn" stroke="#1e12bf" stroke-dasharray="5,4" x1="1680" x2="1680" y1="1340" y2="1180"/>
<g cb-classname="SignalSegment" id="7c8">
<line cb-classname="GraphicLineEntity" class="signalline" id="7c1" stroke="#1e12bf" stroke-dasharray="5,4" x1="1680" x2="1720" y1="1180" y2="1180"/>
<g cb-classname="SignalConnection" cb-graphic-line="$784$" cb-input-pin="$SaK$" id="7ck"/>
<line cb-classname="GraphicLineEntity" class="signalline" id="7cu" stroke="#1e12bf" stroke-dasharray="5,4" x1="1680" x2="1680" y1="1180" y2="980"/>
<g cb-classname="SignalSegment" id="7c9">
<line cb-classname="GraphicLineEntity" class="signalline" id="7c3" stroke="#1e12bf" stroke-dasharray="5,4" x1="1680" x2="1720" y1="980" y2="980"/>
<g cb-classname="SignalConnection" cb-graphic-line="$789$" cb-input-pin="$Krd$" id="7kI"/>
</g>
<ellipse cb-classname="GraphicEllipseEntity" class="signal" cx="1680" cy="1180" fill="#1e12bf" id="7ks" rx="5" ry="5" stroke="#1e12bf" stroke-dasharray="5,4"/>
</g>
<ellipse cb-classname="GraphicEllipseEntity" class="signal" cx="1680" cy="1340" fill="#1e12bf" id="7cp" rx="5" ry="5" stroke="#1e12bf" stroke-dasharray="5,4"/>
</g>
</g>
</g>
</g>
<g cb-classname="DynamicText" cb-labeled="false" cb-source="7D-Mqm-rLmn" id="6w9">
<text baseline-shift="-50%" cb-classname="GraphicTextEntity" class="algorithm" font-family="lucida console" font-size="22" id="6w3" text-anchor="middle" x="900" y="1720"/>
</g>
</g>
<g cb-alg-cn5="$196$cb-alg-outa$" cb-alg-cnA="$602$cb-alg-out$" cb-alg-cnT="$160$cb-alg-outa$" cb-alg-cnv="$124$cb-alg-outa$" cb-algorithm-id="020" cb-classname="FastBooleanAlgorithm" cb-function-name="OR" cb-macro-in4="DSBL" cb-modify-id="1" id="2Ns">
<ellipse cb-classname="GraphicEllipseEntity" class="algorithm" cx="1770" cy="940" id="2Nn" rx="30" ry="30"/>
<line cb-classname="GraphicLineEntity" class="algorithm" id="2N8" x1="1740" x2="1740" y1="900" y2="980"/>
<text baseline-shift="-50%" cb-classname="GraphicTextEntity" class="algorithm" fill="#000000" font-family="MS Shell Dlg" font-size="18" id="2N1" text-anchor="middle" x="1769" y="936">
OR
</text>
<g cb-classname="ControlPin" cb-pin-name="Pg-ZPq-a1b" id="2Nk">
<line cb-classname="GraphicLineEntity" class="signalline" id="2Np" x1="1720" x2="1740" y1="920" y2="920"/>
<polygon cb-classname="GraphicPolygonEntity" class="signal" id="2Nu" points="1740,920 1729,914 1729,925"/>
<g cb-classname="DynamicText" cb-source="J0-zCZ-nFNk" id="2N9">
<text cb-classname="GraphicTextEntity" class="signal" fill="black" font-style="normal" font-weight="normal" id="2N3" text-anchor="end" text-decoration="normal" x="1725" y="917"/>
</g>
</g>
<g cb-classname="ControlPin" cb-pin-name="TV-40O-Jtf" id="2BI">
<line cb-classname="GraphicLineEntity" class="signalline" id="2Bs" x1="1800" x2="1820" y1="940" y2="940"/>
<g cb-classname="DynamicText" cb-source="oN-mBA-5MpK" id="2Bn">
<text cb-classname="GraphicTextEntity" class="signal" fill="black" font-style="normal" font-weight="normal" id="2B8" text-anchor="start" text-decoration="normal" x="1814" y="937"/>
</g>
<g cb-classname="SignalSegment" id="2B1">
<line cb-classname="GraphicLineEntity" class="signalline" id="2Bk" stroke="#1e12bf" stroke-dasharray="5,4" x1="1820" x2="1840" y1="940" y2="940"/>
<g cb-classname="SignalSegment" id="2Bp">
<line cb-classname="GraphicLineEntity" class="signalline" id="2Bu" stroke="#1e12bf" stroke-dasharray="5,4" x1="1840" x2="1840" y1="940" y2="1040"/>
<g cb-classname="SignalSegment" id="2B9">
<line cb-classname="GraphicLineEntity" class="signalline" id="2B3" stroke="#1e12bf" stroke-dasharray="5,4" x1="1840" x2="2040" y1="1040" y2="1040"/>
<g cb-classname="SignalConnection" cb-graphic-line="$259$" cb-input-pin="$N1a$" id="2vI"/>
</g>
<line cb-classname="GraphicLineEntity" class="signalline" id="2vs" stroke="#1e12bf" stroke-dasharray="5,4" x1="1840" x2="2040" y1="940" y2="940"/>
<ellipse cb-classname="GraphicEllipseEntity" class="signal" cx="1840" cy="940" fill="#1e12bf" id="2vn" rx="5" ry="5" stroke="#1e12bf" stroke-dasharray="5,4"/>
<g cb-classname="SignalConnection" cb-graphic-line="$261$" cb-input-pin="$yTh$" id="2v8"/>
</g>
</g>
</g>
<g cb-classname="ControlPin" cb-pin-name="PH-tqX-i5S" id="2v1">
<line cb-classname="GraphicLineEntity" class="signalline" id="2vk" x1="1720" x2="1740" y1="960" y2="960"/>
<polygon cb-classname="GraphicPolygonEntity" class="signal" id="2vp" points="1740,960 1729,954 1729,965"/>
<g cb-classname="DynamicText" cb-source="kP-1i5-2w8D" id="2vu">
<text cb-classname="GraphicTextEntity" class="signal" fill="black" font-style="normal" font-weight="normal" id="2v9" text-anchor="end" text-decoration="normal" x="1725" y="957"/>
</g>
</g>
<g cb-classname="ControlPin" cb-pin-name="Di-O4f-Crh" id="2v3">
<line cb-classname="GraphicLineEntity" class="signalline" id="2hI" x1="1720" x2="1740" y1="940" y2="940"/>
<polygon cb-classname="GraphicPolygonEntity" class="signal" id="2hs" points="1740,940 1729,934 1729,945"/>
<g cb-classname="DynamicText" cb-source="2s-MCr-1PD0" id="2hn">
<text cb-classname="GraphicTextEntity" class="signal" id="2h8" text-anchor="end" x="1725" y="937"/>
</g>
</g>
<g cb-classname="ControlPin" cb-pin-name="cR-dqq-cnA" id="6As">
<line cb-classname="GraphicLineEntity" class="signalline" id="6An" x1="1720" x2="1740" y1="980" y2="980"/>
<polygon cb-classname="GraphicPolygonEntity" class="signal" id="6A8" points="1740,980 1729,974 1729,985"/>
<g cb-classname="DynamicText" cb-source="TV-Lcn-Aa7y" id="6A1">
<text cb-classname="GraphicTextEntity" class="signal" id="6Ak" text-anchor="end" transform="translate(1725,977)rotate(360)"/>
</g>
</g>
</g>
<g cb-alg-yFM="$341$cb-alg-out$" cb-alg-yFp="$241$cb-alg-out$" cb-algorithm-id="03F" cb-classname="FastBooleanAlgorithm" cb-function-name="AND" cb-modify-id="1" id="3c8">
<rect cb-classname="GraphicRectangleEntity" class="algorithm" height="60" id="3c1" width="60" x="2060" y="940"/>
<line cb-classname="GraphicLineEntity" class="algorithm" id="3ck" x1="2060" x2="2060" y1="930" y2="1010"/>
<g cb-classname="ControlPin" cb-pin-name="Di-O4f-xQU" id="3cp">
<line cb-classname="GraphicLineEntity" class="signalline" id="3cu" x1="2120" x2="2140" y1="970" y2="970"/>
<g cb-classname="DynamicText" cb-source="Pg-zfs-EfGw" id="3c9">
<text cb-classname="GraphicTextEntity" class="signal" fill="black" font-style="normal" font-weight="normal" id="3c3" text-anchor="start" text-decoration="normal" x="2134" y="967"/>
</g>
<g cb-classname="SignalSegment" id="3kI">
<line cb-classname="GraphicLineEntity" class="signalline" id="3ks" stroke="#1e12bf" stroke-dasharray="5,4" x1="2140" x2="2270" y1="970" y2="970"/>
<g cb-classname="SignalConnection" cb-graphic-line="$391$" cb-input-pin="$KSI$" id="3kn"/>
</g>
</g>
<text baseline-shift="-50%" cb-classname="GraphicTextEntity" class="algorithm" fill="#000000" font-family="MS Shell Dlg" id="3k8" text-anchor="middle" x="2090" y="965">
AND
</text>
<g cb-classname="ControlPin" cb-pin-name="PH-tqX-i5d" id="3k1">
<line cb-classname="GraphicLineEntity" class="signalline" id="3kk" x1="2040" x2="2060" y1="940" y2="940"/>
<polygon cb-classname="GraphicPolygonEntity" class="signal" id="3kp" points="2060,940 2049,934 2049,945"/>
<g cb-classname="DynamicText" cb-source="kP-1i5-2w8D" id="3ku">
<text cb-classname="GraphicTextEntity" class="signal" fill="black" font-style="normal" font-weight="normal" id="3k9" text-anchor="end" text-decoration="normal" x="2045" y="937"/>
</g>
</g>
<g cb-classname="ControlPin" cb-pin-name="Di-O4f-Cr0" id="3k3">
<line cb-classname="GraphicLineEntity" class="signalline" id="4wI" x1="2040" x2="2060" y1="1000" y2="1000"/>
<polygon cb-classname="GraphicPolygonEntity" class="signal" id="4ws" points="2060,1000 2049,994 2049,1005"/>
<g cb-classname="DynamicText" cb-source="2s-MCr-1PD0" id="4wn">
<text cb-classname="GraphicTextEntity" class="signal" fill="black" font-style="normal" font-weight="normal" id="4w8" text-anchor="end" text-decoration="normal" x="2045" y="997"/>
</g>
</g>
</g>
<g cb-alg-PL0="$241$cb-alg-out$" cb-alg-PL5="$404$cb-alg-out$" cb-algorithm-id="041" cb-classname="FastBooleanAlgorithm" cb-function-name="AND" cb-modify-id="1" id="4I9">
<rect cb-classname="GraphicRectangleEntity" class="algorithm" height="60" id="4I3" width="60" x="2060" y="1040"/>
<line cb-classname="GraphicLineEntity" class="algorithm" id="4WI" x1="2060" x2="2060" y1="1030" y2="1110"/>
<g cb-classname="ControlPin" cb-pin-name="Zr-lYv-LHF" id="4Ws">
<line cb-classname="GraphicLineEntity" class="signalline" id="4Wn" x1="2120" x2="2140" y1="1070" y2="1070"/>
<g cb-classname="DynamicText" cb-source="PH-BHQ-EOal" id="4W8">
<text cb-classname="GraphicTextEntity" class="signal" fill="black" font-style="normal" font-weight="normal" id="4W1" text-anchor="start" text-decoration="normal" x="2134" y="1067"/>
</g>
<g cb-classname="SignalSegment" id="4Wk">
<g cb-classname="SignalSegment" id="4Wp">
<line cb-classname="GraphicLineEntity" class="signalline" id="4Wu" stroke="#1e12bf" stroke-dasharray="5,4" x1="2200" x2="2200" y1="1070" y2="1230"/>
<g cb-classname="SignalSegment" id="4W9">
<line cb-classname="GraphicLineEntity" class="signalline" id="4W3" stroke="#1e12bf" stroke-dasharray="5,4" x1="2200" x2="2270" y1="1230" y2="1230"/>
<g cb-classname="SignalConnection" cb-graphic-line="$439$" cb-input-pin="$YSb$" id="4NI"/>
</g>
</g>
<line cb-classname="GraphicLineEntity" class="signalline" id="4Ns" stroke="#1e12bf" stroke-dasharray="5,4" x1="2140" x2="2200" y1="1070" y2="1070"/>
</g>
</g>
<text baseline-shift="-50%" cb-classname="GraphicTextEntity" class="algorithm" fill="#000000" font-family="MS Shell Dlg" id="4Nn" text-anchor="middle" x="2090" y="1065">
AND
</text>
<g cb-classname="ControlPin" cb-pin-name="J0-5u1-HQm" id="4N8">
<line cb-classname="GraphicLineEntity" class="signalline" id="4N1" x1="2040" x2="2060" y1="1040" y2="1040"/>
<polygon cb-classname="GraphicPolygonEntity" class="signal" id="4Nk" points="2060,1040 2049,1034 2049,1045"/>
<g cb-classname="DynamicText" cb-source="PH-BHQ-EOal" id="4Np">
<text cb-classname="GraphicTextEntity" class="signal" fill="black" font-style="normal" font-weight="normal" id="4Nu" text-anchor="end" text-decoration="normal" x="2045" y="1037"/>
</g>
</g>
<g cb-classname="ControlPin" cb-pin-name="Tw-FZG-V2d" id="4N9">
<line cb-classname="GraphicLineEntity" class="signalline" id="4N3" x1="2040" x2="2060" y1="1100" y2="1100"/>
<polygon cb-classname="GraphicPolygonEntity" class="signal" id="4BI" points="2060,1100 2049,1094 2049,1105"/>
<g cb-classname="DynamicText" cb-source="Di-bV2-stgN" id="4Bs">
<text cb-classname="GraphicTextEntity" class="signal" fill="black" font-style="normal" font-weight="normal" id="4Bn" text-anchor="end" text-decoration="normal" x="2045" y="1097"/>
</g>
</g>
</g>
<g cb-alg-gcA="$160$cb-alg-outb$" cb-alg-gcC="$124$cb-alg-outb$" cb-alg-gcK="$602$cb-alg-out$" cb-alg-gca="$196$cb-alg-outa$" cb-algorithm-id="021" cb-classname="FastBooleanAlgorithm" cb-function-name="OR" cb-macro-in4="DSBL" cb-modify-id="1" id="2h1">
<ellipse cb-classname="GraphicEllipseEntity" class="algorithm" cx="1770" cy="1140" id="2hk" rx="30" ry="30"/>
<line cb-classname="GraphicLineEntity" class="algorithm" id="2hp" x1="1740" x2="1740" y1="1100" y2="1180"/>
<text baseline-shift="-50%" cb-classname="GraphicTextEntity" class="algorithm" fill="#000000" font-family="MS Shell Dlg" font-size="18" id="2hu" text-anchor="middle" x="1769" y="1136">
OR
</text>
<g cb-classname="ControlPin" cb-pin-name="oN-i4p-PL0" id="2h9">
<line cb-classname="GraphicLineEntity" class="signalline" id="2h3" x1="1720" x2="1740" y1="1120" y2="1120"/>
<polygon cb-classname="GraphicPolygonEntity" class="signal" id="2cI" points="1740,1120 1729,1114 1729,1125"/>
<g cb-classname="DynamicText" cb-source="xu-VPL-nY7i" id="2cs">
<text cb-classname="GraphicTextEntity" class="signal" fill="black" font-style="normal" font-weight="normal" id="2cn" text-anchor="end" text-decoration="normal" x="1725" y="1117"/>
</g>
</g>
<g cb-classname="ControlPin" cb-pin-name="7D-Mqm-yoj" id="2c8">
<line cb-classname="GraphicLineEntity" class="signalline" id="2c1" x1="1800" x2="1820" y1="1140" y2="1140"/>
<g cb-classname="DynamicText" cb-source="2s-MCr-1PD0" id="2ck">
<text cb-classname="GraphicTextEntity" class="signal" fill="black" font-style="normal" font-weight="normal" id="2cp" text-anchor="start" text-decoration="normal" x="1814" y="1137"/>
</g>
<g cb-classname="SignalSegment" id="2cu">
<line cb-classname="GraphicLineEntity" class="signalline" id="2c9" stroke="#1e12bf" stroke-dasharray="5,4" x1="1820" x2="1840" y1="1140" y2="1140"/>
<g cb-classname="SignalSegment" id="2c3">
<line cb-classname="GraphicLineEntity" class="signalline" id="2kI" stroke="#1e12bf" stroke-dasharray="5,4" x1="1840" x2="1840" y1="1140" y2="1240"/>
<g cb-classname="SignalSegment" id="2ks">
<line cb-classname="GraphicLineEntity" class="signalline" id="2kn" stroke="#1e12bf" stroke-dasharray="5,4" x1="1840" x2="2040" y1="1240" y2="1240"/>
<g cb-classname="SignalConnection" cb-graphic-line="$292$" cb-input-pin="$lvE$" id="2k8"/>
</g>
<line cb-classname="GraphicLineEntity" class="signalline" id="2k1" stroke="#1e12bf" stroke-dasharray="5,4" x1="1840" x2="2040" y1="1140" y2="1140"/>
<ellipse cb-classname="GraphicEllipseEntity" class="signal" cx="1840" cy="1140" fill="#1e12bf" id="2kk" rx="5" ry="5" stroke="#1e12bf" stroke-dasharray="5,4"/>
<g cb-classname="SignalConnection" cb-graphic-line="$294$" cb-input-pin="$rh2$" id="2kp"/>
</g>
</g>
</g>
<g cb-classname="ControlPin" cb-pin-name="Pg-ZPq-a1D" id="2ku">
<line cb-classname="GraphicLineEntity" class="signalline" id="2k9" x1="1720" x2="1740" y1="1160" y2="1160"/>
<polygon cb-classname="GraphicPolygonEntity" class="signal" id="2k3" points="1740,1160 1729,1154 1729,1165"/>
<g cb-classname="DynamicText" cb-source="J0-zCZ-nFNk" id="3wI">
<text cb-classname="GraphicTextEntity" class="signal" fill="black" font-style="normal" font-weight="normal" id="3ws" text-anchor="end" text-decoration="normal" x="1725" y="1157"/>
</g>
</g>
<g cb-classname="ControlPin" cb-pin-name="TV-40O-lEy" id="3wn">
<line cb-classname="GraphicLineEntity" class="signalline" id="3w8" x1="1720" x2="1740" y1="1140" y2="1140"/>
<polygon cb-classname="GraphicPolygonEntity" class="signal" id="3w1" points="1740,1140 1729,1134 1729,1145"/>
<g cb-classname="DynamicText" cb-source="Tw-6lE-LZ5v" id="3wk">
<text cb-classname="GraphicTextEntity" class="signal" id="3wp" text-anchor="end" x="1725" y="1137"/>
</g>
</g>
<g cb-classname="ControlPin" cb-pin-name="Tw-FZG-V28" id="6Au">
<line cb-classname="GraphicLineEntity" class="signalline" id="6A9" x1="1720" x2="1740" y1="1180" y2="1180"/>
<polygon cb-classname="GraphicPolygonEntity" class="signal" id="6A3" points="1740,1180 1729,1174 1729,1185"/>
<g cb-classname="DynamicText" cb-source="Di-bV2-stgN" id="6II">
<text cb-classname="GraphicTextEntity" class="signal" id="6Is" text-anchor="end" transform="translate(1725,1177)rotate(360)"/>
</g>
</g>
</g>
<g cb-alg-i5S="$404$cb-alg-out$" cb-alg-i5d="$274$cb-alg-out$" cb-algorithm-id="044" cb-classname="FastBooleanAlgorithm" cb-function-name="AND" cb-modify-id="1" id="4B8">
<rect cb-classname="GraphicRectangleEntity" class="algorithm" height="60" id="4B1" width="60" x="2060" y="1140"/>
<line cb-classname="GraphicLineEntity" class="algorithm" id="4Bk" x1="2060" x2="2060" y1="1130" y2="1210"/>
<g cb-classname="ControlPin" cb-pin-name="J0-5u1-YZc" id="4Bp">
<line cb-classname="GraphicLineEntity" class="signalline" id="4Bu" x1="2120" x2="2140" y1="1170" y2="1170"/>
<g cb-classname="DynamicText" cb-source="TV-Lcn-Aa7y" id="4B9">
<text cb-classname="GraphicTextEntity" class="signal" fill="black" font-style="normal" font-weight="normal" id="4B3" text-anchor="start" text-decoration="normal" x="2134" y="1167"/>
</g>
<g cb-classname="SignalSegment" id="4vI">
<g cb-classname="SignalSegment" id="4vs">
<line cb-classname="GraphicLineEntity" class="signalline" id="4vn" stroke="#1e12bf" stroke-dasharray="5,4" x1="2240" x2="2240" y1="1170" y2="1010"/>
<g cb-classname="SignalSegment" id="4v8">
<line cb-classname="GraphicLineEntity" class="signalline" id="4v1" stroke="#1e12bf" stroke-dasharray="5,4" x1="2240" x2="2270" y1="1010" y2="1010"/>
<g cb-classname="SignalConnection" cb-graphic-line="$464$" cb-input-pin="$rXd$" id="4vk"/>
</g>
</g>
<line cb-classname="GraphicLineEntity" class="signalline" id="4vp" stroke="#1e12bf" stroke-dasharray="5,4" x1="2140" x2="2240" y1="1170" y2="1170"/>
</g>
</g>
<text baseline-shift="-50%" cb-classname="GraphicTextEntity" class="algorithm" fill="#000000" font-family="MS Shell Dlg" id="4vu" text-anchor="middle" x="2090" y="1165">
AND
</text>
<g cb-classname="ControlPin" cb-pin-name="cR-dqq-cnv" id="4v9">
<line cb-classname="GraphicLineEntity" class="signalline" id="4v3" x1="2040" x2="2060" y1="1140" y2="1140"/>
<polygon cb-classname="GraphicPolygonEntity" class="signal" id="4hI" points="2060,1140 2049,1134 2049,1145"/>
<g cb-classname="DynamicText" cb-source="TV-Lcn-Aa7y" id="4hs">
<text cb-classname="GraphicTextEntity" class="signal" fill="black" font-style="normal" font-weight="normal" id="4hn" text-anchor="end" text-decoration="normal" x="2045" y="1137"/>
</g>
</g>
<g cb-classname="ControlPin" cb-pin-name="oN-i4p-PL5" id="4h8">
<line cb-classname="GraphicLineEntity" class="signalline" id="4h1" x1="2040" x2="2060" y1="1200" y2="1200"/>
<polygon cb-classname="GraphicPolygonEntity" class="signal" id="4hk" points="2060,1200 2049,1194 2049,1205"/>
<g cb-classname="DynamicText" cb-source="xu-VPL-nY7i" id="4hp">
<text cb-classname="GraphicTextEntity" class="signal" fill="black" font-style="normal" font-weight="normal" id="4hu" text-anchor="end" text-decoration="normal" x="2045" y="1197"/>
</g>
</g>
</g>
<g cb-alg-lER="$453$cb-alg-out$" cb-alg-lEr="$383$cb-alg-out$" cb-algorithm-id="040" cb-classname="FastBooleanAlgorithm" cb-function-name="OR" cb-macro-out="RAI" cb-modify-id="1" id="4h9">
<ellipse cb-classname="GraphicEllipseEntity" class="algorithm" cx="2320" cy="990" id="4h3" rx="30" ry="30"/>
<line cb-classname="GraphicLineEntity" class="algorithm" id="4cI" x1="2290" x2="2290" y1="950" y2="1030"/>
<text baseline-shift="-50%" cb-classname="GraphicTextEntity" class="algorithm" fill="#000000" font-family="MS Shell Dlg" font-size="18" id="4cs" text-anchor="middle" x="2319" y="986">
OR
</text>
<g cb-classname="ControlPin" cb-pin-name="J0-5u1-HQm" id="4cn">
<line cb-classname="GraphicLineEntity" class="signalline" id="4c8" x1="2270" x2="2290" y1="970" y2="970"/>
<polygon cb-classname="GraphicPolygonEntity" class="signal" id="4c1" points="2290,970 2279,964 2279,975"/>
<g cb-classname="DynamicText" cb-source="PH-BHQ-EOal" id="4ck">
<text cb-classname="GraphicTextEntity" class="signal" fill="black" font-style="normal" font-weight="normal" id="4cp" text-anchor="end" text-decoration="normal" x="2275" y="967"/>
</g>
</g>
<g cb-classname="ControlPin" cb-pin-name="Tw-FZG-BPv" id="4cu">
<line cb-classname="GraphicLineEntity" class="signalline" id="4c9" x1="2350" x2="2370" y1="990" y2="990"/>
<g cb-classname="DynamicText" cb-source="xu-VPL-nY7i" id="4c3">
<text cb-classname="GraphicTextEntity" class="signal" fill="black" font-style="normal" font-weight="normal" id="4kI" text-anchor="start" text-decoration="normal" x="2364" y="987"/>
</g>
<g cb-classname="SignalSegment" id="5cu">
<g cb-classname="SignalConnection" cb-graphic-line="$590$" cb-input-pin="$o8A$" id="5ks"/>
<line cb-classname="GraphicLineEntity" class="signalline" id="5kI" stroke="#1e12bf" stroke-dasharray="5,4" x1="2370" x2="2750" y1="990" y2="990"/>
</g>
</g>
<g cb-classname="ControlPin" cb-pin-name="7D-Mqm-BEG" id="4ks">
<line cb-classname="GraphicLineEntity" class="signalline" id="4kn" x1="2270" x2="2290" y1="1010" y2="1010"/>
<polygon cb-classname="GraphicPolygonEntity" class="signal" id="4k8" points="2290,1010 2279,1004 2279,1015"/>
<g cb-classname="DynamicText" cb-source="cR-XT1-FiMs" id="4k1">
<text cb-classname="GraphicTextEntity" class="signal" fill="black" font-style="normal" font-weight="normal" id="4kk" text-anchor="end" text-decoration="normal" x="2275" y="1007"/>
</g>
</g>
<g cb-classname="ControlPin" cb-pin-name="Zr-lYv-BA8" id="4kp">
<line cb-classname="GraphicLineEntity" class="signalline" id="4ku" x1="2270" x2="2290" y1="990" y2="990"/>
<polygon cb-classname="GraphicPolygonEntity" class="signal" id="4k9" points="2290,990 2279,984 2279,995"/>
<g cb-classname="DynamicText" cb-source="oN-mBA-5MpK" id="4k3">
<text cb-classname="GraphicTextEntity" class="signal" id="5wI" text-anchor="end" x="2275" y="987"/>
</g>
</g>
</g>
<g cb-alg-4Gnk="RAI" cb-alg-9fvP="RAISING INHIBIT" cb-alg-gc="$478$cb-alg-out$" cb-algorithm-id="007" cb-classname="ExternalPointInterface" cb-function-name="OUTPUT" cb-modify-id="1" id="5vI">
<ellipse cb-classname="GraphicEllipseEntity" class="algorithm" cx="2810" cy="990" id="5vs" rx="40" ry="40"/>
<g cb-classname="DynamicText" cb-labeled="false" cb-pin-name="Wf" cb-source="TV-40O-hk06" class="algorithm" id="5vn" text-anchor="end">
<text baseline-shift="-50%" cb-classname="GraphicTextEntity" class="algorithm" fill="black" font-family="Arial" font-size="20" font-style="normal" font-weight="normal" id="5v8" text-anchor="start" text-decoration="normal" x="2867" y="987"/>
</g>
<g cb-classname="ControlPin" cb-pin-name="oN-i4p-PL" id="5v1">
<line cb-classname="GraphicLineEntity" class="signalline" id="5vk" x1="2750" x2="2770" y1="990" y2="990"/>
<polygon cb-classname="GraphicPolygonEntity" class="signal" id="5vp" points="2770,990 2759,984 2759,995"/>
</g>
<g cb-classname="DynamicText" cb-labeled="false" cb-source="xu-atJ-nY7i" id="5vu">
<text baseline-shift="-50%" cb-classname="GraphicTextEntity" class="algorithm" id="5v9" text-anchor="middle" x="2810" y="990"/>
</g>
</g>
<g cb-alg-cn5="$341$cb-alg-out$" cb-alg-cnv="$274$cb-alg-out$" cb-algorithm-id="046" cb-classname="FastBooleanAlgorithm" cb-function-name="AND" cb-modify-id="1" id="5ws">
<rect cb-classname="GraphicRectangleEntity" class="algorithm" height="60" id="5wn" width="60" x="2060" y="1240"/>
<line cb-classname="GraphicLineEntity" class="algorithm" id="5w8" x1="2060" x2="2060" y1="1230" y2="1310"/>
<g cb-classname="ControlPin" cb-pin-name="7D-Mqm-yoj" id="5w1">
<line cb-classname="GraphicLineEntity" class="signalline" id="5wk" x1="2120" x2="2140" y1="1270" y2="1270"/>
<g cb-classname="DynamicText" cb-source="2s-MCr-1PD0" id="5wp">
<text cb-classname="GraphicTextEntity" class="signal" fill="black" font-style="normal" font-weight="normal" id="5wu" text-anchor="start" text-decoration="normal" x="2134" y="1267"/>
</g>
<g cb-classname="SignalSegment" id="5w9">
<line cb-classname="GraphicLineEntity" class="signalline" id="5w3" stroke="#1e12bf" stroke-dasharray="5,4" x1="2140" x2="2270" y1="1270" y2="1270"/>
<g cb-classname="SignalConnection" cb-graphic-line="$509$" cb-input-pin="$QeX$" id="5AI"/>
</g>
</g>
<text baseline-shift="-50%" cb-classname="GraphicTextEntity" class="algorithm" fill="#000000" font-family="MS Shell Dlg" id="5As" text-anchor="middle" x="2090" y="1265">
AND
</text>
<g cb-classname="ControlPin" cb-pin-name="oN-i4p-PL0" id="5An">
<line cb-classname="GraphicLineEntity" class="signalline" id="5A8" x1="2040" x2="2060" y1="1240" y2="1240"/>
<polygon cb-classname="GraphicPolygonEntity" class="signal" id="5A1" points="2060,1240 2049,1234 2049,1245"/>
<g cb-classname="DynamicText" cb-source="xu-VPL-nY7i" id="5Ak">
<text cb-classname="GraphicTextEntity" class="signal" fill="black" font-style="normal" font-weight="normal" id="5Ap" text-anchor="end" text-decoration="normal" x="2045" y="1237"/>
</g>
</g>
<g cb-classname="ControlPin" cb-pin-name="7D-Mqm-BEG" id="5Au">
<line cb-classname="GraphicLineEntity" class="signalline" id="5A9" x1="2040" x2="2060" y1="1300" y2="1300"/>
<polygon cb-classname="GraphicPolygonEntity" class="signal" id="5A3" points="2060,1300 2049,1294 2049,1305"/>
<g cb-classname="DynamicText" cb-source="cR-XT1-FiMs" id="5II">
<text cb-classname="GraphicTextEntity" class="signal" fill="black" font-style="normal" font-weight="normal" id="5Is" text-anchor="end" text-decoration="normal" x="2045" y="1297"/>
</g>
</g>
</g>
<g cb-alg-geF="$501$cb-alg-out$" cb-alg-geW="$428$cb-alg-out$" cb-algorithm-id="045" cb-classname="FastBooleanAlgorithm" cb-function-name="OR" cb-macro-out="LWI" cb-modify-id="1" id="5In">
<ellipse cb-classname="GraphicEllipseEntity" class="algorithm" cx="2320" cy="1250" id="5I8" rx="30" ry="30"/>
<line cb-classname="GraphicLineEntity" class="algorithm" id="5I1" x1="2290" x2="2290" y1="1210" y2="1290"/>
<text baseline-shift="-50%" cb-classname="GraphicTextEntity" class="algorithm" fill="#000000" font-family="MS Shell Dlg" font-size="18" id="5Ik" text-anchor="middle" x="2319" y="1246">
OR
</text>
<g cb-classname="ControlPin" cb-pin-name="Tw-FZG-V2B" id="5Ip">
<line cb-classname="GraphicLineEntity" class="signalline" id="5Iu" x1="2270" x2="2290" y1="1230" y2="1230"/>
<polygon cb-classname="GraphicPolygonEntity" class="signal" id="5I9" points="2290,1230 2279,1224 2279,1235"/>
<g cb-classname="DynamicText" cb-source="Di-bV2-stgN" id="5I3">
<text cb-classname="GraphicTextEntity" class="signal" fill="black" font-style="normal" font-weight="normal" id="5WI" text-anchor="end" text-decoration="normal" x="2275" y="1227"/>
</g>
</g>
<g cb-classname="ControlPin" cb-pin-name="Pg-ZPq-Yug" id="5Ws">
<line cb-classname="GraphicLineEntity" class="signalline" id="5Wn" x1="2350" x2="2370" y1="1250" y2="1250"/>
<g cb-classname="DynamicText" cb-source="cR-XT1-FiMs" id="5W8">
<text cb-classname="GraphicTextEntity" class="signal" fill="black" font-style="normal" font-weight="normal" id="5W1" text-anchor="start" text-decoration="normal" x="2364" y="1247"/>
</g>
<g cb-classname="SignalSegment" id="5kn">
<g cb-classname="SignalConnection" cb-graphic-line="$595$" cb-input-pin="$Ymk$" id="5kp"/>
<line cb-classname="GraphicLineEntity" class="signalline" id="5kk" stroke="#1e12bf" stroke-dasharray="5,4" x1="2370" x2="2750" y1="1250" y2="1250"/>
</g>
</g>
<g cb-classname="ControlPin" cb-pin-name="Zr-lYv-BA5" id="5Wk">
<line cb-classname="GraphicLineEntity" class="signalline" id="5Wp" x1="2270" x2="2290" y1="1270" y2="1270"/>
<polygon cb-classname="GraphicPolygonEntity" class="signal" id="5Wu" points="2290,1270 2279,1264 2279,1275"/>
<g cb-classname="DynamicText" cb-source="oN-mBA-5MpK" id="5W9">
<text cb-classname="GraphicTextEntity" class="signal" fill="black" font-style="normal" font-weight="normal" id="5W3" text-anchor="end" text-decoration="normal" x="2275" y="1267"/>
</g>
</g>
<g cb-classname="ControlPin" cb-pin-name="kP-eHV-Vna" id="5NI">
<line cb-classname="GraphicLineEntity" class="signalline" id="5Ns" x1="2270" x2="2290" y1="1250" y2="1250"/>
<polygon cb-classname="GraphicPolygonEntity" class="signal" id="5Nn" points="2290,1250 2279,1244 2279,1255"/>
<g cb-classname="DynamicText" cb-source="7D-DVn-rLmn" id="5N8">
<text cb-classname="GraphicTextEntity" class="signal" id="5N1" text-anchor="end" x="2275" y="1247"/>
</g>
</g>
</g>
<g cb-alg-Aa7y="LWI" cb-alg-hk06="LOWER INHIBIT" cb-alg-lE="$522$cb-alg-out$" cb-algorithm-id="008" cb-classname="ExternalPointInterface" cb-function-name="OUTPUT" cb-modify-id="1" id="5v3">
<ellipse cb-classname="GraphicEllipseEntity" class="algorithm" cx="2810" cy="1250" id="5hI" rx="40" ry="40"/>
<g cb-classname="DynamicText" cb-labeled="false" cb-pin-name="So" cb-source="2s-wuu-MnsH" class="algorithm" id="5hs" text-anchor="end">
<text baseline-shift="-50%" cb-classname="GraphicTextEntity" class="algorithm" fill="black" font-family="Arial" font-size="20" font-style="normal" font-weight="normal" id="5hn" text-anchor="start" text-decoration="normal" x="2867" y="1247"/>
</g>
<g cb-classname="ControlPin" cb-pin-name="J0-5u1-HQ" id="5h8">
<line cb-classname="GraphicLineEntity" class="signalline" id="5h1" x1="2750" x2="2770" y1="1250" y2="1250"/>
<polygon cb-classname="GraphicPolygonEntity" class="signal" id="5hk" points="2770,1250 2759,1244 2759,1255"/>
</g>
<g cb-classname="DynamicText" cb-labeled="false" cb-source="PH-tqX-EOal" id="5hp">
<text baseline-shift="-50%" cb-classname="GraphicTextEntity" class="algorithm" id="5hu" text-anchor="middle" x="2810" y="1250"/>
</g>
</g>
<g cb-alg-HQE="$196$cb-alg-outa$" cb-alg-HQK="$602$cb-alg-out$" cb-alg-HQm="$196$cb-alg-outa$" cb-algorithm-id="034" cb-classname="FastBooleanAlgorithm" cb-function-name="OR" cb-macro-in3="DSBL" cb-macro-out="TRK" cb-modify-id="1" id="3wu">
<ellipse cb-classname="GraphicEllipseEntity" class="algorithm" cx="1770" cy="1340" id="3w9" rx="30" ry="30"/>
<line cb-classname="GraphicLineEntity" class="algorithm" id="3w3" x1="1740" x2="1740" y1="1300" y2="1380"/>
<text baseline-shift="-50%" cb-classname="GraphicTextEntity" class="algorithm" fill="#000000" font-family="MS Shell Dlg" font-size="18" id="3AI" text-anchor="middle" x="1769" y="1336">
OR
</text>
<g cb-classname="ControlPin" cb-pin-name="2s-wuu-25U" id="3As">
<line cb-classname="GraphicLineEntity" class="signalline" id="3An" x1="1720" x2="1740" y1="1320" y2="1320"/>
<polygon cb-classname="GraphicPolygonEntity" class="signal" id="3A8" points="1740,1320 1729,1314 1729,1325"/>
<g cb-classname="DynamicText" cb-source="Zr-DyF-QeXn" id="3A1">
<text cb-classname="GraphicTextEntity" class="signal" fill="black" font-style="normal" font-weight="normal" id="3Ak" text-anchor="end" text-decoration="normal" x="1725" y="1317"/>
</g>
</g>
<g cb-classname="ControlPin" cb-pin-name="PH-tqX-o4H" id="3Ap">
<line cb-classname="GraphicLineEntity" class="signalline" id="3Au" x1="1800" x2="1820" y1="1340" y2="1340"/>
<g cb-classname="DynamicText" cb-source="Tw-6lE-LZ5v" id="3A9">
<text cb-classname="GraphicTextEntity" class="signal" fill="black" font-style="normal" font-weight="normal" id="3A3" text-anchor="start" text-decoration="normal" x="1814" y="1337"/>
</g>
<g cb-classname="SignalSegment" id="5ku">
<g cb-classname="SignalConnection" cb-graphic-line="$600$" cb-input-pin="$QRs$" id="6ws"/>
<line cb-classname="GraphicLineEntity" class="signalline" id="6wI" stroke="#1e12bf" stroke-dasharray="5,4" x1="1820" x2="2750" y1="1340" y2="1340"/>
</g>
</g>
<g cb-classname="ControlPin" cb-pin-name="xu-atJ-fsS" id="3II">
<line cb-classname="GraphicLineEntity" class="signalline" id="3Is" x1="1720" x2="1740" y1="1360" y2="1360"/>
<polygon cb-classname="GraphicPolygonEntity" class="signal" id="3In" points="1740,1360 1729,1354 1729,1365"/>
<g cb-classname="DynamicText" cb-source="Pg-zfs-EfGw" id="3I8">
<text cb-classname="GraphicTextEntity" class="signal" fill="black" font-style="normal" font-weight="normal" id="3I1" text-anchor="end" text-decoration="normal" x="1725" y="1357"/>
</g>
</g>
<g cb-classname="ControlPin" cb-pin-name="cR-dqq-cnT" id="3Ik">
<line cb-classname="GraphicLineEntity" class="signalline" id="3Ip" x1="1720" x2="1740" y1="1340" y2="1340"/>
<polygon cb-classname="GraphicPolygonEntity" class="signal" id="3Iu" points="1740,1340 1729,1334 1729,1345"/>
<g cb-classname="DynamicText" cb-source="TV-Lcn-Aa7y" id="3I9">
<text cb-classname="GraphicTextEntity" class="signal" id="3I3" text-anchor="end" x="1725" y="1337"/>
</g>
</g>
</g>
<g cb-alg-OUND="IN TRACKING" cb-alg-Ztzd="TRK" cb-alg-yF="$307$cb-alg-out$" cb-algorithm-id="009" cb-classname="ExternalPointInterface" cb-function-name="OUTPUT" cb-modify-id="1" id="5h9">
<ellipse cb-classname="GraphicEllipseEntity" class="algorithm" cx="2810" cy="1340" id="5h3" rx="40" ry="40"/>
<g cb-classname="DynamicText" cb-labeled="false" cb-pin-name="j7" cb-source="xu-atJ-kvlC" class="algorithm" id="5cI" text-anchor="end">
<text baseline-shift="-50%" cb-classname="GraphicTextEntity" class="algorithm" fill="black" font-family="Arial" font-size="20" font-style="normal" font-weight="normal" id="5cs" text-anchor="start" text-decoration="normal" x="2867" y="1337"/>
</g>
<g cb-classname="ControlPin" cb-pin-name="7D-Mqm-BE" id="5cn">
<line cb-classname="GraphicLineEntity" class="signalline" id="5c8" x1="2750" x2="2770" y1="1340" y2="1340"/>
<polygon cb-classname="GraphicPolygonEntity" class="signal" id="5c1" points="2770,1340 2759,1334 2759,1345"/>
</g>
<g cb-classname="DynamicText" cb-labeled="false" cb-source="cR-dqq-FiMs" id="5ck">
<text baseline-shift="-50%" cb-classname="GraphicTextEntity" class="algorithm" id="5cp" text-anchor="middle" x="2810" y="1340"/>
</g>
</g>
</g>
<g cb-classname="IncludeDocument" cb-modify-time="03/12/2018 11:07:58" cb-objectname="frame" id="5">
<text cb-classname="GraphicTextEntity" class="frame" font-size="50" id="7kn" x="3660" y="3146">
Project Title &lt;Edit in FRAME.SVG&gt;
</text>
<g baseline-shift="-50%" cb-classname="DynamicText" cb-source="cR-893L-Hf" class="frame" id="7k8">
<text cb-classname="GraphicTextEntity" class="frame" fill="black" font-family="arial" font-size="25" font-style="normal" font-weight="normal" id="7k1" text-decoration="normal" x="4715" y="3325">

</text>
</g>
<g baseline-shift="-50%" cb-classname="DynamicText" cb-source="Zr-y7jm-lq" class="frame" id="7kk" text-anchor="middle">
<text cb-classname="GraphicTextEntity" class="frame" fill="black" font-family="arial" font-size="48" font-style="normal" font-weight="normal" id="7kp" text-anchor="middle" text-decoration="normal" x="4900" y="3320">

</text>
</g>
<g baseline-shift="-50%" cb-classname="DynamicText" cb-source="PH-riRM-PX" class="frame" id="7ku" text-anchor="middle">
<text cb-classname="GraphicTextEntity" class="frame" fill="black" font-family="arial" font-size="48" font-style="normal" font-weight="normal" id="7k9" text-anchor="middle" text-decoration="normal" x="5067" y="3324">

</text>
</g>
<g cb-classname="DynamicText" cb-source="Tw-R6knH-vCdQN" class="frame" id="7k3">
<text cb-classname="GraphicTextEntity" class="frame" fill="black" font-family="arial" font-size="48" font-style="normal" font-weight="normal" id="8wI" text-decoration="normal" x="3660" y="3224">
ENERO: SM - Single device status checking
</text>
</g>
<g baseline-shift="-50%" cb-classname="DynamicText" cb-source="xu-xmylv-romTwg" class="frame" id="8ws" text-anchor="middle">
<text cb-classname="GraphicTextEntity" class="frame" fill="black" font-family="arial" font-size="48" font-style="normal" font-weight="normal" id="8wn" text-anchor="middle" text-decoration="normal" x="5270" y="3324">

</text>
</g>
<g baseline-shift="0%" cb-classname="DynamicText" cb-source="7D-3lHClaJ5" class="frame" id="8w8" text-anchor="middle">
<text cb-classname="GraphicTextEntity" class="frame" fill="black" font-family="arial" font-size="36" font-style="normal" font-weight="normal" id="8w1" text-anchor="middle" text-decoration="normal" x="5270" y="3150">
A
</text>
</g>
<g baseline-shift="0%" cb-classname="DynamicText" cb-source="2s-JviaXWFd-l3b8" class="frame" id="8wk" text-anchor="middle">
<text cb-classname="GraphicTextEntity" class="frame" fill="black" font-family="arial" font-size="20" font-style="normal" font-weight="normal" id="8wp" text-anchor="middle" text-decoration="normal" x="5270" y="3230">

</text>
</g>
<g baseline-shift="-50%" cb-classname="DynamicText" cb-source="J0-k11cndsU" class="frame" id="8wu" text-anchor="end">
<text cb-classname="GraphicTextEntity" class="frame" fill="black" font-family="arial" font-size="26" font-style="normal" font-weight="normal" id="8w9" text-anchor="end" text-decoration="normal" x="4500" y="3420">

</text>
</g>
<g baseline-shift="-50%" cb-classname="DynamicText" cb-source="TV-7UoBsdn3" class="frame" id="8w3" text-anchor="end">
<text cb-classname="GraphicTextEntity" class="frame" fill="black" font-family="arial" font-size="26" font-style="normal" font-weight="normal" id="8AI" text-anchor="end" text-decoration="normal" x="5353" y="3420">

</text>
</g>
<g cb-classname="GraphicShape" cb-tag="BORDER" id="8As">
<line cb-classname="GraphicLineEntity" class="frameline" id="8An" x1="40" x2="40" y1="40" y2="3460"/>
<line cb-classname="GraphicLineEntity" class="frameline" id="8A8" x1="40" x2="5380" y1="3460" y2="3460"/>
<line cb-classname="GraphicLineEntity" class="frameline" id="8A1" x1="5380" x2="5380" y1="3460" y2="40"/>
<line cb-classname="GraphicLineEntity" class="frameline" id="8Ak" x1="5380" x2="40" y1="40" y2="40"/>
<line cb-classname="GraphicLineEntity" class="frame" id="8Ap" x1="5430" x2="5440" y1="3510" y2="3510"/>
</g>
<g cb-classname="GraphicShape" cb-tag="TITLE BOX" id="8Au">
<line cb-classname="GraphicLineEntity" class="frameline" id="8A9" x1="2340" x2="2340" y1="3080" y2="3460"/>
<line cb-classname="GraphicLineEntity" class="frameline" id="8A3" x1="2340" x2="5380" y1="3080" y2="3080"/>
<line cb-classname="GraphicLineEntity" class="frameline" id="8II" x1="3650" x2="3650" y1="3460" y2="3080"/>
<line cb-classname="GraphicLineEntity" class="frameline" id="8Is" x1="3650" x2="5380" y1="3240" y2="3240"/>
<line cb-classname="GraphicLineEntity" class="frameline" id="8In" x1="3650" x2="5380" y1="3390" y2="3390"/>
<line cb-classname="GraphicLineEntity" class="frameline" id="8I8" x1="3650" x2="5380" y1="3160" y2="3160"/>
<line cb-classname="GraphicLineEntity" class="frameline" id="8I1" x1="3650" x2="4520" y1="3320" y2="3320"/>
<line cb-classname="GraphicLineEntity" class="frameline" id="8Ik" x1="4520" x2="5380" y1="3290" y2="3290"/>
<line cb-classname="GraphicLineEntity" class="frameline" id="8Ip" x1="4520" x2="5380" y1="3240" y2="3240"/>
<line cb-classname="GraphicLineEntity" class="frameline" id="8Iu" x1="4520" x2="4520" y1="3240" y2="3460"/>
<line cb-classname="GraphicLineEntity" class="frameline" id="8I9" x1="4810" x2="4810" y1="3240" y2="3390"/>
<line cb-classname="GraphicLineEntity" class="frameline" id="8I3" x1="4990" x2="4990" y1="3240" y2="3390"/>
<line cb-classname="GraphicLineEntity" class="frameline" id="8WI" x1="5150" x2="5150" y1="3080" y2="3390"/>
</g>
<g cb-classname="GraphicShape" cb-tag="TEXT LABELS" id="8Ws">
<text baseline-shift="-50%" cb-classname="GraphicTextEntity" class="frame" font-size="25" id="8Wn" text-anchor="middle" x="4890" y="3252">
Drop
</text>
<text baseline-shift="-50%" cb-classname="GraphicTextEntity" class="frame" font-size="25" id="8W8" text-anchor="middle" x="5075" y="3252">
Task
</text>
<text baseline-shift="-50%" cb-classname="GraphicTextEntity" class="frame" font-size="25" id="8W1" text-anchor="middle" x="5265" y="3252">
Sheet
</text>
<text cb-classname="GraphicTextEntity" class="frame" font-size="25" id="8Wk" x="5152" y="3107">
Rev.
</text>
<text cb-classname="GraphicTextEntity" class="frame" font-size="25" id="8Wp" x="3653" y="3418">
Engineer
</text>
<text cb-classname="GraphicTextEntity" class="frame" font-size="25" id="8Wu" x="4528" y="3419">
Approved
</text>
<text cb-classname="GraphicTextEntity" class="frame" font-size="25" id="8W9" x="5152" y="3187">
Date
</text>
<text baseline-shift="-50%" cb-classname="GraphicTextEntity" class="frame" font-size="25" id="8W3" text-anchor="middle" x="4660" y="3252">
Drawing Number
</text>
<text baseline-shift="-50%" cb-classname="GraphicTextEntity" class="frame" font-size="25" id="8NI" text-anchor="middle" x="4680" y="3325">
CTL
</text>
</g>
<text baseline-shift="-50%" cb-classname="GraphicTextEntity" class="frame" font-size="48" id="8Ns" text-anchor="middle" x="3000" y="3100">
EMERSON PROCESS MANAGEMENT
</text>
<g baseline-shift="-100%" cb-anchor-x="2360" cb-anchor-y="3140" cb-classname="GroupText" cb-max-width="1260" fill="black" id="8Nn">
<text baseline-shift="-100%" cb-classname="GraphicTextEntity" class="frame" fill="black" font-family="arial" font-size="22" font-weight="normal" id="8N8" text-anchor="start" text-decoration="normal" x="2360" y="3140">
THIS DOCUMENT CONTAINS INFORMATION PROPRIETARY TO EMERSON PROCESS
</text>
<text baseline-shift="-100%" cb-classname="GraphicTextEntity" class="frame" fill="black" font-family="arial" font-size="22" font-weight="normal" id="8N1" text-anchor="start" text-decoration="normal" x="2360" y="3176">
MANAGEMENT POWER &amp; WATER SOLUTIONS, INC. IT IS SUBMITTED IN CONFIDENCE AND
</text>
<text baseline-shift="-100%" cb-classname="GraphicTextEntity" class="frame" fill="black" font-family="arial" font-size="22" font-weight="normal" id="8Nk" text-anchor="start" text-decoration="normal" x="2360" y="3212">
TRUST, IS TO BE USED BY YOU SOLELY FOR THE PURPOSES FOR WHICH IT IS
</text>
<text baseline-shift="-100%" cb-classname="GraphicTextEntity" class="frame" fill="black" font-family="arial" font-size="22" font-weight="normal" id="8Np" text-anchor="start" text-decoration="normal" x="2360" y="3248">
FURNISHED AND IS TO BE RETURNED UPON REQUEST. THIS DOCUMENT AND ANY
</text>
<text baseline-shift="-100%" cb-classname="GraphicTextEntity" class="frame" fill="black" font-family="arial" font-size="22" font-weight="normal" id="8Nu" text-anchor="start" text-decoration="normal" x="2360" y="3284">
OTHER INFORMATION PROVIDED TO YOU IS NOT TO BE REPRODUCED, TRANSMITTED,
</text>
<text baseline-shift="-100%" cb-classname="GraphicTextEntity" class="frame" fill="black" font-family="arial" font-size="22" font-weight="normal" id="8N9" text-anchor="start" text-decoration="normal" x="2360" y="3320">
DISCLOSED, OR USED OTHERWISE IN WHOLE OR IN PART WITHOUT THE PRIOR
</text>
<text baseline-shift="-100%" cb-classname="GraphicTextEntity" class="frame" fill="black" font-family="arial" font-size="22" font-weight="normal" id="8N3" text-anchor="start" text-decoration="normal" x="2360" y="3356">
WRITTEN AUTHORIZATION OF EMERSON PROCESS MANAGEMENT POWER &amp; WATER
</text>
<text baseline-shift="-100%" cb-classname="GraphicTextEntity" class="frame" fill="black" font-family="arial" font-size="22" font-weight="normal" id="8BI" text-anchor="start" text-decoration="normal" x="2360" y="3392">
SOLUTIONS,INC.
</text>
</g>
</g>
</svg>