<?xml version="1.0" ?><svg cb-classname="ControlMacro" cb-create-time="02/23/2011" cb-filename="Z:\OVATION\ControlMacros\VALVE_C.svg" cb-function-id="0000" cb-key="112342443321" cb-macro-crc="25998" cb-modify-id="3" cb-ortho-mode="enabled" cb-path="Z:/OVATION/ControlMacros" cb-revision="A" cb-sheet-title="VALVE_C" cb-snap-grid="10" height="3605" id="1" width="5450" xmlns="http://www.w3.org/2000/svg">
<style cb-classname="EntityStyle" id="2" type="text/css">
	.algorithm { fill: white; stroke: black; stroke-width: 3 }
	.algorithm-function { fill: black; stroke: none }
	.algorithm-functionline { fill: none; stroke: black; stroke-linecap: round; stroke-width: 3 }
	.algorithm-name { fill: black; stroke: none }
	.algorithm-nameline { fill: none; stroke: black; stroke-linecap: round; stroke-width: 3 }
	.algorithm-sequence { fill: black; stroke: none; visibility: hidden }
	.algorithm-sequenceline { fill: none; stroke: black; stroke-linecap: round; stroke-width: 3; visibility: hidden }
	.algorithmline { fill: none; stroke: black; stroke-linecap: round; stroke-width: 3 }
	.annotation { fill: black; stroke: none }
	.annotationline { fill: none; stroke: black; stroke-linecap: round; stroke-width: 3 }
	.frame { fill: black; stroke: none }
	.frameline { fill: none; stroke: black; stroke-linecap: round; stroke-width: 3 }
	.signal { fill: black; stroke: none }
	.signalline { fill: none; stroke: black; stroke-linecap: round; stroke-width: 3 }
	text.algorithm { fill: black; font-family: Arial; font-size: 22; stroke: none }
	text.algorithm-function { fill: black; font-family: Arial; font-size: 22; stroke: none }
	text.algorithm-name { fill: black; font-family: Arial; font-size: 22; stroke: none }
	text.algorithm-sequence { fill: black; font-family: Arial; font-size: 22; stroke: none; visibility: hidden }
	text.annotation { fill: black; font-family: Arial; font-size: 22; stroke: none }
	text.frame { fill: black; font-family: Arial; font-size: 18; stroke: none }
	text.signal { fill: black; font-family: Arial; font-size: 12; stroke: none }
</style>
<g cb-classname="NamedObject" cb-objectname="Comments" id="3">
<rect cb-classname="GraphicRectangleEntity" class="annotation" height="0" id="7hs" width="0" x="2520" y="2050"/>
</g>
<g cb-classname="AlgorithmContainer" cb-objectname="Algorithms" id="4">
<g cb-alg-14he="FBLR" cb-alg-37cO="NO" cb-alg-yQ9x="OPEN LIMIT SWITCH" cb-algorithm-id="002" cb-classname="ExternalPointInterface" cb-function-name="INPUT" cb-modify-id="1" id="4Is">
<ellipse cb-classname="GraphicEllipseEntity" class="algorithm" cx="920" cy="1320" id="4In" rx="40" ry="40"/>
<rect cb-classname="GraphicRectangleEntity" class="algorithm" height="80" id="4I8" width="30" x="850" y="1280"/>
<line cb-classname="GraphicLineEntity" class="algorithm" id="4I1" x1="850" x2="880" y1="1320" y2="1320"/>
<g cb-classname="PointStatusIndicator" cb-indicator-type="Highway" cb-source="Di-O4f-xQU" id="4Ik">
<line cb-classname="GraphicLineEntity" class="algorithmline" id="4Ip" x1="880" x2="920" y1="1320" y2="1280"/>
<line cb-classname="GraphicLineEntity" class="algorithmline" id="4Iu" x1="920" x2="960" y1="1280" y2="1320"/>
<line cb-classname="GraphicLineEntity" class="algorithmline" id="4I9" x1="960" x2="920" y1="1320" y2="1360"/>
<line cb-classname="GraphicLineEntity" class="algorithmline" id="4I3" x1="920" x2="880" y1="1360" y2="1320"/>
</g>
<g cb-classname="PointStatusIndicator" cb-indicator-type="hardware" cb-source="J0-5u1-YZc" id="4WI">
<line cb-classname="GraphicLineEntity" class="algorithmline" id="4Ws" x1="880" x2="960" y1="1280" y2="1280"/>
<line cb-classname="GraphicLineEntity" class="algorithmline" id="4Wn" x1="960" x2="960" y1="1280" y2="1360"/>
<line cb-classname="GraphicLineEntity" class="algorithmline" id="4W8" x1="960" x2="880" y1="1360" y2="1360"/>
</g>
<g cb-classname="PointStatusIndicator" cb-indicator-type="alarm" cb-source="oN-i4p-eqK" id="4W1">
<text cb-classname="GraphicTextEntity" class="algorithm" fill="#000000" font-family="arial" font-size="20" id="4Wk" x="857" y="1309">
A
</text>
</g>
<g cb-classname="PointStatusIndicator" cb-indicator-type="ingraphic" cb-source="kP-eHV-NuV" id="4Wp">
<text cb-classname="GraphicTextEntity" class="algorithm" fill="#000000" font-family="Arial" font-size="20" id="4Wu" x="855" y="1349">
G
</text>
</g>
<g baseline-shift="-50%" cb-anchor-x="832" cb-anchor-y="1314" cb-classname="PointDescription" cb-content="extended" cb-labeled="false" cb-max-width="240" cb-source="Di-O4f-xQU" class="algorithm" id="4W9" text-anchor="end">
<text baseline-shift="-50%" cb-classname="GraphicTextEntity" class="algorithm" id="4W3" text-anchor="end" x="832" y="1279">
DESC: Name Not
</text>
<text baseline-shift="-50%" cb-classname="GraphicTextEntity" class="algorithm" id="4NI" text-anchor="end" x="832" y="1315">
Defined
</text>
<text baseline-shift="-50%" cb-classname="GraphicTextEntity" class="algorithm" id="4Ns" text-anchor="end" x="832" y="1351">
(cb-alg-out)
</text>
</g>
<g cb-classname="DynamicText" cb-labeled="false" cb-pin-name="Ord" cb-source="cR-dqq-j4U" class="algorithm" id="4Nn" text-anchor="start">
<text baseline-shift="0%" cb-classname="GraphicTextEntity" class="algorithm" fill="black" font-family="Arial" font-size="20" font-style="normal" font-weight="normal" id="4N8" text-anchor="start" text-decoration="normal" x="980" y="1300"/>
</g>
<g baseline-shift="-100%" cb-anchor-x="980" cb-anchor-y="1330" cb-classname="PointReferences" cb-max-width="230" cb-originator="true" cb-source="Zr-lYv-LHF" class="signal" id="4N1" text-anchor="start">
<text baseline-shift="-100%" cb-classname="GraphicTextEntity" class="algorithm" id="4Nk" text-anchor="start" x="980" y="1330">
REF: Not Defined
</text>
<text baseline-shift="-100%" cb-classname="GraphicTextEntity" class="algorithm" id="4Np" text-anchor="start" x="980" y="1366">
(CB-ALG-OUT)
</text>
</g>
<g cb-classname="ControlPin" cb-pin-name="kP-eHV-NuV" id="4N3">
<line cb-classname="GraphicLineEntity" class="signalline" id="4BI" x1="960" x2="980" y1="1320" y2="1320"/>
<g cb-classname="SignalSegment" id="5ck">
<g cb-classname="SignalConnection" cb-graphic-line="$588$" cb-input-pin="$eh1$" id="5c3"/>
<line cb-classname="GraphicLineEntity" class="signalline" id="5c9" stroke="#1e12bf" stroke-dasharray="5,4" x1="980" x2="1660" y1="1320" y2="1320"/>
</g>
</g>
</g>
<g cb-alg-d3ET="OPEN COMMAND" cb-alg-nXwB="CMDR" cb-alg-oVgh="NO" cb-algorithm-id="003" cb-classname="ExternalPointInterface" cb-function-name="INPUT" cb-modify-id="1" id="4cs">
<ellipse cb-classname="GraphicEllipseEntity" class="algorithm" cx="1910" cy="740" id="4cn" rx="40" ry="40"/>
<rect cb-classname="GraphicRectangleEntity" class="algorithm" height="30" id="4c8" width="80" x="1870" y="670"/>
<line cb-classname="GraphicLineEntity" class="algorithm" id="4c1" x1="1910" x2="1910" y1="700" y2="670"/>
<g cb-classname="PointStatusIndicator" cb-indicator-type="Highway" cb-source="PH-tqX-o4H" id="4ck">
<line cb-classname="GraphicLineEntity" class="algorithmline" id="4cp" x1="1910" x2="1870" y1="700" y2="740"/>
<line cb-classname="GraphicLineEntity" class="algorithmline" id="4cu" x1="1870" x2="1910" y1="740" y2="780"/>
<line cb-classname="GraphicLineEntity" class="algorithmline" id="4c9" x1="1910" x2="1950" y1="780" y2="740"/>
<line cb-classname="GraphicLineEntity" class="algorithmline" id="4c3" x1="1950" x2="1910" y1="740" y2="700"/>
</g>
<g cb-classname="PointStatusIndicator" cb-indicator-type="hardware" cb-source="Di-O4f-xQU" id="4kI">
<line cb-classname="GraphicLineEntity" class="algorithmline" id="4ks" x1="1870" x2="1870" y1="700" y2="780"/>
<line cb-classname="GraphicLineEntity" class="algorithmline" id="4kn" x1="1870" x2="1950" y1="780" y2="780"/>
<line cb-classname="GraphicLineEntity" class="algorithmline" id="4k8" x1="1950" x2="1950" y1="780" y2="700"/>
</g>
<g cb-classname="PointStatusIndicator" cb-indicator-type="alarm" cb-source="cR-dqq-j4U" id="4k1">
<text baseline-shift="-50%" cb-classname="GraphicTextEntity" class="algorithm" fill="#000000" font-family="Arial" font-size="20" id="4kk" text-anchor="middle" x="1890" y="681">
A
</text>
</g>
<g cb-classname="PointStatusIndicator" cb-indicator-type="ingraphic" cb-source="Zr-lYv-LHF" id="4kp">
<text baseline-shift="-50%" cb-classname="GraphicTextEntity" class="algorithm" fill="#000000" font-family="Arial" font-size="20" id="4ku" text-anchor="middle" x="1930" y="679">
G
</text>
</g>
<g cb-classname="DynamicText" cb-labeled="false" cb-pin-name="2Lr" cb-source="PH-tqX-o4H" class="algorithm" id="4k9" text-anchor="middle">
<text cb-classname="GraphicTextEntity" class="algorithm" fill="black" font-family="Arial" font-size="20" font-style="normal" font-weight="normal" id="4k3" text-anchor="middle" text-decoration="normal" x="1910" y="660"/>
</g>
<g baseline-shift="-100%" cb-anchor-x="1923" cb-anchor-y="793" cb-classname="PointReferences" cb-max-width="240" cb-originator="true" cb-source="Tw-FZG-BPv" class="signal" id="5wI" text-anchor="start">
<text baseline-shift="-100%" cb-classname="GraphicTextEntity" class="algorithm" id="5ws" text-anchor="start" x="1923" y="793">
REF: Not Defined
</text>
<text baseline-shift="-100%" cb-classname="GraphicTextEntity" class="algorithm" id="5wn" text-anchor="start" x="1923" y="829">
(CB-ALG-OUT)
</text>
</g>
<g baseline-shift="0%" cb-anchor-x="1910" cb-anchor-y="630" cb-classname="PointDescription" cb-content="extended" cb-labeled="false" cb-max-width="240" cb-source="Pg-ZPq-Yug" class="algorithm" id="5wk" text-anchor="middle">
<text baseline-shift="0%" cb-classname="GraphicTextEntity" class="algorithm" id="5wp" text-anchor="middle" x="1910" y="560">
DESC: Name Not
</text>
<text baseline-shift="0%" cb-classname="GraphicTextEntity" class="algorithm" id="5wu" text-anchor="middle" x="1910" y="596">
Defined
</text>
<text baseline-shift="0%" cb-classname="GraphicTextEntity" class="algorithm" id="5w9" text-anchor="middle" x="1910" y="632">
(cb-alg-out)
</text>
</g>
<g cb-classname="ControlPin" cb-pin-name="Zr-lYv-LHF" id="5w3">
<line cb-classname="GraphicLineEntity" class="signalline" id="5AI" x1="1910" x2="1910" y1="780" y2="800"/>
<g cb-classname="SignalSegment" id="5hs">
<g cb-classname="SignalSegment" id="6Ns">
<line cb-classname="GraphicLineEntity" class="signalline" id="6Nn" stroke="#1e12bf" stroke-dasharray="5,4" x1="1910" x2="2120" y1="1240" y2="1240"/>
<g cb-classname="SignalConnection" cb-graphic-line="$642$" cb-input-pin="$JlJ$" id="6N8"/>
</g>
<line cb-classname="GraphicLineEntity" class="signalline" id="6NI" stroke="#1e12bf" stroke-dasharray="5,4" x1="1910" x2="1910" y1="800" y2="1240"/>
</g>
</g>
</g>
<g cb-alg-CMKk="CLOSE COMMAND" cb-alg-Ncyv="NO" cb-alg-RlbU="CMDL" cb-algorithm-id="004" cb-classname="ExternalPointInterface" cb-function-name="INPUT" cb-modify-id="1" id="5As">
<ellipse cb-classname="GraphicEllipseEntity" class="algorithm" cx="1170" cy="740" id="5An" rx="40" ry="40"/>
<rect cb-classname="GraphicRectangleEntity" class="algorithm" height="30" id="5A8" width="80" x="1130" y="670"/>
<line cb-classname="GraphicLineEntity" class="algorithm" id="5A1" x1="1170" x2="1170" y1="700" y2="670"/>
<g cb-classname="PointStatusIndicator" cb-indicator-type="Highway" cb-source="xu-atJ-94d" id="5Ak">
<line cb-classname="GraphicLineEntity" class="algorithmline" id="5Ap" x1="1170" x2="1130" y1="700" y2="740"/>
<line cb-classname="GraphicLineEntity" class="algorithmline" id="5Au" x1="1130" x2="1170" y1="740" y2="780"/>
<line cb-classname="GraphicLineEntity" class="algorithmline" id="5A9" x1="1170" x2="1210" y1="780" y2="740"/>
<line cb-classname="GraphicLineEntity" class="algorithmline" id="5A3" x1="1210" x2="1170" y1="740" y2="700"/>
</g>
<g cb-classname="PointStatusIndicator" cb-indicator-type="hardware" cb-source="cR-dqq-j4U" id="5II">
<line cb-classname="GraphicLineEntity" class="algorithmline" id="5Is" x1="1130" x2="1130" y1="700" y2="780"/>
<line cb-classname="GraphicLineEntity" class="algorithmline" id="5In" x1="1130" x2="1210" y1="780" y2="780"/>
<line cb-classname="GraphicLineEntity" class="algorithmline" id="5I8" x1="1210" x2="1210" y1="780" y2="700"/>
</g>
<g cb-classname="PointStatusIndicator" cb-indicator-type="alarm" cb-source="PH-tqX-o4H" id="5I1">
<text baseline-shift="-50%" cb-classname="GraphicTextEntity" class="algorithm" fill="#000000" font-family="Arial" font-size="20" id="5Ik" text-anchor="middle" x="1150" y="681">
A
</text>
</g>
<g cb-classname="PointStatusIndicator" cb-indicator-type="ingraphic" cb-source="Tw-FZG-BPv" id="5Ip">
<text baseline-shift="-50%" cb-classname="GraphicTextEntity" class="algorithm" fill="#000000" font-family="Arial" font-size="20" id="5Iu" text-anchor="middle" x="1190" y="679">
G
</text>
</g>
<g cb-classname="DynamicText" cb-labeled="false" cb-pin-name="18D" cb-source="xu-atJ-94d" class="algorithm" id="5I9" text-anchor="middle">
<text cb-classname="GraphicTextEntity" class="algorithm" fill="black" font-family="Arial" font-size="20" font-style="normal" font-weight="normal" id="5I3" text-anchor="middle" text-decoration="normal" x="1170" y="660"/>
</g>
<g baseline-shift="-100%" cb-anchor-x="1183" cb-anchor-y="793" cb-classname="PointReferences" cb-max-width="240" cb-originator="true" cb-source="7D-Mqm-yoj" class="signal" id="5WI" text-anchor="start">
<text baseline-shift="-100%" cb-classname="GraphicTextEntity" class="algorithm" id="5Ws" text-anchor="start" x="1183" y="793">
REF: Not Defined
</text>
<text baseline-shift="-100%" cb-classname="GraphicTextEntity" class="algorithm" id="5Wn" text-anchor="start" x="1183" y="829">
(CB-ALG-OUT)
</text>
</g>
<g baseline-shift="0%" cb-anchor-x="1170" cb-anchor-y="630" cb-classname="PointDescription" cb-content="extended" cb-labeled="false" cb-max-width="240" cb-source="Zr-lYv-LHF" class="algorithm" id="5Wk" text-anchor="middle">
<text baseline-shift="0%" cb-classname="GraphicTextEntity" class="algorithm" id="5Wp" text-anchor="middle" x="1170" y="560">
DESC: Name Not
</text>
<text baseline-shift="0%" cb-classname="GraphicTextEntity" class="algorithm" id="5Wu" text-anchor="middle" x="1170" y="596">
Defined
</text>
<text baseline-shift="0%" cb-classname="GraphicTextEntity" class="algorithm" id="5W9" text-anchor="middle" x="1170" y="632">
(cb-alg-out)
</text>
</g>
<g cb-classname="ControlPin" cb-pin-name="Tw-FZG-BPv" id="5W3">
<line cb-classname="GraphicLineEntity" class="signalline" id="5NI" x1="1170" x2="1170" y1="780" y2="800"/>
<g cb-classname="SignalSegment" id="5hp">
<g cb-classname="SignalSegment" id="6Wk">
<line cb-classname="GraphicLineEntity" class="signalline" id="6Wp" stroke="#1e12bf" stroke-dasharray="5,4" x1="1170" x2="1515" y1="1280" y2="1280"/>
<g cb-classname="SignalConnection" cb-graphic-line="$636$" cb-input-pin="$Wsm$" id="6Wu"/>
</g>
<line cb-classname="GraphicLineEntity" class="signalline" id="6W1" stroke="#1e12bf" stroke-dasharray="5,4" x1="1170" x2="1170" y1="800" y2="1280"/>
</g>
</g>
</g>
<g cb-alg-gcC="$511$cb-alg-out$" cb-algorithm-id="011" cb-classname="FastBooleanAlgorithm" cb-function-name="NOT" cb-macro-in1="CMDL" cb-modify-id="1" id="3A8">
<rect cb-classname="GraphicRectangleEntity" class="algorithm" height="40" id="3A1" width="40" x="1535" y="1260"/>
<text baseline-shift="-50%" cb-classname="GraphicTextEntity" class="algorithm" font-size="28" id="3Ak" text-anchor="middle" x="1554" y="1272">
N
</text>
<g cb-classname="ControlPin" cb-pin-name="PH-tqX-i5d" id="3Ap">
<line cb-classname="GraphicLineEntity" class="signalline" id="3Au" x1="1515" x2="1535" y1="1280" y2="1280"/>
<polygon cb-classname="GraphicPolygonEntity" class="signal" id="3A9" points="1535,1280 1524,1276 1524,1284"/>
<g cb-classname="DynamicText" cb-source="kP-1i5-2w8D" class="signal" id="3A3" text-anchor="end">
<text baseline-shift="5%" cb-classname="GraphicTextEntity" class="signal" fill="black" font-style="normal" font-weight="normal" id="3II" text-anchor="end" text-decoration="normal" x="1530" y="1272"/>
</g>
</g>
<g cb-classname="ControlPin" cb-pin-name="Di-O4f-xQU" id="3Is">
<line cb-classname="GraphicLineEntity" class="signalline" id="3In" x1="1575" x2="1595" y1="1280" y2="1280"/>
<g cb-classname="DynamicText" cb-source="Pg-zfs-EfGw" class="signal" id="3I8">
<text baseline-shift="5%" cb-classname="GraphicTextEntity" class="signal" fill="black" font-style="normal" font-weight="normal" id="3I1" text-decoration="normal" x="1587" y="1272"/>
</g>
<g cb-classname="SignalSegment" id="3Ik">
<g cb-classname="SignalConnection" cb-graphic-line="$327$" cb-input-pin="$8aF$" id="3Ip"/>
<line cb-classname="GraphicLineEntity" class="signalline" id="3Iu" stroke="#1e12bf" stroke-dasharray="5,4" x1="1595" x2="1660" y1="1280" y2="1280"/>
</g>
</g>
</g>
<g cb-alg-14he="FBLL" cb-alg-37cO="NO" cb-alg-yQ9x="CLOSE LIMIT SWITCH" cb-algorithm-id="005" cb-classname="ExternalPointInterface" cb-function-name="INPUT" cb-modify-id="2" id="5kI">
<ellipse cb-classname="GraphicEllipseEntity" class="algorithm" cx="920" cy="2490" id="5ks" rx="40" ry="40"/>
<rect cb-classname="GraphicRectangleEntity" class="algorithm" height="80" id="5kn" width="30" x="850" y="2450"/>
<line cb-classname="GraphicLineEntity" class="algorithm" id="5k8" x1="850" x2="880" y1="2490" y2="2490"/>
<g cb-classname="PointStatusIndicator" cb-indicator-type="Highway" cb-source="Di-O4f-xQU" id="5k1">
<line cb-classname="GraphicLineEntity" class="algorithmline" id="5kk" x1="880" x2="920" y1="2490" y2="2450"/>
<line cb-classname="GraphicLineEntity" class="algorithmline" id="5kp" x1="920" x2="960" y1="2450" y2="2490"/>
<line cb-classname="GraphicLineEntity" class="algorithmline" id="5ku" x1="960" x2="920" y1="2490" y2="2530"/>
<line cb-classname="GraphicLineEntity" class="algorithmline" id="5k9" x1="920" x2="880" y1="2530" y2="2490"/>
</g>
<g cb-classname="PointStatusIndicator" cb-indicator-type="hardware" cb-source="J0-5u1-YZc" id="5k3">
<line cb-classname="GraphicLineEntity" class="algorithmline" id="6wI" x1="880" x2="960" y1="2450" y2="2450"/>
<line cb-classname="GraphicLineEntity" class="algorithmline" id="6ws" x1="960" x2="960" y1="2450" y2="2530"/>
<line cb-classname="GraphicLineEntity" class="algorithmline" id="6wn" x1="960" x2="880" y1="2530" y2="2530"/>
</g>
<g cb-classname="PointStatusIndicator" cb-indicator-type="alarm" cb-source="oN-i4p-eqK" id="6w8">
<text cb-classname="GraphicTextEntity" class="algorithm" fill="#000000" font-family="arial" font-size="20" id="6w1" x="857" y="2479">
A
</text>
</g>
<g cb-classname="PointStatusIndicator" cb-indicator-type="ingraphic" cb-source="kP-eHV-NuV" id="6wk">
<text cb-classname="GraphicTextEntity" class="algorithm" fill="#000000" font-family="Arial" font-size="20" id="6wp" x="855" y="2519">
G
</text>
</g>
<g baseline-shift="-50%" cb-anchor-x="832" cb-anchor-y="2484" cb-classname="PointDescription" cb-content="extended" cb-labeled="false" cb-max-width="240" cb-source="Di-O4f-xQU" class="algorithm" id="6wu" text-anchor="end">
<text baseline-shift="-50%" cb-classname="GraphicTextEntity" class="algorithm" id="6w9" text-anchor="end" x="832" y="2449">
DESC: Name Not
</text>
<text baseline-shift="-50%" cb-classname="GraphicTextEntity" class="algorithm" id="6w3" text-anchor="end" x="832" y="2485">
Defined
</text>
<text baseline-shift="-50%" cb-classname="GraphicTextEntity" class="algorithm" id="6AI" text-anchor="end" x="832" y="2521">
(cb-alg-out)
</text>
</g>
<g cb-classname="DynamicText" cb-labeled="false" cb-pin-name="Ord" cb-source="cR-dqq-j4U" class="algorithm" id="6As" text-anchor="start">
<text baseline-shift="0%" cb-classname="GraphicTextEntity" class="algorithm" fill="black" font-family="Arial" font-size="20" font-style="normal" font-weight="normal" id="6An" text-anchor="start" text-decoration="normal" x="980" y="2470"/>
</g>
<g baseline-shift="-100%" cb-anchor-x="980" cb-anchor-y="2500" cb-classname="PointReferences" cb-max-width="230" cb-originator="true" cb-source="Zr-lYv-LHF" class="signal" id="6A8" text-anchor="start">
<text baseline-shift="-100%" cb-classname="GraphicTextEntity" class="algorithm" id="6A1" text-anchor="start" x="980" y="2500">
REF: Not Defined
</text>
<text baseline-shift="-100%" cb-classname="GraphicTextEntity" class="algorithm" id="6Ak" text-anchor="start" x="980" y="2536">
(CB-ALG-OUT)
</text>
</g>
<g cb-classname="ControlPin" cb-pin-name="kP-eHV-NuV" id="6A9">
<line cb-classname="GraphicLineEntity" class="signalline" id="6A3" x1="960" x2="980" y1="2490" y2="2490"/>
<g cb-classname="SignalSegment" id="7Wn">
<line cb-classname="GraphicLineEntity" class="signalline" id="7W3" stroke="#1e12bf" stroke-dasharray="5,4" x1="980" x2="2080" y1="2490" y2="2490"/>
<g cb-classname="SignalConnection" cb-graphic-line="$739$" cb-input-pin="$m5d$" id="7NI"/>
</g>
</g>
</g>
<g cb-alg-FiMs="CMDS" cb-alg-XeR7="STOP COMMAND" cb-alg-jgBp="NO" cb-algorithm-id="006" cb-classname="ExternalPointInterface" cb-function-name="INPUT" cb-modify-id="2" id="6N1">
<ellipse cb-classname="GraphicEllipseEntity" class="algorithm" cx="1610" cy="2090" id="6Nk" rx="40" ry="40"/>
<rect cb-classname="GraphicRectangleEntity" class="algorithm" height="30" id="6Np" width="80" x="1570" y="2020"/>
<line cb-classname="GraphicLineEntity" class="algorithm" id="6Nu" x1="1610" x2="1610" y1="2050" y2="2020"/>
<g cb-classname="PointStatusIndicator" cb-indicator-type="Highway" cb-source="Pg-ZPq-Yug" id="6N9">
<line cb-classname="GraphicLineEntity" class="algorithmline" id="6N3" x1="1610" x2="1570" y1="2050" y2="2090"/>
<line cb-classname="GraphicLineEntity" class="algorithmline" id="6BI" x1="1570" x2="1610" y1="2090" y2="2130"/>
<line cb-classname="GraphicLineEntity" class="algorithmline" id="6Bs" x1="1610" x2="1650" y1="2130" y2="2090"/>
<line cb-classname="GraphicLineEntity" class="algorithmline" id="6Bn" x1="1650" x2="1610" y1="2090" y2="2050"/>
</g>
<g cb-classname="PointStatusIndicator" cb-indicator-type="hardware" cb-source="TV-40O-Jtf" id="6B8">
<line cb-classname="GraphicLineEntity" class="algorithmline" id="6B1" x1="1570" x2="1570" y1="2050" y2="2130"/>
<line cb-classname="GraphicLineEntity" class="algorithmline" id="6Bk" x1="1570" x2="1650" y1="2130" y2="2130"/>
<line cb-classname="GraphicLineEntity" class="algorithmline" id="6Bp" x1="1650" x2="1650" y1="2130" y2="2050"/>
</g>
<g cb-classname="PointStatusIndicator" cb-indicator-type="alarm" cb-source="kP-eHV-NuV" id="6Bu">
<text baseline-shift="-50%" cb-classname="GraphicTextEntity" class="algorithm" fill="#000000" font-family="Arial" font-size="20" id="6B9" text-anchor="middle" x="1590" y="2031">
A
</text>
</g>
<g cb-classname="PointStatusIndicator" cb-indicator-type="ingraphic" cb-source="Di-O4f-xQU" id="6B3">
<text baseline-shift="-50%" cb-classname="GraphicTextEntity" class="algorithm" fill="#000000" font-family="Arial" font-size="20" id="6vI" text-anchor="middle" x="1630" y="2029">
G
</text>
</g>
<g cb-classname="DynamicText" cb-labeled="false" cb-pin-name="yNi" cb-source="Pg-ZPq-Yug" class="algorithm" id="6vs" text-anchor="middle">
<text cb-classname="GraphicTextEntity" class="algorithm" fill="black" font-family="Arial" font-size="20" font-style="normal" font-weight="normal" id="6vn" text-anchor="middle" text-decoration="normal" x="1610" y="2010"/>
</g>
<g baseline-shift="-100%" cb-anchor-x="1623" cb-anchor-y="2143" cb-classname="PointReferences" cb-max-width="240" cb-originator="true" cb-source="cR-dqq-j4U" class="signal" id="6v8" text-anchor="start">
<text baseline-shift="-100%" cb-classname="GraphicTextEntity" class="algorithm" id="6v1" text-anchor="start" x="1623" y="2143">
REF: Not Defined
</text>
<text baseline-shift="-100%" cb-classname="GraphicTextEntity" class="algorithm" id="6vk" text-anchor="start" x="1623" y="2179">
(CB-ALG-OUT)
</text>
</g>
<g baseline-shift="0%" cb-anchor-x="1610" cb-anchor-y="1980" cb-classname="PointDescription" cb-content="extended" cb-labeled="false" cb-max-width="240" cb-source="oN-i4p-eqK" class="algorithm" id="6v9" text-anchor="middle">
<text baseline-shift="0%" cb-classname="GraphicTextEntity" class="algorithm" id="6v3" text-anchor="middle" x="1610" y="1910">
DESC: Name Not
</text>
<text baseline-shift="0%" cb-classname="GraphicTextEntity" class="algorithm" id="6hI" text-anchor="middle" x="1610" y="1946">
Defined
</text>
<text baseline-shift="0%" cb-classname="GraphicTextEntity" class="algorithm" id="6hs" text-anchor="middle" x="1610" y="1982">
(cb-alg-out)
</text>
</g>
<g cb-classname="ControlPin" cb-pin-name="Di-O4f-xQU" id="6hn">
<line cb-classname="GraphicLineEntity" class="signalline" id="6h8" x1="1610" x2="1610" y1="2130" y2="2150"/>
<g cb-classname="SignalSegment" id="7vk">
<line cb-classname="GraphicLineEntity" class="signalline" id="7vp" stroke="#1e12bf" stroke-dasharray="5,4" x1="1610" x2="1610" y1="2150" y2="2450"/>
<g cb-classname="SignalSegment" id="7vu">
<line cb-classname="GraphicLineEntity" class="signalline" id="7v9" stroke="#1e12bf" stroke-dasharray="5,4" x1="1610" x2="2080" y1="2450" y2="2450"/>
<g cb-classname="SignalConnection" cb-graphic-line="$768$" cb-input-pin="$cmR$" id="7v3"/>
</g>
</g>
</g>
</g>
<g cb-alg-flaV="69" cb-alg-peH4="0.000000" cb-algorithm-id="009" cb-classname="ControlAlgorithm" cb-function-name="DVALGEN" cb-macro-alg="C7501" cb-macro-diag="C7501:DIAG" cb-macro-out="D7502" cb-macro-valu="C7501:VALU" cb-modify-id="3" id="7BI">
<rect cb-classname="GraphicRectangleEntity" class="algorithm" height="60" id="7Bs" width="100" x="1420" y="2610"/>
<text baseline-shift="-50%" cb-classname="GraphicTextEntity" class="algorithm" font-size="18" id="7Bn" text-anchor="middle" x="1470" y="2627">
DVAL
</text>
<text baseline-shift="-50%" cb-classname="GraphicTextEntity" class="algorithm" font-size="18" id="7B8" text-anchor="middle" x="1470" y="2653">
GEN
</text>
<g cb-classname="ControlPin" cb-pin-name="cR-dqq-j4U" id="7B1">
<line cb-classname="GraphicLineEntity" class="signalline" id="7Bk" x1="1520" x2="1540" y1="2640" y2="2640"/>
<g cb-classname="DynamicText" cb-source="Zr-DyF-QeXn" class="signal" id="7Bp">
<text baseline-shift="5%" cb-classname="GraphicTextEntity" class="signal" fill="black" font-style="normal" font-weight="normal" id="7Bu" text-decoration="normal" x="1534" y="2630"/>
</g>
<g cb-classname="SignalSegment" id="7B9">
<line cb-classname="GraphicLineEntity" class="signalline" id="7B3" stroke="#1e12bf" stroke-dasharray="5,4" x1="1540" x2="1940" y1="2640" y2="2640"/>
<g cb-classname="SignalSegment" id="7vI">
<line cb-classname="GraphicLineEntity" class="signalline" id="7vs" stroke="#1e12bf" stroke-dasharray="5,4" x1="1940" x2="1940" y1="2640" y2="2530"/>
<g cb-classname="SignalSegment" id="7vn">
<line cb-classname="GraphicLineEntity" class="signalline" id="7v8" stroke="#1e12bf" stroke-dasharray="5,4" x1="1940" x2="2080" y1="2530" y2="2530"/>
<g cb-classname="SignalConnection" cb-graphic-line="$763$" cb-input-pin="$1rm$" id="7v1"/>
</g>
</g>
</g>
</g>
</g>
<g cb-alg-geF="$750$cb-alg-out$" cb-alg-geW="$644$cb-alg-out$" cb-alg-gey="$590$cb-alg-out$" cb-algorithm-id="008" cb-classname="FastBooleanAlgorithm" cb-function-name="AND" cb-macro-in1="CMDS" cb-macro-in3="FBLL" cb-macro-out="CLO" cb-modify-id="3" id="7w1">
<rect cb-classname="GraphicRectangleEntity" class="algorithm" height="60" id="7wk" width="80" x="2100" y="2460"/>
<text baseline-shift="-50%" cb-classname="GraphicTextEntity" class="algorithm" id="7wp" text-anchor="middle" x="2140" y="2489">
AND
</text>
<line cb-classname="GraphicLineEntity" class="algorithmline" id="7wu" x1="2100" x2="2100" y1="2430" y2="2550"/>
<g cb-classname="ControlPin" cb-pin-name="Tw-FZG-V2B" id="7w9">
<line cb-classname="GraphicLineEntity" class="signalline" id="7w3" x1="2080" x2="2100" y1="2450" y2="2450"/>
<polygon cb-classname="GraphicPolygonEntity" class="signal" id="7AI" points="2100,2450 2089,2446 2089,2454"/>
<g cb-classname="DynamicText" cb-source="Di-bV2-stgN" class="signal" id="7As" text-anchor="end">
<text baseline-shift="5%" cb-classname="GraphicTextEntity" class="signal" fill="black" font-style="normal" font-weight="normal" id="7An" text-anchor="end" text-decoration="normal" x="2093" y="2442"/>
</g>
</g>
<g cb-classname="ControlPin" cb-pin-name="Pg-ZPq-Yug" id="7A8">
<line cb-classname="GraphicLineEntity" class="signalline" id="7A1" x1="2180" x2="2200" y1="2490" y2="2490"/>
<g cb-classname="DynamicText" cb-source="cR-XT1-FiMs" class="signal" id="7Ak">
<text baseline-shift="5%" cb-classname="GraphicTextEntity" class="signal" fill="black" font-style="normal" font-weight="normal" id="7Ap" text-decoration="normal" x="2192" y="2482"/>
</g>
<g cb-classname="SignalSegment" id="7Iu">
<g cb-classname="SignalConnection" cb-graphic-line="$730$" cb-input-pin="$7aU$" id="7Ws"/>
<line cb-classname="GraphicLineEntity" class="signalline" id="7WI" stroke="#1e12bf" stroke-dasharray="5,4" x1="2200" x2="2730" y1="2490" y2="2490"/>
</g>
</g>
<g cb-classname="ControlPin" cb-pin-name="Zr-lYv-BA5" id="7Au">
<line cb-classname="GraphicLineEntity" class="signalline" id="7A9" x1="2080" x2="2100" y1="2530" y2="2530"/>
<polygon cb-classname="GraphicPolygonEntity" class="signal" id="7A3" points="2100,2530 2089,2526 2089,2534"/>
<g cb-classname="DynamicText" cb-source="oN-mBA-5MpK" class="signal" id="7II" text-anchor="end">
<text baseline-shift="5%" cb-classname="GraphicTextEntity" class="signal" fill="black" font-style="normal" font-weight="normal" id="7Is" text-anchor="end" text-decoration="normal" x="2090" y="2520"/>
</g>
</g>
<g cb-classname="ControlPin" cb-pin-name="kP-eHV-Vna" id="7In">
<line cb-classname="GraphicLineEntity" class="signalline" id="7I8" x1="2080" x2="2100" y1="2490" y2="2490"/>
<polygon cb-classname="GraphicPolygonEntity" class="signal" id="7I1" points="2100,2490 2089,2486 2089,2494"/>
<g cb-classname="DynamicText" cb-source="7D-DVn-rLmn" class="signal" id="7Ik" text-anchor="end">
<text baseline-shift="5%" cb-classname="GraphicTextEntity" class="signal" fill="black" font-style="normal" font-weight="normal" id="7Ip" text-anchor="end" text-decoration="normal" x="2090" y="2480"/>
</g>
</g>
</g>
<g cb-alg-EOal="CLO" cb-alg-i5="$704$cb-alg-out$" cb-alg-qnWE="OUTPUT CLOSE COMMAND" cb-algorithm-id="007" cb-classname="ExternalPointInterface" cb-function-name="OUTPUT" cb-modify-id="2" id="6h1">
<ellipse cb-classname="GraphicEllipseEntity" class="algorithm" cx="2790" cy="2490" id="6hk" rx="40" ry="40"/>
<rect cb-classname="GraphicRectangleEntity" class="algorithm" height="80" id="6hp" width="30" x="2830" y="2450"/>
<line cb-classname="GraphicLineEntity" class="algorithm" id="6hu" x1="2830" x2="2860" y1="2490" y2="2490"/>
<g cb-classname="PointStatusIndicator" cb-indicator-type="highway" cb-source="Zr-lYv-BA" id="6h9">
<line cb-classname="GraphicLineEntity" class="algorithmline" id="6h3" x1="2750" x2="2790" y1="2490" y2="2450"/>
<line cb-classname="GraphicLineEntity" class="algorithmline" id="6cI" x1="2790" x2="2830" y1="2450" y2="2490"/>
<line cb-classname="GraphicLineEntity" class="algorithmline" id="6cs" x1="2830" x2="2790" y1="2490" y2="2530"/>
<line cb-classname="GraphicLineEntity" class="algorithmline" id="6cn" x1="2790" x2="2750" y1="2530" y2="2490"/>
</g>
<g cb-classname="PointStatusIndicator" cb-indicator-type="hardware" cb-source="kP-eHV-Vn" id="6c8">
<line cb-classname="GraphicLineEntity" class="algorithmline" id="6c1" x1="2830" x2="2750" y1="2450" y2="2450"/>
<line cb-classname="GraphicLineEntity" class="algorithmline" id="6ck" x1="2750" x2="2750" y1="2450" y2="2530"/>
<line cb-classname="GraphicLineEntity" class="algorithmline" id="6cp" x1="2750" x2="2830" y1="2530" y2="2530"/>
</g>
<g cb-classname="PointStatusIndicator" cb-indicator-type="alarm" cb-source="Pg-ZPq-a1" id="6cu">
<text cb-classname="GraphicTextEntity" class="algorithm" fill="#000000" font-family="Arial" font-size="20" id="6c9" x="2837" y="2479">
A
</text>
</g>
<g cb-classname="PointStatusIndicator" cb-indicator-type="ingraphic" cb-source="cR-dqq-cn" id="6c3">
<text cb-classname="GraphicTextEntity" class="algorithm" fill="#000000" font-family="Arial" font-size="20" id="6kI" x="2835" y="2520">
G
</text>
</g>
<g cb-classname="DynamicText" cb-labeled="false" cb-pin-name="D9" cb-source="Zr-lYv-BA" class="algorithm" id="6ks" text-anchor="end">
<text baseline-shift="0%" cb-classname="GraphicTextEntity" class="algorithm" fill="black" font-family="Arial" font-size="20" font-style="normal" font-weight="normal" id="6kn" text-anchor="end" text-decoration="normal" x="2727" y="2469"/>
</g>
<g baseline-shift="-100%" cb-anchor-x="2728" cb-anchor-y="2506" cb-classname="PointReferences" cb-max-width="240" cb-originator="false" cb-source="PH-tqX-i5" class="signal" id="6k8" text-anchor="end">
<text baseline-shift="-100%" cb-classname="GraphicTextEntity" class="algorithm" id="6k1" text-anchor="end" x="2728" y="2506">
REF: Not Defined
</text>
<text baseline-shift="-100%" cb-classname="GraphicTextEntity" class="algorithm" id="6kk" text-anchor="end" x="2728" y="2542">
(CB-ALG-IN)
</text>
</g>
<g baseline-shift="-50%" cb-anchor-x="2881" cb-anchor-y="2488" cb-classname="PointDescription" cb-content="extended" cb-labeled="false" cb-max-width="240" cb-source="xu-atJ-fs" class="algorithm" id="6ku" text-anchor="start">
<text baseline-shift="-50%" cb-classname="GraphicTextEntity" class="algorithm" id="6k9" text-anchor="start" x="2881" y="2471">
DESC: Name Not
</text>
<text baseline-shift="-50%" cb-classname="GraphicTextEntity" class="algorithm" id="6k3" text-anchor="start" x="2881" y="2507">
Defined (cb-alg-in)
</text>
</g>
<g cb-classname="ControlPin" cb-pin-name="2s-wuu-25" id="7ws">
<line cb-classname="GraphicLineEntity" class="signalline" id="7wn" x1="2730" x2="2750" y1="2490" y2="2490"/>
<polygon cb-classname="GraphicPolygonEntity" class="signal" id="7w8" points="2750,2490 2739,2484 2739,2495"/>
</g>
</g>
<g cb-alg-tRI="$354$cb-alg-out$" cb-alg-tRO="$313$cb-alg-out$" cb-alg-tRe="$421$cb-alg-out$" cb-algorithm-id="010" cb-classname="FastBooleanAlgorithm" cb-function-name="AND" cb-macro-in3="FBLR" cb-modify-id="1" id="3I9">
<rect cb-classname="GraphicRectangleEntity" class="algorithm" height="60" id="3I3" width="80" x="1680" y="1290"/>
<text baseline-shift="-50%" cb-classname="GraphicTextEntity" class="algorithm" id="3WI" text-anchor="middle" x="1720" y="1319">
AND
</text>
<line cb-classname="GraphicLineEntity" class="algorithmline" id="3Ws" x1="1680" x2="1680" y1="1260" y2="1380"/>
<g cb-classname="ControlPin" cb-pin-name="kP-eHV-VnA" id="3Wn">
<line cb-classname="GraphicLineEntity" class="signalline" id="3W8" x1="1660" x2="1680" y1="1280" y2="1280"/>
<polygon cb-classname="GraphicPolygonEntity" class="signal" id="3W1" points="1680,1280 1669,1276 1669,1284"/>
<g cb-classname="DynamicText" cb-source="7D-DVn-rLmn" class="signal" id="3Wk" text-anchor="end">
<text baseline-shift="5%" cb-classname="GraphicTextEntity" class="signal" fill="black" font-style="normal" font-weight="normal" id="3Wp" text-anchor="end" text-decoration="normal" x="1673" y="1272"/>
</g>
</g>
<g cb-classname="ControlPin" cb-pin-name="2s-wuu-JLN" id="3Wu">
<line cb-classname="GraphicLineEntity" class="signalline" id="3W9" x1="1760" x2="1780" y1="1320" y2="1320"/>
<g cb-classname="DynamicText" cb-source="J0-zCZ-nFNk" class="signal" id="3W3">
<text baseline-shift="5%" cb-classname="GraphicTextEntity" class="signal" fill="black" font-style="normal" font-weight="normal" id="3NI" text-decoration="normal" x="1772" y="1312"/>
</g>
<g cb-classname="SignalSegment" id="3Ns">
<g cb-classname="SignalConnection" cb-graphic-line="$343$" cb-input-pin="$ela$" id="3Nn"/>
<line cb-classname="GraphicLineEntity" class="signalline" id="3N8" stroke="#1e12bf" stroke-dasharray="5,4" x1="1780" x2="2120" y1="1320" y2="1320"/>
</g>
</g>
<g cb-classname="ControlPin" cb-pin-name="Tw-FZG-V2d" id="3N1">
<line cb-classname="GraphicLineEntity" class="signalline" id="3Nk" x1="1660" x2="1680" y1="1360" y2="1360"/>
<polygon cb-classname="GraphicPolygonEntity" class="signal" id="3Np" points="1680,1360 1669,1356 1669,1364"/>
<g cb-classname="DynamicText" cb-source="Di-bV2-stgN" class="signal" id="3Nu" text-anchor="end">
<text baseline-shift="5%" cb-classname="GraphicTextEntity" class="signal" fill="black" font-style="normal" font-weight="normal" id="3N9" text-anchor="end" text-decoration="normal" x="1670" y="1350"/>
</g>
</g>
<g cb-classname="ControlPin" cb-pin-name="Pg-ZPq-a1B" id="3N3">
<line cb-classname="GraphicLineEntity" class="signalline" id="3BI" x1="1660" x2="1680" y1="1320" y2="1320"/>
<polygon cb-classname="GraphicPolygonEntity" class="signal" id="3Bs" points="1680,1320 1669,1316 1669,1324"/>
<g cb-classname="DynamicText" cb-source="J0-zCZ-nFNk" class="signal" id="3Bn" text-anchor="end">
<text baseline-shift="5%" cb-classname="GraphicTextEntity" class="signal" fill="black" font-style="normal" font-weight="normal" id="3B8" text-anchor="end" text-decoration="normal" x="1670" y="1310"/>
</g>
</g>
</g>
<g cb-alg-tRI="$328$cb-alg-out$" cb-alg-tRO="$481$cb-alg-out$" cb-algorithm-id="00F" cb-classname="FastBooleanAlgorithm" cb-function-name="OR" cb-macro-in1="CMDR" cb-macro-out="OPN" cb-modify-id="1" id="3B1">
<ellipse cb-classname="GraphicEllipseEntity" class="algorithm" cx="2180" cy="1280" id="3Bk" rx="40" ry="40"/>
<text baseline-shift="-50%" cb-classname="GraphicTextEntity" class="algorithm" id="3Bp" text-anchor="middle" x="2180" y="1279">
OR
</text>
<line cb-classname="GraphicLineEntity" class="algorithmline" id="3Bu" x1="2140" x2="2140" y1="1220" y2="1340"/>
<g cb-classname="ControlPin" cb-pin-name="kP-eHV-VnA" id="3B9">
<line cb-classname="GraphicLineEntity" class="signalline" id="3B3" x1="2120" x2="2140" y1="1240" y2="1240"/>
<polygon cb-classname="GraphicPolygonEntity" class="signal" id="3vI" points="2140,1240 2129,1236 2129,1244"/>
<g cb-classname="DynamicText" cb-source="7D-DVn-rLmn" class="signal" id="3vs" text-anchor="end">
<text baseline-shift="5%" cb-classname="GraphicTextEntity" class="signal" fill="black" font-style="normal" font-weight="normal" id="3vn" text-anchor="end" text-decoration="normal" x="2139" y="1234"/>
</g>
</g>
<g cb-classname="ControlPin" cb-pin-name="2s-wuu-JLN" id="3v8">
<line cb-classname="GraphicLineEntity" class="signalline" id="3v1" x1="2220" x2="2240" y1="1280" y2="1280"/>
<g cb-classname="DynamicText" cb-source="J0-zCZ-nFNk" class="signal" id="3vk">
<text baseline-shift="5%" cb-classname="GraphicTextEntity" class="signal" fill="black" font-style="normal" font-weight="normal" id="3vp" text-decoration="normal" x="2234" y="1271"/>
</g>
<g cb-classname="SignalSegment" id="3vu">
<line cb-classname="GraphicLineEntity" class="signalline" id="3v9" stroke="#1e12bf" stroke-dasharray="5,4" x1="2240" x2="2300" y1="1280" y2="1280"/>
<g cb-classname="SignalSegment" id="3v3">
<line cb-classname="GraphicLineEntity" class="signalline" id="3hI" stroke="#1e12bf" stroke-dasharray="5,4" x1="2300" x2="2300" y1="1280" y2="1430"/>
<g cb-classname="SignalSegment" id="3hs">
<line cb-classname="GraphicLineEntity" class="signalline" id="3hn" stroke="#1e12bf" stroke-dasharray="5,4" x1="2300" x2="1480" y1="1430" y2="1430"/>
<g cb-classname="SignalSegment" id="3h8">
<line cb-classname="GraphicLineEntity" class="signalline" id="3h1" stroke="#1e12bf" stroke-dasharray="5,4" x1="1480" x2="1480" y1="1430" y2="1360"/>
<g cb-classname="SignalSegment" id="3hk">
<line cb-classname="GraphicLineEntity" class="signalline" id="3hp" stroke="#1e12bf" stroke-dasharray="5,4" x1="1480" x2="1660" y1="1360" y2="1360"/>
<g cb-classname="SignalConnection" cb-graphic-line="$376$" cb-input-pin="$W1K$" id="3hu"/>
</g>
</g>
</g>
<ellipse cb-classname="GraphicEllipseEntity" class="signal" cx="2300" cy="1280" fill="#1e12bf" id="3h9" rx="5" ry="5" stroke="#1e12bf" stroke-dasharray="5,4"/>
<line cb-classname="GraphicLineEntity" class="signalline" id="3h3" stroke="#1e12bf" stroke-dasharray="5,4" x1="2300" x2="2725" y1="1280" y2="1280"/>
<g cb-classname="SignalConnection" cb-graphic-line="$379$" cb-input-pin="$LOl$" id="3cI"/>
</g>
</g>
</g>
<g cb-classname="ControlPin" cb-pin-name="PH-tqX-i5S" id="3cs">
<line cb-classname="GraphicLineEntity" class="signalline" id="3cn" x1="2120" x2="2140" y1="1320" y2="1320"/>
<polygon cb-classname="GraphicPolygonEntity" class="signal" id="3c8" points="2140,1320 2129,1316 2129,1324"/>
<g cb-classname="DynamicText" cb-source="kP-1i5-2w8D" class="signal" id="3c1" text-anchor="end">
<text baseline-shift="5%" cb-classname="GraphicTextEntity" class="signal" fill="black" font-style="normal" font-weight="normal" id="3ck" text-anchor="end" text-decoration="normal" x="2138" y="1314"/>
</g>
</g>
<g cb-classname="ControlPin" cb-pin-name="Di-O4f-Crh" id="3cp">
<line cb-classname="GraphicLineEntity" class="signalline" id="3cu" x1="2120" x2="2140" y1="1280" y2="1280"/>
<polygon cb-classname="GraphicPolygonEntity" class="signal" id="3c9" points="2140,1280 2129,1276 2129,1284"/>
<g cb-classname="DynamicText" cb-source="2s-MCr-1PD0" class="signal" id="3c3" text-anchor="end">
<text baseline-shift="5%" cb-classname="GraphicTextEntity" class="signal" fill="black" font-style="normal" font-weight="normal" id="3kI" text-anchor="end" text-decoration="normal" x="2138" y="1274"/>
</g>
</g>
</g>
<g cb-alg-4Gnk="OPN" cb-alg-9fvP="OUTPUT OPEN COMMAND" cb-alg-gc="$354$cb-alg-out$" cb-algorithm-id="001" cb-classname="ExternalPointInterface" cb-function-name="OUTPUT" cb-modify-id="1" id="3ks">
<ellipse cb-classname="GraphicEllipseEntity" class="algorithm" cx="2785" cy="1280" id="3kn" rx="40" ry="40"/>
<rect cb-classname="GraphicRectangleEntity" class="algorithm" height="80" id="3k8" width="30" x="2825" y="1240"/>
<line cb-classname="GraphicLineEntity" class="algorithm" id="3k1" x1="2825" x2="2855" y1="1280" y2="1280"/>
<g cb-classname="PointStatusIndicator" cb-indicator-type="highway" cb-source="oN-i4p-PL" id="3kk" visibility="hidden">
<line cb-classname="GraphicLineEntity" class="algorithmline" id="3kp" x1="2745" x2="2785" y1="1280" y2="1240"/>
<line cb-classname="GraphicLineEntity" class="algorithmline" id="3ku" x1="2785" x2="2825" y1="1240" y2="1280"/>
<line cb-classname="GraphicLineEntity" class="algorithmline" id="3k9" x1="2825" x2="2785" y1="1280" y2="1320"/>
<line cb-classname="GraphicLineEntity" class="algorithmline" id="3k3" x1="2785" x2="2745" y1="1320" y2="1280"/>
</g>
<g cb-classname="PointStatusIndicator" cb-indicator-type="hardware" cb-source="7D-Mqm-BE" id="4wI" visibility="visible">
<line cb-classname="GraphicLineEntity" class="algorithmline" id="4ws" x1="2825" x2="2745" y1="1240" y2="1240"/>
<line cb-classname="GraphicLineEntity" class="algorithmline" id="4wn" x1="2745" x2="2745" y1="1240" y2="1320"/>
<line cb-classname="GraphicLineEntity" class="algorithmline" id="4w8" x1="2745" x2="2825" y1="1320" y2="1320"/>
</g>
<g cb-classname="PointStatusIndicator" cb-indicator-type="alarm" cb-source="J0-5u1-HQ" id="4w1" visibility="hidden">
<text cb-classname="GraphicTextEntity" class="algorithm" fill="#000000" font-family="Arial" font-size="20" id="4wk" x="2832" y="1269">
A
</text>
</g>
<g cb-classname="PointStatusIndicator" cb-indicator-type="ingraphic" cb-source="TV-40O-lE" id="4wp" visibility="visible">
<text cb-classname="GraphicTextEntity" class="algorithm" fill="#000000" font-family="Arial" font-size="20" id="4wu" x="2830" y="1310">
G
</text>
</g>
<g cb-classname="DynamicText" cb-labeled="false" cb-pin-name="UE" cb-source="oN-i4p-PL" class="algorithm" id="4w9" text-anchor="end">
<text baseline-shift="0%" cb-classname="GraphicTextEntity" class="algorithm" fill="black" font-family="Arial" font-size="20" font-style="normal" font-weight="normal" id="4w3" text-anchor="end" text-decoration="normal" x="2722" y="1259"/>
</g>
<g baseline-shift="-100%" cb-anchor-x="2723" cb-anchor-y="1296" cb-classname="PointReferences" cb-max-width="130" cb-originator="false" cb-source="kP-eHV-Vn" class="signal" id="4AI" text-anchor="end">
<text baseline-shift="-100%" cb-classname="GraphicTextEntity" class="algorithm" id="4As" text-anchor="end" x="2723" y="1296">
2/S501
</text>
</g>
<g baseline-shift="-50%" cb-anchor-x="2876" cb-anchor-y="1278" cb-classname="PointDescription" cb-content="extended" cb-labeled="false" cb-max-width="240" cb-source="Di-O4f-Cr" class="algorithm" id="4An" text-anchor="start">
<text baseline-shift="-50%" cb-classname="GraphicTextEntity" class="algorithm" id="4A8" text-anchor="start" x="2876" y="1243">
COND HEATER
</text>
<text baseline-shift="-50%" cb-classname="GraphicTextEntity" class="algorithm" id="4A1" text-anchor="start" x="2876" y="1279">
INLET SV CMD
</text>
<text baseline-shift="-50%" cb-classname="GraphicTextEntity" class="algorithm" id="4Ak" text-anchor="start" x="2876" y="1315">
(OPEN - !CLOSE)
</text>
</g>
<g cb-classname="ControlPin" cb-pin-name="Zr-lYv-BA" id="4A9">
<line cb-classname="GraphicLineEntity" class="signalline" id="4A3" x1="2725" x2="2745" y1="1280" y2="1280"/>
<polygon cb-classname="GraphicPolygonEntity" class="signal" id="4II" points="2745,1280 2734,1274 2734,1285"/>
</g>
</g>
</g>
<g cb-classname="IncludeDocument" cb-modify-time="03/12/2018 11:07:58" cb-objectname="frame" id="5">
<text cb-classname="GraphicTextEntity" class="frame" font-size="50" id="1Anm" x="3660" y="3146">
Project Title &lt;Edit in FRAME.SVG&gt;
</text>
<g baseline-shift="-50%" cb-classname="DynamicText" cb-source="Di-w3NM-Bz" class="frame" id="1Anc">
<text cb-classname="GraphicTextEntity" class="frame" fill="black" font-family="arial" font-size="25" font-style="normal" font-weight="normal" id="1An4" text-decoration="normal" x="4715" y="3325">

</text>
</g>
<g baseline-shift="-50%" cb-classname="DynamicText" cb-source="Pg-mJx9-2Z" class="frame" id="1Ang" text-anchor="middle">
<text cb-classname="GraphicTextEntity" class="frame" fill="black" font-family="arial" font-size="48" font-style="normal" font-weight="normal" id="1A81" text-anchor="middle" text-decoration="normal" x="4900" y="3320">

</text>
</g>
<g baseline-shift="-50%" cb-classname="DynamicText" cb-source="cR-k5f3-Hf" class="frame" id="1A8C" text-anchor="middle">
<text cb-classname="GraphicTextEntity" class="frame" fill="black" font-family="arial" font-size="48" font-style="normal" font-weight="normal" id="1A8A" text-anchor="middle" text-decoration="normal" x="5067" y="3324">

</text>
</g>
<g cb-classname="DynamicText" cb-source="Zr-fPUeU-FPHqK" class="frame" id="1A8a">
<text cb-classname="GraphicTextEntity" class="frame" fill="black" font-family="arial" font-size="48" font-style="normal" font-weight="normal" id="1A8K" text-decoration="normal" x="3660" y="3224">
VALVE_C
</text>
</g>
<g baseline-shift="-50%" cb-classname="DynamicText" cb-source="PH-9BdsF-LP53DH" class="frame" id="1A8u" text-anchor="middle">
<text cb-classname="GraphicTextEntity" class="frame" fill="black" font-family="arial" font-size="48" font-style="normal" font-weight="normal" id="1A8m" text-anchor="middle" text-decoration="normal" x="5270" y="3324">

</text>
</g>
<g baseline-shift="0%" cb-classname="DynamicText" cb-source="Tw-wscPWV9s" class="frame" id="1A8c" text-anchor="middle">
<text cb-classname="GraphicTextEntity" class="frame" fill="black" font-family="arial" font-size="36" font-style="normal" font-weight="normal" id="1A84" text-anchor="middle" text-decoration="normal" x="5270" y="3150">
A
</text>
</g>
<g baseline-shift="0%" cb-classname="DynamicText" cb-source="xu-UnbVUCyE-gKxv" class="frame" id="1A8g" text-anchor="middle">
<text cb-classname="GraphicTextEntity" class="frame" fill="black" font-family="arial" font-size="20" font-style="normal" font-weight="normal" id="1A11" text-anchor="middle" text-decoration="normal" x="5270" y="3230">

</text>
</g>
<g baseline-shift="-50%" cb-classname="DynamicText" cb-source="7D-y2mCriNV" class="frame" id="1A1C" text-anchor="end">
<text cb-classname="GraphicTextEntity" class="frame" fill="black" font-family="arial" font-size="26" font-style="normal" font-weight="normal" id="1A1A" text-anchor="end" text-decoration="normal" x="4500" y="3420">

</text>
</g>
<g baseline-shift="-50%" cb-classname="DynamicText" cb-source="2s-JviaNRwg" class="frame" id="1A1a" text-anchor="end">
<text cb-classname="GraphicTextEntity" class="frame" fill="black" font-family="arial" font-size="26" font-style="normal" font-weight="normal" id="1A1K" text-anchor="end" text-decoration="normal" x="5353" y="3420">

</text>
</g>
<g cb-classname="GraphicShape" cb-tag="BORDER" id="1A1u">
<line cb-classname="GraphicLineEntity" class="frameline" id="1A1m" x1="40" x2="40" y1="40" y2="3460"/>
<line cb-classname="GraphicLineEntity" class="frameline" id="1A1c" x1="40" x2="5380" y1="3460" y2="3460"/>
<line cb-classname="GraphicLineEntity" class="frameline" id="1A14" x1="5380" x2="5380" y1="3460" y2="40"/>
<line cb-classname="GraphicLineEntity" class="frameline" id="1A1g" x1="5380" x2="40" y1="40" y2="40"/>
<line cb-classname="GraphicLineEntity" class="frame" id="1Ak1" x1="5430" x2="5440" y1="3510" y2="3510"/>
</g>
<g cb-classname="GraphicShape" cb-tag="TITLE BOX" id="1AkC">
<line cb-classname="GraphicLineEntity" class="frameline" id="1AkA" x1="2340" x2="2340" y1="3080" y2="3460"/>
<line cb-classname="GraphicLineEntity" class="frameline" id="1Aka" x1="2340" x2="5380" y1="3080" y2="3080"/>
<line cb-classname="GraphicLineEntity" class="frameline" id="1AkK" x1="3650" x2="3650" y1="3460" y2="3080"/>
<line cb-classname="GraphicLineEntity" class="frameline" id="1Aku" x1="3650" x2="5380" y1="3240" y2="3240"/>
<line cb-classname="GraphicLineEntity" class="frameline" id="1Akm" x1="3650" x2="5380" y1="3390" y2="3390"/>
<line cb-classname="GraphicLineEntity" class="frameline" id="1Akc" x1="3650" x2="5380" y1="3160" y2="3160"/>
<line cb-classname="GraphicLineEntity" class="frameline" id="1Ak4" x1="3650" x2="4520" y1="3320" y2="3320"/>
<line cb-classname="GraphicLineEntity" class="frameline" id="1Akg" x1="4520" x2="5380" y1="3290" y2="3290"/>
<line cb-classname="GraphicLineEntity" class="frameline" id="1Ap1" x1="4520" x2="5380" y1="3240" y2="3240"/>
<line cb-classname="GraphicLineEntity" class="frameline" id="1ApC" x1="4520" x2="4520" y1="3240" y2="3460"/>
<line cb-classname="GraphicLineEntity" class="frameline" id="1ApA" x1="4810" x2="4810" y1="3240" y2="3390"/>
<line cb-classname="GraphicLineEntity" class="frameline" id="1Apa" x1="4990" x2="4990" y1="3240" y2="3390"/>
<line cb-classname="GraphicLineEntity" class="frameline" id="1ApK" x1="5150" x2="5150" y1="3080" y2="3390"/>
</g>
<g cb-classname="GraphicShape" cb-tag="TEXT LABELS" id="1Apu">
<text baseline-shift="-50%" cb-classname="GraphicTextEntity" class="frame" font-size="25" id="1Apm" text-anchor="middle" x="4890" y="3252">
Drop
</text>
<text baseline-shift="-50%" cb-classname="GraphicTextEntity" class="frame" font-size="25" id="1Apc" text-anchor="middle" x="5075" y="3252">
Task
</text>
<text baseline-shift="-50%" cb-classname="GraphicTextEntity" class="frame" font-size="25" id="1Ap4" text-anchor="middle" x="5265" y="3252">
Sheet
</text>
<text cb-classname="GraphicTextEntity" class="frame" font-size="25" id="1Apg" x="5152" y="3107">
Rev.
</text>
<text cb-classname="GraphicTextEntity" class="frame" font-size="25" id="1Au1" x="3653" y="3418">
Engineer
</text>
<text cb-classname="GraphicTextEntity" class="frame" font-size="25" id="1AuC" x="4528" y="3419">
Approved
</text>
<text cb-classname="GraphicTextEntity" class="frame" font-size="25" id="1AuA" x="5152" y="3187">
Date
</text>
<text baseline-shift="-50%" cb-classname="GraphicTextEntity" class="frame" font-size="25" id="1Aua" text-anchor="middle" x="4660" y="3252">
Drawing Number
</text>
<text baseline-shift="-50%" cb-classname="GraphicTextEntity" class="frame" font-size="25" id="1AuK" text-anchor="middle" x="4680" y="3325">
CTL
</text>
</g>
<text baseline-shift="-50%" cb-classname="GraphicTextEntity" class="frame" font-size="48" id="1Auu" text-anchor="middle" x="3000" y="3100">
EMERSON PROCESS MANAGEMENT
</text>
<g baseline-shift="-100%" cb-anchor-x="2360" cb-anchor-y="3140" cb-classname="GroupText" cb-max-width="1260" fill="black" id="1Aum">
<text baseline-shift="-100%" cb-classname="GraphicTextEntity" class="frame" fill="black" font-family="arial" font-size="22" font-weight="normal" id="1Auc" text-anchor="start" text-decoration="normal" x="2360" y="3140">
THIS DOCUMENT CONTAINS INFORMATION PROPRIETARY TO EMERSON PROCESS
</text>
<text baseline-shift="-100%" cb-classname="GraphicTextEntity" class="frame" fill="black" font-family="arial" font-size="22" font-weight="normal" id="1Au4" text-anchor="start" text-decoration="normal" x="2360" y="3176">
MANAGEMENT POWER &amp; WATER SOLUTIONS, INC. IT IS SUBMITTED IN CONFIDENCE AND
</text>
<text baseline-shift="-100%" cb-classname="GraphicTextEntity" class="frame" fill="black" font-family="arial" font-size="22" font-weight="normal" id="1Aug" text-anchor="start" text-decoration="normal" x="2360" y="3212">
TRUST, IS TO BE USED BY YOU SOLELY FOR THE PURPOSES FOR WHICH IT IS
</text>
<text baseline-shift="-100%" cb-classname="GraphicTextEntity" class="frame" fill="black" font-family="arial" font-size="22" font-weight="normal" id="1A91" text-anchor="start" text-decoration="normal" x="2360" y="3248">
FURNISHED AND IS TO BE RETURNED UPON REQUEST. THIS DOCUMENT AND ANY
</text>
<text baseline-shift="-100%" cb-classname="GraphicTextEntity" class="frame" fill="black" font-family="arial" font-size="22" font-weight="normal" id="1A9C" text-anchor="start" text-decoration="normal" x="2360" y="3284">
OTHER INFORMATION PROVIDED TO YOU IS NOT TO BE REPRODUCED, TRANSMITTED,
</text>
<text baseline-shift="-100%" cb-classname="GraphicTextEntity" class="frame" fill="black" font-family="arial" font-size="22" font-weight="normal" id="1A9A" text-anchor="start" text-decoration="normal" x="2360" y="3320">
DISCLOSED, OR USED OTHERWISE IN WHOLE OR IN PART WITHOUT THE PRIOR
</text>
<text baseline-shift="-100%" cb-classname="GraphicTextEntity" class="frame" fill="black" font-family="arial" font-size="22" font-weight="normal" id="1A9a" text-anchor="start" text-decoration="normal" x="2360" y="3356">
WRITTEN AUTHORIZATION OF EMERSON PROCESS MANAGEMENT POWER &amp; WATER
</text>
<text baseline-shift="-100%" cb-classname="GraphicTextEntity" class="frame" fill="black" font-family="arial" font-size="22" font-weight="normal" id="1A9K" text-anchor="start" text-decoration="normal" x="2360" y="3392">
SOLUTIONS,INC.
</text>
</g>
</g>
</svg>